#VRML V2.0 utf8


Group {
  children 
    Group {
      children [ 
        Group {
          children 
            Transform {
              translation -0.25343829 0.18920021 0.017957455
              rotation 0.55980873 -0.55980873 -0.61092418  2.0447659
              scale 0.99999988 0.99999535 1
              scaleOrientation -0.48162082 0.87518609 -0.045702647  0.25532916
              children 
                Transform {
                  translation 0.1947505 0.0060418872 -0.27396679
                  rotation 0.5935185 -0.59351802 -0.54357356  4.1373849
                  scale 0.99999994 0.99999535 1.0000045
                  scaleOrientation -0.070044227 0.35422942 0.93253309  0.12990381
                  children 
                    Shape {
                      appearance 
                      Appearance {
                        material 
                        Material {
                          diffuseColor 0.48188239 0.48188239 0.48188239

                        }

                      }
                      geometry 
                      IndexedFaceSet {
                        coord 
                        Coordinate {
                          point [ -0.019255809 0.0054999581 -0.0059551001,
                              -0.007548213 -0.0037499659 0.000184313,
                              -0.005775928 -0.0037499659 0.00049872702,
                              -0.0074982038 -0.0046316381 -9.7766599e-005,
                              -0.0057258601 -0.0046316381 0.000216648,
                              -0.0074402089 -0.0049635172 -0.00042451901,
                              -0.0056678648 -0.0049635172 -0.000110105,
                              -0.0072861901 -0.0052499771 -0.001292586,
                              -0.005513906 -0.0052499771 -0.00097821699,
                              -0.0071321721 -0.0049635172 -0.002160727,
                              -0.0053598881 -0.0049635172 -0.001846313,
                              -0.007036983 -0.004213511 -0.0026972289,
                              -0.005264699 -0.004213511 -0.002382814,
                              -0.007024168 -0.0037499659 -0.0027695289,
                              -0.005251884 -0.0037499659 -0.0024551151,
                              -0.019255809 0.0054999581 -0.0059551001,
                              -0.005775928 -0.0037499659 0.00049872702,
                              -0.0056949249 -0.0037499659 0.000614658,
                              -0.0057258601 -0.0046316381 0.000216648,
                              -0.0056413999 -0.0046914211 0.00031302901,
                              -0.0055020452 -0.0052710171 -0.000472263,
                              -0.0055948491 -0.0051765442 -0.000521824,
                              -0.0054329028 -0.0051765442 -0.001434564,
                              -0.005328774 -0.0052710171 -0.001449167,
                              -0.0053018918 -0.0046316381 -0.0021730659,
                              -0.0051894179 -0.0046914211 -0.002234458,
                              -0.005251884 -0.0037499659 -0.0024551151,
                              -0.005135953 -0.0037499659 -0.002536118,
                              -0.019255809 0.0054999581 -0.0059551001,
                              -0.005251884 -0.0037499659 -0.0024551151,
                              -0.005135953 -0.0037499659 -0.002536118,
                              -0.0053018918 -0.002868294 -0.0021730659,
                              -0.0051894179 -0.002808511 -0.002234458,
                              -0.005328774 -0.002228915 -0.001449167,
                              -0.0054329028 -0.0023233891 -0.001434564,
                              -0.0055948491 -0.0023233891 -0.000521824,
                              -0.0055020452 -0.002228915 -0.000472263,
                              -0.0057258601 -0.002868294 0.000216648,
                              -0.0056413999 -0.002808511 0.00031302901,
                              -0.005775928 -0.0037499659 0.00049872702,
                              -0.0056949249 -0.0037499659 0.000614658,
                              -0.019255809 0.0054999581 -0.0059551001,
                              -0.007024168 -0.0037499659 -0.0027695289,
                              -0.005251884 -0.0037499659 -0.0024551151,
                              -0.0070742359 -0.002868294 -0.0024874799,
                              -0.0053018918 -0.002868294 -0.0021730659,
                              -0.0072052469 -0.0023233891 -0.001748979,
                              -0.0054329028 -0.0023233891 -0.001434564,
                              -0.0073671928 -0.0023233891 -0.00083623902,
                              -0.0055948491 -0.0023233891 -0.000521824,
                              -0.0074982038 -0.002868294 -9.7766599e-005,
                              -0.0057258601 -0.002868294 0.000216648,
                              -0.007548213 -0.0037499659 0.000184313,
                              -0.005775928 -0.0037499659 0.00049872702,
                              -0.019255809 0.0054999581 -0.0059551001,
                              -0.007548213 -0.0037499659 0.000184313,
                              -0.007664144 -0.0037499659 0.00026528499,
                              -0.0074982038 -0.002868294 -9.7766599e-005,
                              -0.0076106191 -0.002808511 -3.6314101e-005,
                              -0.007471323 -0.002228915 -0.000821636,
                              -0.0073671928 -0.0023233891 -0.00083623902,
                              -0.0072052469 -0.0023233891 -0.001748979,
                              -0.0072979918 -0.002228915 -0.00179857,
                              -0.0070742359 -0.002868294 -0.0024874799,
                              -0.0071586962 -0.002808511 -0.0025838609,
                              -0.007024168 -0.0037499659 -0.0027695289,
                              -0.0071051712 -0.0037499659 -0.0028854599,
                              -0.019255809 0.0054999581 -0.0059551001,
                              -0.007024168 -0.0037499659 -0.0027695289,
                              -0.0071051712 -0.0037499659 -0.0028854599,
                              -0.0070742359 -0.0046316381 -0.0024874799,
                              -0.0071586962 -0.0046914211 -0.0025838609,
                              -0.0072979918 -0.0052710171 -0.00179857,
                              -0.0072052469 -0.0051765442 -0.001748979,
                              -0.0073671928 -0.0051765442 -0.00083623902,
                              -0.007471323 -0.0052710171 -0.000821636,
                              -0.0074982038 -0.0046316381 -9.7766599e-005,
                              -0.0076106191 -0.0046914211 -3.6314101e-005,
                              -0.007548213 -0.0037499659 0.000184313,
                              -0.007664144 -0.0037499659 0.00026528499,
                              -0.019255809 0.0054999581 -0.0059551001,
                              -0.01704037 0.003249943 -0.005562067,
                              -0.016435681 0.0074415202 -0.0089706769,
                              -0.01645457 0.007603406 -0.0088640451,
                              -0.01648288 0.0077117682 -0.0087046018,
                              -0.01704037 0.0077499738 -0.005562067,
                              -0.016429 0.003249943 -0.0090082884,
                              -0.019255809 0.0054999581 -0.0059551001,
                              -0.021167509 0.003288209 -0.00629425,
                              -0.0220409 0.0032881489 -0.001371145,
                              -0.021852249 0.003249943 -0.001337707,
                              -0.020978861 0.003249943 -0.0062608118,
                              -0.022200281 0.003396451 -0.001399397,
                              -0.02132695 0.0033965111 -0.0063225622,
                              -0.022306969 0.0035583971 -0.001418352,
                              -0.02143359 0.003558456 -0.0063414569,
                              -0.021471201 0.0037499659 -0.0063481331,
                              -0.02234458 0.0037499659 -0.001425027,
                              -0.019255809 0.0054999581 -0.0059551001,
                              0.01704037 0.003249943 0.005562067,
                              0.016435681 0.0074415202 0.0089706769,
                              0.01645457 0.007603406 0.0088640451,
                              0.01648288 0.0077117682 0.0087046018,
                              0.01704037 0.0077499738 0.005562067,
                              0.016429 0.003249943 0.0090082884,
                              -0.019255809 0.0054999581 -0.0059551001,
                              -0.0185185 0.0074415202 0.0027695289,
                              0.016435681 0.0074415202 0.0089706769,
                              0.016429 0.0072499509 0.0090082884,
                              -0.018525179 0.0072499509 0.0028071399,
                              0.01645457 0.007603406 0.0088640451,
                              -0.018499549 0.007603466 0.0026628971,
                              0.01648288 0.0077117682 0.0087046018,
                              -0.018471301 0.0077117682 0.002503454,
                              -0.018437801 0.0077499738 0.0023148649,
                              0.01651632 0.0077499738 0.008515954,
                              -0.019255809 0.0054999581 -0.0059551001,
                              -0.018471301 0.0077117682 0.002503454,
                              -0.017913749 0.0077499738 -0.00063900702,
                              -0.018499549 0.007603466 0.0026628971,
                              -0.0185185 0.0074415202 0.0027695289,
                              -0.018525179 0.003249943 0.0028071399,
                              -0.017913749 0.003249943 -0.00063900702,
                              -0.019255809 0.0054999581 -0.0059551001,
                              -0.0063365689 0.003249943 -0.007217824,
                              -0.016429 0.003249943 -0.0090082884,
                              -0.008432745 0.003249943 0.0045976038,
                              -0.01704037 0.003249943 -0.005562067,
                              -0.017913749 0.003249943 -0.00063900702,
                              -0.018525179 0.003249943 0.0028071399,
                              -0.020978861 0.003249943 -0.0062608118,
                              -0.021852249 0.003249943 -0.001337707,
                              -0.019255809 0.0054999581 -0.0059551001,
                              -0.0072099562 -0.0077499738 -0.002294719,
                              -0.0075593591 -0.0077499738 -0.000325456,
                              -0.0052407379 -0.0077499738 -0.001945316,
                              -0.0055900812 -0.0077499738 2.38866e-005,
                              -0.019255809 0.0054999581 -0.0059551001,
                              -0.0063365689 -0.002749979 -0.007217824,
                              -0.0043673511 -0.002749979 -0.0068684812,
                              -0.006453692 -0.0052511692 -0.0065575829,
                              -0.0044844742 -0.0052511692 -0.0062081809,
                              -0.0067730541 -0.0070793619 -0.004757463,
                              -0.0048038359 -0.007079422 -0.004408061,
                              -0.0072099562 -0.0077499738 -0.002294719,
                              -0.0052407379 -0.0077499738 -0.001945316,
                              -0.019255809 0.0054999581 -0.0059551001,
                              -0.0069836369 -0.0075790281 -0.003570497,
                              -0.0071189399 -0.0042460561 -0.0028077359,
                              -0.0072202082 -0.0050436249 -0.002237021,
                              -0.0073846569 -0.0053499928 -0.00131005,
                              -0.007471323 -0.0052710171 -0.000821636,
                              -0.0076106191 -0.0046914211 -3.6314101e-005,
                              -0.007664144 -0.0037499659 0.00026528499,
                              -0.007785677 -0.0075790281 0.00095032202,
                              -0.008432745 0.003249943 0.0045976038,
                              -0.008402884 -0.0040457239 0.0044293399,
                              -0.0083156219 -0.0052511692 0.0039373632,
                              -0.0079962611 -0.007079422 0.002137243,
                              -0.0076106191 -0.002808511 -3.6314101e-005,
                              -0.007471323 -0.002228915 -0.000821636,
                              -0.0072979918 -0.002228915 -0.00179857,
                              -0.0071189399 -0.0032538769 -0.0028077359,
                              -0.0067730541 -0.0070793619 -0.004757463,
                              -0.0071586962 -0.002808511 -0.0025838609,
                              -0.006453692 -0.0052511692 -0.0065575829,
                              -0.0063664308 -0.0040456648 -0.0070495,
                              -0.0063365689 0.003249943 -0.007217824,
                              -0.019255809 0.0054999581 -0.0059551001,
                              -0.0075593591 -0.0077499738 -0.000325456,
                              -0.0055900812 -0.0077499738 2.38866e-005,
                              -0.0079962611 -0.007079422 0.002137243,
                              -0.0060269828 -0.0070793619 0.0024866459,
                              -0.0083156219 -0.0052511692 0.0039373632,
                              -0.006346344 -0.0052511692 0.004286706,
                              -0.008432745 -0.002749979 0.0045976038,
                              -0.0064634681 -0.002749979 0.0049470058,
                              -0.019255809 0.0054999581 -0.0059551001,
                              -0.004397213 -0.0040457239 -0.0067001581,
                              -0.0043673511 0.003249943 -0.0068684812,
                              -0.0051497221 -0.0042460561 -0.0024583931,
                              -0.005135953 -0.0037499659 -0.002536118,
                              -0.0050144191 -0.0075790281 -0.0032210939,
                              -0.0052509899 -0.0050436249 -0.001887679,
                              -0.0055020452 -0.0052710171 -0.000472263,
                              -0.0054154391 -0.0053499928 -0.00096072297,
                              -0.0056413999 -0.0046914211 0.00031302901,
                              -0.0058164001 -0.0075790281 0.001299679,
                              -0.0056949249 -0.0037499659 0.000614658,
                              -0.0044844742 -0.0052511692 -0.0062081809,
                              -0.0048038359 -0.007079422 -0.004408061,
                              -0.0051894179 -0.002808511 -0.002234458,
                              -0.005328774 -0.002228915 -0.001449167,
                              -0.0054154391 -0.0021499989 -0.00096072297,
                              -0.0055798879 -0.0024563069 -3.37809e-005,
                              -0.0060269828 -0.0070793619 0.0024866459,
                              -0.0056413999 -0.002808511 0.00031302901,
                              -0.006346344 -0.0052511692 0.004286706,
                              -0.0064336061 -0.0040456648 0.0047786832,
                              -0.0064634681 0.003249943 0.0049470058,
                              -0.019255809 0.0054999581 -0.0059551001,
                              -0.01247268 0.0054999581 -0.0041164751,
                              -0.0129615 0.0057711601 -0.0045845499,
                              -0.01302248 0.0054999581 -0.004595398,
                              -0.01279079 0.0059885969 -0.0045542712,
                              -0.01254403 0.0061092968 -0.004510521,
                              -0.01227015 0.0061092968 -0.0044619441,
                              -0.01202338 0.0059885969 -0.0044181342,
                              -0.01185262 0.0057711601 -0.0043878551,
                              -0.0117917 0.0054999581 -0.004377007,
                              -0.019255809 0.0054999581 -0.0059551001,
                              -0.01247268 0.0054999581 -0.0041164751,
                              -0.01185262 0.005228817 -0.0043878551,
                              -0.0117917 0.0054999581 -0.004377007,
                              -0.01202338 0.0050113201 -0.0044181342,
                              -0.01227015 0.0048906798 -0.0044619441,
                              -0.01254403 0.0048906798 -0.004510521,
                              -0.01279079 0.0050113201 -0.0045542712,
                              -0.0129615 0.005228817 -0.0045845499,
                              -0.01302248 0.0054999581 -0.004595398,
                              -0.019255809 0.0054999581 -0.0059551001,
                              -0.01185262 0.005228817 -0.0043878551,
                              -0.01120096 0.0052608252 -0.0079792142,
                              -0.01115411 0.0054999581 -0.0079709291,
                              -0.0117917 0.0054999581 -0.004377007,
                              -0.01133435 0.0050580502 -0.0080028772,
                              -0.01202338 0.0050113201 -0.0044181342,
                              -0.01153397 0.0049225679 -0.0080383411,
                              -0.01227015 0.0048906798 -0.0044619441,
                              -0.01176947 0.0048749442 -0.0080800653,
                              -0.01254403 0.0048906798 -0.004510521,
                              -0.01200497 0.0049225679 -0.0081218481,
                              -0.01279079 0.0050113201 -0.0045542712,
                              -0.01220464 0.0050580502 -0.0081573119,
                              -0.0129615 0.005228817 -0.0045845499,
                              -0.01233804 0.0052608252 -0.008180975,
                              -0.01302248 0.0054999581 -0.004595398,
                              -0.01238489 0.0054999581 -0.00818926,
                              -0.019255809 0.0054999581 -0.0059551001,
                              -0.0129615 0.0057711601 -0.0045845499,
                              -0.01233804 0.005739152 -0.008180975,
                              -0.01238489 0.0054999581 -0.00818926,
                              -0.01302248 0.0054999581 -0.004595398,
                              -0.01220464 0.005941927 -0.0081573119,
                              -0.01279079 0.0059885969 -0.0045542712,
                              -0.01200497 0.0060774079 -0.0081218481,
                              -0.01254403 0.0061092968 -0.004510521,
                              -0.01176947 0.0061249728 -0.0080800653,
                              -0.01227015 0.0061092968 -0.0044619441,
                              -0.01153397 0.0060774079 -0.0080383411,
                              -0.01202338 0.0059885969 -0.0044181342,
                              -0.01133435 0.005941927 -0.0080028772,
                              -0.01185262 0.0057711601 -0.0043878551,
                              -0.01120096 0.005739152 -0.0079792142,
                              -0.0117917 0.0054999581 -0.004377007,
                              -0.01115411 0.0054999581 -0.0079709291,
                              -0.019255809 0.0054999581 -0.0059551001,
                              -0.01238489 0.0054999581 -0.00818926,
                              -0.01233804 0.005739152 -0.008180975,
                              -0.01246589 0.0054999581 -0.0083051911,
                              -0.01241129 0.005777895 -0.008295536,
                              -0.01220464 0.005941927 -0.0081573119,
                              -0.0122568 0.0060126181 -0.008268117,
                              -0.01200497 0.0060774079 -0.0081218481,
                              -0.01202565 0.006169497 -0.008227109,
                              -0.01176947 0.0061249728 -0.0080800653,
                              -0.011752 0.006224989 -0.0081785321,
                              -0.01153397 0.0060774079 -0.0080383411,
                              -0.01147836 0.006169497 -0.008130013,
                              -0.01133435 0.005941927 -0.0080028772,
                              -0.01124727 0.0060126181 -0.008089005,
                              -0.01120096 0.005739152 -0.0079792142,
                              -0.01109278 0.0057778349 -0.0080615869,
                              -0.01115411 0.0054999581 -0.0079709291,
                              -0.01103818 0.0054999581 -0.0080519309,
                              -0.019255809 0.0054999581 -0.0059551001,
                              -0.01115411 0.0054999581 -0.0079709291,
                              -0.01120096 0.0052608252 -0.0079792142,
                              -0.01103818 0.0054999581 -0.0080519309,
                              -0.01109278 0.0052220821 -0.0080615869,
                              -0.01133435 0.0050580502 -0.0080028772,
                              -0.01124727 0.004987299 -0.008089005,
                              -0.01153397 0.0049225679 -0.0080383411,
                              -0.01147842 0.00483042 -0.008130013,
                              -0.01176947 0.0048749442 -0.0080800653,
                              -0.011752 0.0047749872 -0.0081785321,
                              -0.01200497 0.0049225679 -0.0081218481,
                              -0.01202565 0.00483042 -0.008227109,
                              -0.01220464 0.0050580502 -0.0081573119,
                              -0.0122568 0.004987359 -0.008268117,
                              -0.01233804 0.0052608252 -0.008180975,
                              -0.01241129 0.0052220821 -0.008295536,
                              -0.01238489 0.0054999581 -0.00818926,
                              -0.01246589 0.0054999581 -0.0083051911,
                              -0.019255809 0.0054999581 -0.0059551001,
                              0.01119846 0.0057728291 0.0080803633,
                              0.01326215 0.005739152 -0.0036392801,
                              0.0132153 0.0054999581 -0.003647625,
                              0.01113665 0.0054999581 0.008069396,
                              0.01339554 0.005941927 -0.0036156171,
                              0.01137024 0.0059900279 0.0081108212,
                              0.01359522 0.0060774079 -0.0035802119,
                              0.01161307 0.0061087599 0.0081539154,
                              0.01383072 0.0061249728 -0.003538429,
                              0.01188415 0.0061103101 0.0082020164,
                              0.01406621 0.0060774079 -0.0034966459,
                              0.01213008 0.0059930682 0.008245646,
                              0.01426583 0.005941927 -0.003461241,
                              0.01230424 0.0057752719 0.0082765222,
                              0.01439929 0.005739152 -0.003437578,
                              0.01236742 0.0054999581 0.0082877269,
                              0.01444613 0.0054999581 -0.003429234,
                              -0.019255809 0.0054999581 -0.0059551001,
                              0.0132153 0.0054999581 -0.003647625,
                              0.01326215 0.005739152 -0.0036392801,
                              0.01313436 0.0054999581 -0.003763556,
                              0.01318895 0.005777895 -0.00375384,
                              0.01339554 0.005941927 -0.0036156171,
                              0.01334345 0.0060126181 -0.0037264221,
                              0.01359522 0.0060774079 -0.0035802119,
                              0.01357454 0.006169497 -0.0036854141,
                              0.01383072 0.0061249728 -0.003538429,
                              0.01384818 0.006224989 -0.0036368959,
                              0.01406621 0.0060774079 -0.0034966459,
                              0.01412183 0.006169497 -0.0035883179,
                              0.01426583 0.005941927 -0.003461241,
                              0.01435297 0.0060126181 -0.00354737,
                              0.01439929 0.005739152 -0.003437578,
                              0.01450741 0.0057778349 -0.0035199521,
                              0.01444613 0.0054999581 -0.003429234,
                              0.01456201 0.0054999581 -0.003510236,
                              -0.019255809 0.0054999581 -0.0059551001,
                              0.018525179 0.003249943 -0.0028071399,
                              0.01456201 0.0054999581 -0.003510236,
                              0.01450741 0.0052220821 -0.0035199521,
                              0.01435297 0.004987299 -0.00354737,
                              0.01412183 0.00483042 -0.003588378,
                              0.01384818 0.0047749872 -0.0036368959,
                              0.01357454 0.00483042 -0.0036854141,
                              0.01318895 0.0052220821 -0.00375384,
                              0.01313436 0.0054999581 -0.003763556,
                              -0.0043673511 0.003249943 -0.0068684812,
                              0.01334339 0.004987359 -0.0037264221,
                              -0.0063365689 -0.002749979 -0.007217824,
                              -0.0043673511 -0.002749979 -0.0068684812,
                              -0.0063365689 0.003249943 -0.007217824,
                              -0.016429 0.0072499509 -0.0090082884,
                              -0.01246589 0.0054999581 -0.0083051911,
                              -0.01241129 0.005777895 -0.008295536,
                              -0.0122568 0.0060126181 -0.008268117,
                              -0.01202565 0.006169497 -0.008227109,
                              -0.011752 0.006224989 -0.0081785321,
                              -0.01147836 0.006169497 -0.008130013,
                              -0.01109278 0.0057778349 -0.0080615869,
                              -0.01103818 0.0054999581 -0.0080519309,
                              -0.01124727 0.0060126181 -0.008089005,
                              0.01318895 0.005777895 -0.00375384,
                              0.01334345 0.0060126181 -0.0037264221,
                              0.01357454 0.006169497 -0.0036854141,
                              0.01384818 0.006224989 -0.0036368959,
                              0.01450741 0.0057778349 -0.0035199521,
                              0.01435297 0.0060126181 -0.00354737,
                              0.01412183 0.006169497 -0.0035883179,
                              0.018525179 0.0072499509 -0.0028071399,
                              -0.01109278 0.0052220821 -0.0080615869,
                              -0.01124727 0.004987299 -0.008089005,
                              -0.01147842 0.00483042 -0.008130013,
                              -0.011752 0.0047749872 -0.0081785321,
                              -0.01202565 0.00483042 -0.008227109,
                              -0.01241129 0.0052220821 -0.008295536,
                              -0.0122568 0.004987359 -0.008268117,
                              -0.016429 0.003249943 -0.0090082884,
                              -0.019255809 0.0054999581 -0.0059551001,
                              0.01444613 0.0054999581 -0.003429234,
                              0.01439929 0.0052608252 -0.003437578,
                              0.01456201 0.0054999581 -0.003510236,
                              0.01450741 0.0052220821 -0.0035199521,
                              0.01426583 0.0050580502 -0.003461241,
                              0.01435297 0.004987299 -0.00354737,
                              0.01406621 0.0049225679 -0.0034966459,
                              0.01412183 0.00483042 -0.003588378,
                              0.01383072 0.0048749442 -0.003538429,
                              0.01384818 0.0047749872 -0.0036368959,
                              0.01359522 0.0049225679 -0.0035802119,
                              0.01357454 0.00483042 -0.0036854141,
                              0.01339554 0.0050580502 -0.0036156171,
                              0.01334339 0.004987359 -0.0037264221,
                              0.01326215 0.0052608252 -0.0036392801,
                              0.01318895 0.0052220821 -0.00375384,
                              0.0132153 0.0054999581 -0.003647625,
                              0.01313436 0.0054999581 -0.003763556,
                              -0.019255809 0.0054999581 -0.0059551001,
                              0.01230555 0.0052271481 0.0082767596,
                              0.01439929 0.0052608252 -0.003437578,
                              0.01444613 0.0054999581 -0.003429234,
                              0.01236742 0.0054999581 0.0082877269,
                              0.01426583 0.0050580502 -0.003461241,
                              0.01213383 0.0050098891 0.0082463017,
                              0.01406621 0.0049225679 -0.0034966459,
                              0.011891 0.0048912158 0.0082032084,
                              0.01383072 0.0048749442 -0.003538429,
                              0.01161992 0.004889667 0.0081551066,
                              0.01359522 0.0049225679 -0.0035802119,
                              0.01137399 0.0050068488 0.008111476,
                              0.01339554 0.0050580502 -0.0036156171,
                              0.01119983 0.0052246451 0.0080806008,
                              0.01326215 0.0052608252 -0.0036392801,
                              0.01113665 0.0054999581 0.008069396,
                              0.0132153 0.0054999581 -0.003647625,
                              -0.019255809 0.0054999581 -0.0059551001,
                              -0.0064634681 0.003249943 0.0049470058,
                              0.01113665 0.0054999581 0.008069396,
                              0.01119983 0.0052246451 0.0080806008,
                              0.01137399 0.0050068488 0.008111476,
                              0.01161992 0.004889667 0.0081551066,
                              0.011891 0.0048912158 0.0082032084,
                              0.01230555 0.0052271481 0.0082767596,
                              0.01236742 0.0054999581 0.0082877269,
                              0.016429 0.0072499509 0.0090082884,
                              0.01213383 0.0050098891 0.0082463017,
                              0.016429 0.003249943 0.0090082884,
                              -0.0064634681 -0.002749979 0.0049470058,
                              -0.008432745 -0.002749979 0.0045976038,
                              0.01230424 0.0057752719 0.0082765222,
                              0.01213008 0.0059930682 0.008245646,
                              0.01188415 0.0061103101 0.0082020164,
                              0.01161307 0.0061087599 0.0081539154,
                              0.01119846 0.0057728291 0.0080803633,
                              0.01137024 0.0059900279 0.0081108212,
                              -0.008432745 0.003249943 0.0045976038,
                              -0.018525179 0.003249943 0.0028071399,
                              -0.018525179 0.0072499509 0.0028071399,
                              -0.01925575 0.0054999581 -0.0059551001,
                              -0.0064634681 0.003249943 0.0049470058,
                              0.016429 0.003249943 0.0090082884,
                              -0.004367291 0.003249943 -0.0068684812,
                              0.01704043 0.003249943 0.0055621262,
                              0.017913811 0.003249943 0.00063900702,
                              0.018525179 0.003249943 -0.0028071399,
                              0.02097892 0.003249943 0.0062608118,
                              0.021852311 0.003249943 0.001337707,
                              -0.019255809 0.0054999581 -0.0059551001,
                              0.022306969 0.0035583971 0.001418352,
                              0.02143359 0.003558456 0.0063414569,
                              0.021471201 0.0037499659 0.0063481331,
                              0.02234458 0.0037499659 0.001425027,
                              0.02132695 0.0033965111 0.0063225622,
                              0.022200281 0.003396451 0.001399397,
                              0.021167509 0.003288209 0.00629425,
                              0.0220409 0.0032881489 0.001371145,
                              0.021852249 0.003249943 0.001337707,
                              0.020978861 0.003249943 0.0062608118,
                              -0.019255809 0.0054999581 -0.0059551001,
                              0.021471201 0.0052499771 0.0063481331,
                              0.02234458 0.0052499771 0.001425027,
                              0.021471201 0.0037499659 0.0063481331,
                              0.02234458 0.0037499659 0.001425027,
                              -0.019255809 0.0054999581 -0.0059551001,
                              0.02064484 0.0076271291 0.001123487,
                              0.01977139 0.0076271291 0.0060465932,
                              0.01900964 0.0077499738 0.005911469,
                              0.019883029 0.0077499738 0.00098835002,
                              0.02100092 0.0067196479 0.0062647462,
                              0.021874299 0.0067195888 0.001341581,
                              0.02234458 0.0052499771 0.001425027,
                              0.021471201 0.0052499771 0.0063481331,
                              -0.019255809 0.0054999581 -0.0059551001,
                              0.02111065 0.0054999581 0.001510798,
                              0.021031911 0.005901753 0.001496851,
                              0.02034205 0.0054999581 0.0058431621,
                              0.02026337 0.005901753 0.005829155,
                              0.020807801 0.0062424541 0.001457035,
                              0.02003926 0.0062424541 0.0057893991,
                              0.0204724 0.0064700241 0.00139755,
                              0.0197038 0.0064700241 0.0057299128,
                              0.020076809 0.0065499539 0.001327395,
                              0.0193082 0.0065499539 0.005659699,
                              0.01968115 0.0064700241 0.0012571811,
                              0.01891255 0.0064700241 0.0055895438,
                              0.01934576 0.0062424541 0.001197695,
                              0.018577149 0.0062424541 0.0055300589,
                              0.019121639 0.005901753 0.001157939,
                              0.018353039 0.005901753 0.005490243,
                              0.0190429 0.0054999581 0.001143932,
                              0.018274359 0.0054999581 0.005476295,
                              -0.019255809 0.0054999581 -0.0059551001,
                              0.02026337 0.005901753 0.005829155,
                              0.02051943 0.0059185619 0.0061793318,
                              0.020585001 0.0054999581 0.0061909552,
                              0.02034205 0.0054999581 0.0058431621,
                              0.02003926 0.0062424541 0.0057893991,
                              0.02003788 0.0065914979 0.0060938592,
                              0.0197038 0.0064700241 0.0057299128,
                              0.0193082 0.0065499539 0.005659699,
                              0.019255809 0.0068499441 0.0059551001,
                              0.01891255 0.0064700241 0.0055895438,
                              0.018473679 0.0065914979 0.00581634,
                              0.018577149 0.0062424541 0.0055300589,
                              0.018353039 0.005901753 0.005490243,
                              0.01799213 0.0059185619 0.0057309261,
                              0.018274359 0.0054999581 0.005476295,
                              0.01792657 0.0054999581 0.0057193041,
                              -0.019255809 0.0054999581 -0.0059551001,
                              0.01977139 0.0076271291 0.0060465932,
                              0.01704037 0.0077499738 0.005562067,
                              0.02100092 0.0067196479 0.0062647462,
                              0.019255809 0.0068499441 0.0059551001,
                              0.02003788 0.0065914979 0.0060938592,
                              0.021350261 0.006023705 0.0063266749,
                              0.02051943 0.0059185619 0.0061793318,
                              0.02051943 0.0050813551 0.0061793318,
                              0.019255809 0.0041499729 0.0059551001,
                              0.02003788 0.0044084778 0.0060938592,
                              0.018843651 0.0067833662 0.0058820238,
                              0.01818102 0.0062943101 0.0057644239,
                              0.01792657 0.0054999581 0.0057193041,
                              0.01799213 0.0050813551 0.0057309261,
                              0.02143359 0.003558456 0.0063414569,
                              0.02132695 0.0033965111 0.0063225622,
                              0.021167509 0.003288209 0.00629425,
                              0.01704037 0.003249943 0.005562067,
                              0.018473679 0.0044084778 0.00581634,
                              -0.019255809 0.0054999581 -0.0059551001,
                              0.018353039 0.0050981641 0.005490243,
                              0.01799213 0.0050813551 0.0057309261,
                              0.01792657 0.0054999581 0.0057193041,
                              0.018274359 0.0054999581 0.005476295,
                              0.018577149 0.0047575231 0.0055300589,
                              0.018473679 0.0044084778 0.00581634,
                              0.01891255 0.0045298929 0.0055895438,
                              0.0193082 0.0044499631 0.005659699,
                              0.019255809 0.0041499729 0.0059551001,
                              0.0197038 0.0045298929 0.0057299128,
                              0.02003788 0.0044084778 0.0060938592,
                              0.02003926 0.0047575231 0.0057893991,
                              0.02026337 0.0050981641 0.005829155,
                              0.02051943 0.0050813551 0.0061793318,
                              0.02034205 0.0054999581 0.0058431621,
                              0.020585001 0.0054999581 0.0061909552,
                              -0.019255809 0.0054999581 -0.0059551001,
                              0.0190429 0.0054999581 0.001143932,
                              0.019121639 0.0050981641 0.001157939,
                              0.018274359 0.0054999581 0.005476295,
                              0.018353039 0.0050981641 0.005490243,
                              0.01934576 0.0047575231 0.001197695,
                              0.018577149 0.0047575231 0.0055300589,
                              0.01968115 0.0045298929 0.0012571811,
                              0.01891255 0.0045298929 0.0055895438,
                              0.020076809 0.0044499631 0.001327395,
                              0.0193082 0.0044499631 0.005659699,
                              0.0204724 0.0045298929 0.00139755,
                              0.0197038 0.0045298929 0.0057299128,
                              0.020807801 0.0047575231 0.001457035,
                              0.02003926 0.0047575231 0.0057893991,
                              0.021031911 0.0050981641 0.001496851,
                              0.02026337 0.0050981641 0.005829155,
                              0.02111065 0.0054999581 0.001510798,
                              0.02034205 0.0054999581 0.0058431621,
                              -0.019255809 0.0054999581 -0.0059551001,
                              0.021031911 0.0050981641 0.001496851,
                              0.02139288 0.0050813551 0.001256167,
                              0.02145844 0.0054999581 0.00126779,
                              0.02111065 0.0054999581 0.001510798,
                              0.020807801 0.0047575231 0.001457035,
                              0.02091133 0.0044084778 0.001170754,
                              0.0204724 0.0045298929 0.00139755,
                              0.020076809 0.0044499631 0.001327395,
                              0.0201292 0.0041499729 0.001031994,
                              0.01968115 0.0045298929 0.0012571811,
                              0.01934707 0.0044084778 0.00089328003,
                              0.01934576 0.0047575231 0.001197695,
                              0.019121639 0.0050981641 0.001157939,
                              0.01886552 0.0050813551 0.000807837,
                              0.0190429 0.0054999581 0.001143932,
                              0.018799961 0.0054999581 0.00079621398,
                              -0.019255809 0.0054999581 -0.0059551001,
                              0.019121639 0.005901753 0.001157939,
                              0.01886552 0.0059185619 0.000807837,
                              0.018799961 0.0054999581 0.00079621398,
                              0.0190429 0.0054999581 0.001143932,
                              0.01934576 0.0062424541 0.001197695,
                              0.01934707 0.0065914979 0.00089328003,
                              0.01968115 0.0064700241 0.0012571811,
                              0.020076809 0.0065499539 0.001327395,
                              0.0201292 0.0068499441 0.001031994,
                              0.0204724 0.0064700241 0.00139755,
                              0.02091133 0.0065914979 0.001170754,
                              0.020807801 0.0062424541 0.001457035,
                              0.021031911 0.005901753 0.001496851,
                              0.02139288 0.0059185619 0.001256167,
                              0.02111065 0.0054999581 0.001510798,
                              0.02145844 0.0054999581 0.00126779,
                              -0.019255809 0.0054999581 -0.0059551001,
                              0.021330111 0.0072723031 0.001245021,
                              0.0201292 0.0068499441 0.001031994,
                              0.02091133 0.0065914979 0.001170754,
                              0.02222365 0.0060236449 0.0014035699,
                              0.02139288 0.0059185619 0.001256167,
                              0.02139288 0.0050813551 0.001256167,
                              0.02091133 0.0044084778 0.001170754,
                              0.0201292 0.0041499729 0.001031994,
                              0.017913749 0.003249943 0.00063900702,
                              0.0220409 0.0032881489 0.001371145,
                              0.022200281 0.003396451 0.001399397,
                              0.022306969 0.0035583971 0.001418352,
                              0.01971703 0.0042165508 0.00095890497,
                              0.01934707 0.0044084778 0.00089328003,
                              0.01886552 0.0050813551 0.000807837,
                              0.01886552 0.0059185619 0.000807837,
                              0.01971703 0.0067833662 0.00095890497,
                              0.02064484 0.0076271291 0.001123487,
                              0.01934707 0.0065914979 0.00089328003,
                              0.017913749 0.0077499738 0.00063900702,
                              -0.019255809 0.0054999581 -0.0059551001,
                              0.018471301 0.0077117682 -0.002503454,
                              0.017913749 0.0077499738 0.00063900702,
                              0.018499549 0.007603466 -0.0026628971,
                              0.0185185 0.0074415202 -0.0027695289,
                              0.018525179 0.003249943 -0.0028071399,
                              0.017913749 0.003249943 0.00063900702,
                              -0.019255809 0.0054999581 -0.0059551001,
                              0.0185185 0.0074415202 -0.0027695289,
                              -0.016435681 0.0074415202 -0.0089706769,
                              -0.016429 0.0072499509 -0.0090082884,
                              0.018525179 0.0072499509 -0.0028071399,
                              -0.01645457 0.007603406 -0.0088640451,
                              0.018499549 0.007603466 -0.0026628971,
                              -0.01648288 0.0077117682 -0.0087046018,
                              0.018471301 0.0077117682 -0.002503454,
                              0.018437801 0.0077499738 -0.0023148649,
                              -0.01651632 0.0077499738 -0.008515954,
                              -0.019255809 0.0054999581 -0.0059551001,
                              0.01900964 0.0077499738 0.005911469,
                              0.01704037 0.0077499738 0.005562067,
                              0.019883029 0.0077499738 0.00098835002,
                              0.017913749 0.0077499738 0.00063900702,
                              -0.018437801 0.0077499738 0.0023148649,
                              0.018437801 0.0077499738 -0.0023148649,
                              0.01651632 0.0077499738 0.008515954,
                              -0.017913749 0.0077499738 -0.00063900702,
                              -0.01704037 0.0077499738 -0.005562067,
                              -0.01651632 0.0077499738 -0.008515954,
                              -0.019883029 0.0077499738 -0.00098835002,
                              -0.01900964 0.0077499738 -0.005911469,
                              -0.019255809 0.0054999581 -0.0059551001,
                              -0.018265599 0.0054999581 -0.0055255881,
                              -0.018344279 0.005901753 -0.005539536,
                              -0.019051669 0.0054999581 -0.001094758,
                              -0.01913034 0.005901753 -0.0011087049,
                              -0.018568389 0.0062424541 -0.0055792918,
                              -0.019354461 0.0062424541 -0.0011484619,
                              -0.01890385 0.0064700241 -0.0056387782,
                              -0.019689851 0.0064700241 -0.001207947,
                              -0.01929944 0.0065499539 -0.005708992,
                              -0.02008551 0.0065499539 -0.001278162,
                              -0.019695099 0.0064700241 -0.0057791471,
                              -0.02048116 0.0064700241 -0.001348316,
                              -0.020030489 0.0062424541 -0.0058386922,
                              -0.020816561 0.0062424541 -0.001407861,
                              -0.02025461 0.005901753 -0.005878448,
                              -0.021040671 0.005901753 -0.001447618,
                              -0.02033329 0.0054999581 -0.005892395,
                              -0.021119351 0.0054999581 -0.001461565,
                              -0.019255809 0.0054999581 -0.0059551001,
                              -0.02025461 0.005901753 -0.005878448,
                              -0.02053576 0.0054999581 -0.0061821928,
                              -0.02033329 0.0054999581 -0.005892395,
                              -0.02029103 0.0062642689 -0.0061388011,
                              -0.020030489 0.0062424541 -0.0058386922,
                              -0.019695099 0.0064700241 -0.0057791471,
                              -0.01965188 0.0067360988 -0.006025373,
                              -0.01929944 0.0065499539 -0.005708992,
                              -0.01890385 0.0064700241 -0.0056387782,
                              -0.018859681 0.0067360988 -0.0058848262,
                              -0.018568389 0.0062424541 -0.0055792918,
                              -0.018220481 0.0062642689 -0.0057714581,
                              -0.018344279 0.005901753 -0.005539536,
                              -0.01803863 0.0059022298 -0.005739212,
                              -0.018265599 0.0054999581 -0.0055255881,
                              -0.0179758 0.0054999581 -0.005728065,
                              -0.019255809 0.0054999581 -0.0059551001,
                              -0.01977139 0.0076271291 -0.0060465932,
                              -0.01704037 0.0077499738 -0.005562067,
                              -0.02100092 0.0067196479 -0.0062646861,
                              -0.019255809 0.0067999358 -0.0059551001,
                              -0.02000832 0.0065514441 -0.006088614,
                              -0.021350261 0.006023705 -0.0063266749,
                              -0.02047294 0.0059022899 -0.0061710472,
                              -0.02053576 0.0054999581 -0.0061821928,
                              -0.019255809 0.0041999812 -0.0059551001,
                              -0.01965188 0.0042638178 -0.006025373,
                              -0.02029109 0.0047357078 -0.0061388011,
                              -0.018859681 0.0067360988 -0.0058848262,
                              -0.018220481 0.0062642689 -0.0057714581,
                              -0.01803863 0.0059022298 -0.005739212,
                              -0.01803863 0.0050976868 -0.005739212,
                              -0.02143359 0.003558456 -0.0063414569,
                              -0.02132695 0.0033965111 -0.0063225622,
                              -0.021167509 0.003288209 -0.00629425,
                              -0.01704037 0.003249943 -0.005562067,
                              -0.018503239 0.0044485331 -0.0058216448,
                              -0.019255809 0.0054999581 -0.0059551001,
                              -0.018344279 0.0050981641 -0.005539536,
                              -0.0179758 0.0054999581 -0.005728065,
                              -0.018265599 0.0054999581 -0.0055255881,
                              -0.01822054 0.0047356482 -0.0057714581,
                              -0.018568389 0.0047575231 -0.0055792918,
                              -0.01890385 0.0045298929 -0.0056387782,
                              -0.018859681 0.0042638178 -0.0058848262,
                              -0.01929944 0.0044499631 -0.005708992,
                              -0.019695099 0.0045298929 -0.0057791471,
                              -0.01965188 0.0042638178 -0.006025373,
                              -0.020030489 0.0047575231 -0.0058386922,
                              -0.02029109 0.0047357078 -0.0061388011,
                              -0.02025461 0.0050981641 -0.005878448,
                              -0.02047294 0.0050976868 -0.0061710472,
                              -0.02033329 0.0054999581 -0.005892395,
                              -0.02053576 0.0054999581 -0.0061821928,
                              -0.019255809 0.0054999581 -0.0059551001,
                              -0.02033329 0.0054999581 -0.005892395,
                              -0.02025461 0.0050981641 -0.005878448,
                              -0.021119351 0.0054999581 -0.001461565,
                              -0.021040671 0.0050981641 -0.001447618,
                              -0.020030489 0.0047575231 -0.0058386922,
                              -0.020816561 0.0047575231 -0.001407861,
                              -0.019695099 0.0045298929 -0.0057791471,
                              -0.02048116 0.0045298929 -0.001348316,
                              -0.01929944 0.0044499631 -0.005708992,
                              -0.02008551 0.0044499631 -0.001278162,
                              -0.01890385 0.0045298929 -0.0056387782,
                              -0.019689851 0.0045298929 -0.001207947,
                              -0.018568389 0.0047575231 -0.0055792918,
                              -0.019354461 0.0047575231 -0.0011484619,
                              -0.018344279 0.0050981641 -0.005539536,
                              -0.01913034 0.0050981641 -0.0011087049,
                              -0.018265599 0.0054999581 -0.0055255881,
                              -0.019051669 0.0054999581 -0.001094758,
                              -0.019255809 0.0054999581 -0.0059551001,
                              -0.021040671 0.0050981641 -0.001447618,
                              -0.02140921 0.0054999581 -0.0012590881,
                              -0.021119351 0.0054999581 -0.001461565,
                              -0.02116441 0.0047356482 -0.001215636,
                              -0.020816561 0.0047575231 -0.001407861,
                              -0.02048116 0.0045298929 -0.001348316,
                              -0.020525269 0.0042638178 -0.001102268,
                              -0.02008551 0.0044499631 -0.001278162,
                              -0.019689851 0.0045298929 -0.001207947,
                              -0.019733069 0.0042638178 -0.000961766,
                              -0.019354461 0.0047575231 -0.0011484619,
                              -0.019093931 0.0047357078 -0.00084836798,
                              -0.01913034 0.0050981641 -0.0011087049,
                              -0.018912069 0.0050976868 -0.00081609201,
                              -0.019051669 0.0054999581 -0.001094758,
                              -0.01884919 0.0054999581 -0.000804946,
                              -0.019255809 0.0054999581 -0.0059551001,
                              -0.01913034 0.005901753 -0.0011087049,
                              -0.01884919 0.0054999581 -0.000804946,
                              -0.019051669 0.0054999581 -0.001094758,
                              -0.019093931 0.0062642689 -0.00084836798,
                              -0.019354461 0.0062424541 -0.0011484619,
                              -0.019689851 0.0064700241 -0.001207947,
                              -0.019733129 0.0067360988 -0.000961766,
                              -0.02008551 0.0065499539 -0.001278162,
                              -0.02048116 0.0064700241 -0.001348316,
                              -0.020525269 0.0067360988 -0.001102268,
                              -0.020816561 0.0062424541 -0.001407861,
                              -0.021164469 0.0062642689 -0.001215636,
                              -0.021040671 0.005901753 -0.001447618,
                              -0.021346331 0.0059022298 -0.001247942,
                              -0.021119351 0.0054999581 -0.001461565,
                              -0.02140921 0.0054999581 -0.0012590881,
                              -0.019255809 0.0054999581 -0.0059551001,
                              -0.021330049 0.0072723031 -0.001245021,
                              -0.020525269 0.0067360988 -0.001102268,
                              -0.021874299 0.0067195888 -0.001341581,
                              -0.021164469 0.0062642689 -0.001215636,
                              -0.02222365 0.0060236449 -0.0014035699,
                              -0.02140921 0.0054999581 -0.0012590881,
                              -0.021346331 0.0050976868 -0.001247942,
                              -0.020881711 0.0044485331 -0.001165509,
                              -0.0201292 0.0041999812 -0.001031994,
                              -0.017913749 0.003249943 -0.00063900702,
                              -0.0220409 0.0032881489 -0.001371145,
                              -0.022200281 0.003396451 -0.001399397,
                              -0.022306969 0.0035583971 -0.001418352,
                              -0.019733069 0.0042638178 -0.000961766,
                              -0.019093931 0.0047357078 -0.00084836798,
                              -0.01884919 0.0054999581 -0.000804946,
                              -0.018912069 0.0059022298 -0.00081609201,
                              -0.019733129 0.0067360988 -0.000961766,
                              -0.02064484 0.0076271291 -0.001123487,
                              -0.01937663 0.0065514441 -0.00089852599,
                              -0.017913749 0.0077499738 -0.00063900702,
                              -0.019255809 0.0054999581 -0.0059551001,
                              -0.01900964 0.0077499738 -0.005911469,
                              -0.019883029 0.0077499738 -0.00098835002,
                              -0.02045667 0.0072723618 -0.0061681862,
                              -0.021330049 0.0072723031 -0.001245021,
                              -0.021350261 0.006023705 -0.0063266749,
                              -0.02222365 0.0060236449 -0.0014035699,
                              -0.02234458 0.0052499771 -0.001425027,
                              -0.021471201 0.0052499771 -0.0063481331,
                              -0.019255809 0.0054999581 -0.0059551001,
                              -0.021471201 0.0052499771 -0.0063481331,
                              -0.02234458 0.0052499771 -0.001425027,
                              -0.021471201 0.0037499659 -0.0063481331,
                              -0.02234458 0.0037499659 -0.001425027 ]

                        }
                        normal 
                        Normal {
                          vector [  ]

                        }
                        coordIndex [ 544, 541, 543, -1, 725, 723, 724, -1,
                            652, 651, 649, -1, 215, 216, 211, -1,
                            615, 617, 614, -1, 31, 32, 33, -1,
                            24, 25, 27, -1, 75, 74, 73, -1,
                            18, 19, 20, -1, 76, 77, 79, -1,
                            31, 29, 30, -1, 37, 35, 36, -1,
                            63, 64, 66, -1, 35, 34, 33, -1,
                            70, 71, 72, -1, 23, 22, 21, -1,
                            7, 5, 6, -1, 4, 3, 1, -1,
                            134, 133, 135, -1, 44, 42, 43, -1,
                            658, 657, 655, -1, 57, 55, 56, -1,
                            254, 252, 253, -1, 70, 68, 69, -1,
                            18, 16, 17, -1, 431, 426, 418, -1,
                            214, 211, 213, -1, 122, 120, 118, -1,
                            61, 60, 59, -1, 484, 483, 481, -1,
                            97, 96, 95, -1, 626, 625, 627, -1,
                            88, 89, 92, -1, 114, 113, 112, -1,
                            477, 475, 476, -1, 103, 100, 99, -1,
                            797, 796, 798, -1, 442, 443, 446, -1,
                            622, 625, 626, -1, 109, 108, 107, -1,
                            649, 646, 648, -1, 127, 124, 126, -1,
                            473, 471, 472, -1, 171, 169, 170, -1,
                            175, 173, 174, -1, 800, 799, 798, -1,
                            163, 147, 148, -1, 155, 159, 156, -1,
                            783, 779, 784, -1, 554, 552, 553, -1,
                            655, 653, 654, -1, 341, 345, 355, -1,
                            547, 546, 544, -1, 140, 138, 139, -1,
                            463, 462, 465, -1, 144, 142, 143, -1,
                            24, 22, 23, -1, 63, 61, 62, -1,
                            470, 468, 467, -1, 698, 691, 690, -1,
                            8, 10, 9, -1, 180, 183, 190, -1,
                            47, 46, 44, -1, 333, 363, 332, -1,
                            197, 195, 196, -1, 11, 9, 10, -1,
                            14, 13, 11, -1, 76, 74, 75, -1,
                            219, 211, 217, -1, 206, 207, 201, -1,
                            209, 201, 207, -1, 204, 201, 203, -1,
                            709, 707, 708, -1, 242, 241, 240, -1,
                            239, 240, 243, -1, 403, 401, 402, -1,
                            248, 247, 249, -1, 57, 58, 59, -1,
                            250, 248, 249, -1, 392, 393, 396, -1,
                            224, 223, 222, -1, 395, 394, 393, -1,
                            234, 232, 233, -1, 226, 225, 227, -1,
                            401, 399, 400, -1, 244, 243, 245, -1,
                            221, 222, 225, -1, 236, 234, 235, -1,
                            230, 228, 229, -1, 289, 286, 285, -1,
                            260, 262, 258, -1, 378, 382, 379, -1,
                            384, 386, 383, -1, 386, 390, 387, -1,
                            270, 274, 271, -1, 326, 323, 322, -1,
                            376, 378, 374, -1, 268, 270, 267, -1,
                            326, 330, 327, -1, 318, 314, 315, -1,
                            310, 308, 309, -1, 405, 403, 404, -1,
                            397, 396, 398, -1, 304, 303, 305, -1,
                            713, 712, 711, -1, 499, 501, 500, -1,
                            407, 405, 406, -1, 37, 38, 40, -1,
                            262, 266, 263, -1, 281, 277, 278, -1,
                            293, 290, 289, -1, 479, 477, 478, -1,
                            659, 657, 658, -1, 730, 729, 727, -1,
                            653, 651, 652, -1, 520, 516, 515, -1,
                            722, 720, 719, -1, 736, 735, 733, -1,
                            318, 322, 319, -1, 298, 297, 296, -1,
                            295, 296, 299, -1, 232, 230, 231, -1,
                            306, 304, 305, -1, 308, 306, 307, -1,
                            579, 577, 576, -1, 456, 454, 453, -1,
                            414, 413, 410, -1, 51, 50, 48, -1,
                            436, 433, 437, -1, 450, 449, 448, -1,
                            111, 110, 112, -1, 447, 446, 448, -1,
                            795, 794, 796, -1, 445, 444, 443, -1,
                            731, 729, 730, -1, 556, 554, 555, -1,
                            51, 53, 52, -1, 702, 704, 703, -1,
                            670, 669, 668, -1, 572, 574, 573, -1,
                            495, 493, 494, -1, 536, 535, 534, -1,
                            568, 566, 567, -1, 482, 481, 479, -1,
                            508, 510, 517, -1, 85, 82, 81, -1,
                            541, 540, 542, -1, 491, 494, 492, -1,
                            489, 487, 486, -1, 532, 530, 531, -1,
                            589, 591, 590, -1, 458, 459, 462, -1,
                            745, 743, 744, -1, 553, 552, 550, -1,
                            646, 645, 647, -1, 142, 140, 141, -1,
                            581, 584, 582, -1, 526, 524, 523, -1,
                            585, 583, 584, -1, 528, 531, 529, -1,
                            599, 604, 602, -1, 612, 611, 608, -1,
                            90, 89, 88, -1, 93, 92, 94, -1,
                            107, 110, 111, -1, 623, 622, 621, -1,
                            549, 548, 546, -1, 635, 640, 639, -1,
                            551, 550, 548, -1, 5, 3, 4, -1,
                            747, 749, 748, -1, 708, 707, 706, -1,
                            678, 676, 677, -1, 755, 757, 756, -1,
                            559, 562, 560, -1, 716, 714, 715, -1,
                            724, 723, 720, -1, 692, 684, 681, -1,
                            734, 733, 731, -1, 675, 674, 673, -1,
                            664, 666, 665, -1, 738, 740, 739, -1,
                            671, 669, 670, -1, 661, 659, 660, -1,
                            475, 473, 474, -1, 472, 471, 468, -1,
                            728, 727, 725, -1, 764, 766, 765, -1,
                            564, 567, 565, -1, 762, 760, 761, -1,
                            744, 743, 742, -1, 769, 767, 768, -1,
                            252, 250, 251, -1, 761, 760, 759, -1,
                            300, 299, 301, -1, 752, 750, 751, -1,
                            772, 774, 773, -1, 371, 368, 367, -1,
                            460, 459, 458, -1, 173, 171, 172, -1,
                            630, 629, 628, -1, 49, 48, 46, -1,
                            804, 803, 805, -1, 285, 282, 281, -1,
                            545, 544, 543, -1, 726, 725, 724, -1,
                            650, 652, 649, -1, 211, 214, 215, -1,
                            216, 217, 211, -1, 617, 615, 619, -1,
                            617, 616, 614, -1, 619, 618, 617, -1,
                            34, 31, 33, -1, 26, 24, 27, -1,
                            72, 75, 73, -1, 21, 18, 20, -1,
                            78, 76, 79, -1, 32, 31, 30, -1,
                            38, 37, 36, -1, 65, 63, 66, -1,
                            36, 35, 33, -1, 73, 70, 72, -1,
                            20, 23, 21, -1, 8, 7, 6, -1,
                            2, 4, 1, -1, 136, 134, 135, -1,
                            45, 44, 43, -1, 656, 658, 655, -1,
                            58, 57, 56, -1, 255, 254, 253, -1,
                            71, 70, 69, -1, 19, 18, 17, -1,
                            416, 419, 418, -1, 429, 431, 430, -1,
                            429, 422, 421, -1, 410, 431, 429, -1,
                            417, 416, 418, -1, 410, 427, 428, -1,
                            423, 417, 418, -1, 410, 428, 426, -1,
                            424, 423, 418, -1, 429, 421, 410, -1,
                            425, 424, 418, -1, 431, 410, 426, -1,
                            426, 425, 418, -1, 212, 214, 213, -1,
                            120, 122, 121, -1, 119, 117, 118, -1,
                            118, 120, 119, -1, 62, 61, 59, -1,
                            482, 484, 481, -1, 94, 97, 95, -1,
                            628, 626, 627, -1, 93, 88, 92, -1,
                            115, 114, 112, -1, 478, 477, 476, -1,
                            103, 102, 101, -1, 101, 100, 103, -1,
                            99, 100, 104, -1, 799, 797, 798, -1,
                            447, 442, 446, -1, 621, 622, 626, -1,
                            106, 109, 107, -1, 650, 649, 648, -1,
                            126, 129, 128, -1, 128, 131, 130, -1,
                            127, 125, 124, -1, 128, 130, 127, -1,
                            127, 126, 128, -1, 474, 473, 472, -1,
                            172, 171, 170, -1, 176, 175, 174, -1,
                            801, 800, 798, -1, 162, 163, 148, -1,
                            160, 155, 167, -1, 153, 157, 156, -1,
                            152, 154, 158, -1, 149, 148, 147, -1,
                            166, 162, 164, -1, 150, 149, 147, -1,
                            165, 163, 162, -1, 154, 150, 147, -1,
                            167, 164, 161, -1, 154, 151, 150, -1,
                            166, 165, 162, -1, 152, 151, 154, -1,
                            167, 166, 164, -1, 157, 152, 158, -1,
                            167, 161, 160, -1, 157, 153, 152, -1,
                            155, 160, 159, -1, 159, 153, 156, -1,
                            780, 782, 781, -1, 789, 790, 772, -1,
                            780, 779, 782, -1, 792, 790, 789, -1,
                            778, 776, 784, -1, 792, 789, 791, -1,
                            775, 773, 774, -1, 792, 791, 788, -1,
                            775, 774, 776, -1, 787, 792, 788, -1,
                            777, 775, 776, -1, 781, 792, 787, -1,
                            778, 777, 776, -1, 781, 787, 786, -1,
                            779, 778, 784, -1, 781, 786, 785, -1,
                            782, 779, 783, -1, 781, 785, 780, -1,
                            555, 554, 553, -1, 656, 655, 654, -1,
                            351, 359, 358, -1, 347, 369, 346, -1,
                            346, 363, 359, -1, 336, 335, 332, -1,
                            341, 358, 357, -1, 337, 336, 332, -1,
                            341, 357, 356, -1, 338, 337, 332, -1,
                            341, 356, 340, -1, 338, 332, 341, -1,
                            341, 340, 339, -1, 342, 338, 341, -1,
                            341, 339, 342, -1, 348, 347, 346, -1,
                            345, 365, 364, -1, 349, 348, 346, -1,
                            345, 364, 354, -1, 350, 349, 346, -1,
                            345, 354, 353, -1, 351, 350, 346, -1,
                            345, 353, 355, -1, 359, 351, 346, -1,
                            341, 355, 352, -1, 341, 343, 345, -1,
                            352, 351, 358, -1, 341, 344, 343, -1,
                            352, 358, 341, -1, 545, 547, 544, -1,
                            141, 140, 139, -1, 464, 463, 465, -1,
                            145, 144, 143, -1, 25, 24, 23, -1,
                            64, 63, 62, -1, 469, 470, 467, -1,
                            698, 697, 696, -1, 694, 682, 699, -1,
                            691, 698, 696, -1, 687, 686, 683, -1,
                            683, 684, 685, -1, 695, 694, 699, -1,
                            683, 685, 687, -1, 700, 695, 699, -1,
                            686, 687, 688, -1, 689, 700, 699, -1,
                            696, 688, 691, -1, 698, 689, 699, -1,
                            696, 686, 688, -1, 690, 689, 698, -1,
                            7, 8, 9, -1, 198, 197, 194, -1,
                            194, 199, 198, -1, 191, 178, 179, -1,
                            180, 190, 189, -1, 183, 185, 182, -1,
                            188, 196, 195, -1, 199, 194, 193, -1,
                            186, 188, 195, -1, 179, 199, 193, -1,
                            187, 186, 195, -1, 179, 193, 192, -1,
                            187, 184, 186, -1, 179, 192, 191, -1,
                            187, 185, 184, -1, 178, 191, 181, -1,
                            182, 185, 187, -1, 189, 181, 180, -1,
                            190, 183, 182, -1, 181, 189, 178, -1,
                            45, 47, 44, -1, 332, 335, 334, -1,
                            362, 359, 363, -1, 332, 334, 333, -1,
                            361, 362, 363, -1, 363, 333, 360, -1,
                            360, 361, 363, -1, 194, 197, 196, -1,
                            12, 11, 10, -1, 12, 14, 11, -1,
                            77, 76, 75, -1, 218, 219, 217, -1,
                            201, 205, 206, -1, 205, 201, 204, -1,
                            208, 209, 207, -1, 202, 204, 203, -1,
                            711, 710, 709, -1, 709, 708, 711, -1,
                            239, 242, 240, -1, 244, 239, 243, -1,
                            404, 403, 402, -1, 247, 248, 246, -1,
                            246, 245, 247, -1, 60, 57, 59, -1,
                            251, 250, 249, -1, 397, 392, 396, -1,
                            221, 224, 222, -1, 392, 395, 393, -1,
                            235, 234, 233, -1, 228, 226, 227, -1,
                            399, 398, 400, -1, 400, 402, 401, -1,
                            246, 244, 245, -1, 226, 221, 225, -1,
                            237, 236, 235, -1, 228, 227, 229, -1,
                            229, 231, 230, -1, 285, 287, 289, -1,
                            286, 284, 285, -1, 289, 288, 286, -1,
                            257, 259, 260, -1, 262, 261, 258, -1,
                            258, 257, 260, -1, 382, 381, 379, -1,
                            379, 377, 378, -1, 378, 380, 382, -1,
                            381, 382, 384, -1, 386, 385, 383, -1,
                            383, 381, 384, -1, 390, 389, 387, -1,
                            387, 385, 386, -1, 386, 388, 390, -1,
                            274, 273, 271, -1, 271, 269, 270, -1,
                            270, 272, 274, -1, 322, 324, 326, -1,
                            323, 321, 322, -1, 326, 325, 323, -1,
                            373, 375, 376, -1, 378, 377, 374, -1,
                            374, 373, 376, -1, 265, 266, 268, -1,
                            270, 269, 267, -1, 267, 265, 268, -1,
                            330, 329, 327, -1, 327, 325, 326, -1,
                            326, 328, 330, -1, 315, 316, 318, -1,
                            314, 313, 315, -1, 318, 317, 314, -1,
                            311, 310, 309, -1, 406, 405, 404, -1,
                            399, 397, 398, -1, 303, 304, 302, -1,
                            302, 301, 303, -1, 714, 713, 715, -1,
                            712, 710, 711, -1, 713, 714, 712, -1,
                            497, 496, 499, -1, 499, 500, 498, -1,
                            498, 497, 499, -1, 408, 407, 406, -1,
                            39, 37, 40, -1, 266, 265, 263, -1,
                            263, 261, 262, -1, 262, 264, 266, -1,
                            278, 279, 281, -1, 277, 276, 278, -1,
                            281, 280, 277, -1, 289, 291, 293, -1,
                            290, 288, 289, -1, 293, 292, 290, -1,
                            480, 479, 478, -1, 660, 659, 658, -1,
                            728, 730, 727, -1, 654, 653, 652, -1,
                            515, 504, 520, -1, 520, 521, 516, -1,
                            515, 514, 504, -1, 721, 722, 719, -1,
                            734, 736, 733, -1, 322, 321, 319, -1,
                            319, 317, 318, -1, 318, 320, 322, -1,
                            295, 298, 296, -1, 300, 295, 299, -1,
                            233, 232, 231, -1, 307, 306, 305, -1,
                            309, 308, 307, -1, 577, 580, 576, -1,
                            577, 579, 578, -1, 580, 577, 581, -1,
                            455, 456, 453, -1, 420, 418, 419, -1,
                            411, 427, 410, -1, 420, 419, 415, -1,
                            412, 411, 410, -1, 420, 415, 414, -1,
                            413, 412, 410, -1, 410, 420, 414, -1,
                            49, 51, 48, -1, 437, 439, 436, -1,
                            435, 438, 437, -1, 437, 440, 439, -1,
                            436, 434, 433, -1, 433, 435, 437, -1,
                            451, 450, 448, -1, 113, 111, 112, -1,
                            449, 447, 448, -1, 797, 795, 796, -1,
                            442, 445, 443, -1, 732, 731, 730, -1,
                            557, 556, 555, -1, 50, 51, 52, -1,
                            705, 706, 702, -1, 702, 703, 705, -1,
                            667, 670, 668, -1, 570, 569, 572, -1,
                            572, 573, 571, -1, 571, 570, 572, -1,
                            496, 497, 495, -1, 495, 494, 496, -1,
                            537, 536, 538, -1, 536, 534, 533, -1,
                            536, 537, 535, -1, 569, 570, 568, -1,
                            568, 567, 569, -1, 480, 482, 479, -1,
                            504, 514, 513, -1, 513, 503, 504, -1,
                            509, 508, 505, -1, 519, 518, 517, -1,
                            511, 520, 519, -1, 503, 513, 506, -1,
                            511, 521, 520, -1, 503, 506, 507, -1,
                            512, 511, 519, -1, 505, 503, 507, -1,
                            517, 512, 519, -1, 505, 507, 509, -1,
                            517, 510, 512, -1, 509, 510, 508, -1,
                            82, 85, 84, -1, 82, 86, 81, -1,
                            84, 83, 82, -1, 543, 541, 542, -1,
                            492, 490, 491, -1, 494, 493, 492, -1,
                            487, 490, 486, -1, 487, 489, 488, -1,
                            490, 487, 491, -1, 533, 534, 532, -1,
                            532, 531, 533, -1, 587, 586, 589, -1,
                            589, 590, 588, -1, 588, 587, 589, -1,
                            463, 458, 462, -1, 747, 746, 745, -1,
                            745, 744, 747, -1, 551, 553, 550, -1,
                            648, 646, 647, -1, 143, 142, 141, -1,
                            582, 580, 581, -1, 584, 583, 582, -1,
                            524, 527, 523, -1, 524, 526, 525, -1,
                            527, 524, 528, -1, 586, 587, 585, -1,
                            585, 584, 586, -1, 529, 527, 528, -1,
                            531, 530, 529, -1, 601, 605, 600, -1,
                            594, 609, 593, -1, 602, 600, 599, -1,
                            595, 594, 593, -1, 602, 601, 600, -1,
                            597, 595, 593, -1, 604, 599, 598, -1,
                            597, 593, 596, -1, 596, 598, 597, -1,
                            604, 603, 602, -1, 598, 596, 604, -1,
                            606, 605, 601, -1, 609, 610, 593, -1,
                            607, 606, 601, -1, 612, 610, 609, -1,
                            607, 601, 612, -1, 612, 609, 611, -1,
                            608, 607, 612, -1, 91, 90, 88, -1,
                            95, 93, 94, -1, 106, 107, 111, -1,
                            624, 623, 621, -1, 547, 549, 546, -1,
                            632, 634, 635, -1, 636, 638, 633, -1,
                            633, 632, 635, -1, 635, 637, 641, -1,
                            639, 643, 642, -1, 635, 641, 640, -1,
                            639, 633, 635, -1, 640, 643, 639, -1,
                            639, 636, 633, -1, 549, 551, 548, -1,
                            6, 5, 4, -1, 749, 750, 748, -1,
                            748, 746, 747, -1, 750, 749, 751, -1,
                            705, 708, 706, -1, 679, 678, 677, -1,
                            758, 759, 755, -1, 755, 756, 758, -1,
                            560, 563, 559, -1, 563, 560, 564, -1,
                            560, 562, 561, -1, 717, 716, 715, -1,
                            722, 724, 720, -1, 682, 694, 693, -1,
                            692, 681, 682, -1, 682, 693, 692, -1,
                            684, 683, 681, -1, 732, 734, 731, -1,
                            676, 675, 677, -1, 674, 672, 673, -1,
                            675, 676, 674, -1, 667, 668, 664, -1,
                            664, 665, 667, -1, 741, 742, 738, -1,
                            738, 739, 741, -1, 673, 672, 671, -1,
                            671, 670, 673, -1, 662, 661, 660, -1,
                            476, 475, 474, -1, 470, 472, 468, -1,
                            726, 728, 725, -1, 766, 767, 765, -1,
                            765, 763, 764, -1, 767, 766, 768, -1,
                            565, 563, 564, -1, 567, 566, 565, -1,
                            764, 763, 762, -1, 762, 761, 764, -1,
                            741, 744, 742, -1, 770, 769, 768, -1,
                            253, 252, 251, -1, 758, 761, 759, -1,
                            302, 300, 301, -1, 753, 752, 751, -1,
                            789, 772, 773, -1, 366, 365, 345, -1,
                            371, 346, 369, -1, 367, 345, 371, -1,
                            371, 369, 370, -1, 367, 366, 345, -1,
                            371, 370, 368, -1, 461, 460, 458, -1,
                            174, 173, 172, -1, 627, 630, 628, -1,
                            47, 49, 46, -1, 806, 804, 805, -1,
                            281, 283, 285, -1, 282, 280, 281, -1,
                            285, 284, 282 ]
                        ccw TRUE
                        solid FALSE
                        convex TRUE
                        creaseAngle 0

                      }

                    }

                }

            }

        },
          
        Group {
          children 
            Transform {
              translation 0.039999992 1.49012e-008 0
              rotation 0 0 1  0
              scale 0.99999988 1 1
              scaleOrientation 0 0 1  0

            }

        } ]

    }

}
