#VRML V2.0 utf8


Group {
  children 
    Group {
      children [ 
        Group {
          children 
            Transform {
              translation -0.25408906 0.1912501 -0.012999928
              rotation -0.5773502 -0.57735056 0.57735002  2.0943949
              scale 1 1.0000001 1
              scaleOrientation 0.97625911 1.2098145e-006 -0.21667533  0.098575085
              children 
                Transform {
                  translation -0.1970323 -0.01283563 -0.27703041
                  rotation 0.60421377 0.56343848 -0.5634383  2.0545683
                  scale 0.99999958 0.99999976 0.99999982
                  scaleOrientation -0.79080421 -0.58299798 -0.18637642  0.18378173
                  children 
                    Shape {
                      appearance 
                      Appearance {
                        material 
                        Material {
                          diffuseColor 0.48159999 0.48159999 0.48159999

                        }

                      }
                      geometry 
                      IndexedFaceSet {
                        coord 
                        Coordinate {
                          point [ -0.022499969 0.007377624 -0.0027999871,
                              0.01444995 -0.0048723221 0.0024999969,
                              0.01444995 -0.0057273498 0.0023491969,
                              0.01144999 -0.0048723221 0.0024999969,
                              0.01144999 -0.0057273498 0.0023491969,
                              0.01444995 -0.0070374012 0.001249969,
                              0.01144999 -0.0070374012 0.001249969,
                              0.01444995 -0.0073343511 -0.00043412999,
                              0.01144999 -0.0073343511 -0.00043412999,
                              0.01444995 -0.0070374012 -0.001249969,
                              0.01144999 -0.0070374012 -0.001249969,
                              0.01444995 -0.0057273498 -0.0023491969,
                              0.01144999 -0.0057273498 -0.0023491969,
                              0.01444995 -0.0048723221 -0.0024999969,
                              0.01144999 -0.0048723221 -0.0024999969,
                              -0.022499969 0.007377624 -0.0027999871,
                              0.01444995 -0.0048723221 -0.0024999969,
                              0.01444995 -0.004017293 -0.0023491969,
                              0.01144999 -0.0048723221 -0.0024999969,
                              0.01144999 -0.004017293 -0.0023491969,
                              0.01444995 -0.002707242 -0.001249969,
                              0.01144999 -0.002707242 -0.001249969,
                              0.01444995 -0.0024102919 -0.00043412999,
                              0.01144999 -0.0024102919 -0.00043412999,
                              0.01444995 -0.002707242 0.001249969,
                              0.01144999 -0.002707242 0.001249969,
                              0.01444995 -0.004017293 0.0023491969,
                              0.01144999 -0.004017293 0.0023491969,
                              0.01444995 -0.0048723221 0.0024999969,
                              0.01144999 -0.0048723221 0.0024999969,
                              -0.022499969 0.007377624 -0.0027999871,
                              -0.0099999905 -0.0058723092 -0.00150001,
                              -0.0099999905 -0.0064463611 -0.0013858069,
                              -0.006999969 -0.0058723092 -0.00150001,
                              -0.006999969 -0.0064463611 -0.0013858069,
                              -0.0099999905 -0.0069329729 -0.001060605,
                              -0.006999969 -0.0069329729 -0.001060605,
                              -0.0099999905 -0.0072581759 -0.00057402003,
                              -0.006999969 -0.0072581759 -0.00057402003,
                              -0.0099999905 -0.0073723192 0,
                              -0.006999969 -0.0073723192 0,
                              -0.0099999905 -0.0072581759 0.00057401002,
                              -0.006999969 -0.0072581759 0.00057401002,
                              -0.0099999905 -0.0069329729 0.001060605,
                              -0.006999969 -0.0069329729 0.001060605,
                              -0.0099999905 -0.0064463611 0.0013858069,
                              -0.006999969 -0.0064463611 0.0013858069,
                              -0.0099999905 -0.0058723092 0.00149995,
                              -0.006999969 -0.0058723092 0.00149995,
                              -0.022499969 0.007377624 -0.0027999871,
                              -0.0099999905 -0.0058723092 0.00149995,
                              -0.0099999905 -0.005298316 0.0013858069,
                              -0.006999969 -0.0058723092 0.00149995,
                              -0.006999969 -0.005298316 0.0013858069,
                              -0.0099999905 -0.0048116441 0.001060605,
                              -0.006999969 -0.0048116441 0.001060605,
                              -0.0099999905 -0.0044865012 0.00057401002,
                              -0.006999969 -0.0044865012 0.00057401002,
                              -0.0099999905 -0.0043723579 0,
                              -0.006999969 -0.0043723579 0,
                              -0.0099999905 -0.0044865012 -0.00057402003,
                              -0.006999969 -0.0044865012 -0.00057402003,
                              -0.0099999905 -0.0048116441 -0.001060605,
                              -0.006999969 -0.0048116441 -0.001060605,
                              -0.0099999905 -0.005298316 -0.0013858069,
                              -0.006999969 -0.005298316 -0.0013858069,
                              -0.0099999905 -0.0058723092 -0.00150001,
                              -0.006999969 -0.0058723092 -0.00150001,
                              -0.022499969 0.007377624 -0.0027999871,
                              -0.0099999905 0.0032615659 -0.0049999952,
                              -0.0099999905 0.0031297801 -0.0045653582,
                              -0.006999969 0.0032615659 -0.0049999952,
                              -0.006999969 0.0031297801 -0.0045653582,
                              -0.0099999905 0.003203749 -0.00411731,
                              -0.006999969 0.003203749 -0.00411731,
                              -0.0099999905 0.0034682751 -0.0037481179,
                              -0.006999969 0.0034682751 -0.0037481179,
                              -0.0099999905 0.0038688181 -0.0035340181,
                              -0.006999969 0.0038688181 -0.0035340181,
                              -0.0099999905 0.0043227072 -0.003519177,
                              -0.006999969 0.0043227072 -0.003519177,
                              -0.0099999905 0.004736363 -0.003706634,
                              -0.006999969 0.004736363 -0.003706634,
                              -0.0099999905 0.0050244918 -0.0040576449,
                              -0.006999969 0.0050244918 -0.0040576449,
                              -0.0099999905 0.0051276078 -0.0044999709,
                              -0.006999969 0.0051276078 -0.0044999709,
                              -0.0099999905 0.0049936171 -0.0049999952,
                              -0.006999969 0.0049936171 -0.0049999952,
                              -0.022499969 0.007377624 -0.0027999871,
                              -0.02349996 0.007377624 0.0059999819,
                              -0.02340096 0.0069437022 0.0059999819,
                              -0.02349996 0.007377624 0.0044999709,
                              -0.02340096 0.0069437618 0.0044999709,
                              -0.023123439 0.0065957899 0.0059999819,
                              -0.023123439 0.0065957899 0.0044999709,
                              -0.022722481 0.0064026709 0.0059999819,
                              -0.022722481 0.0064026709 0.0044999709,
                              -0.022277471 0.0064026709 0.0059999819,
                              -0.022277471 0.0064026709 0.0044999709,
                              -0.02187651 0.0065957899 0.0059999819,
                              -0.02187651 0.0065957899 0.0044999709,
                              -0.021598989 0.0069437022 0.0059999819,
                              -0.021598989 0.0069437618 0.0044999709,
                              -0.02149999 0.007377624 0.0059999819,
                              -0.02149999 0.007377624 0.0044999709,
                              -0.022499969 0.007377624 -0.0027999871,
                              -0.02149999 0.007377624 0.0059999819,
                              -0.021572171 0.0077505698 0.0059999819,
                              -0.02149999 0.007377624 0.0044999709,
                              -0.021598989 0.0078114858 0.0044999709,
                              -0.02177822 0.0080697527 0.0059999819,
                              -0.02187651 0.0081594577 0.0044999709,
                              -0.02207475 0.0082826614 0.0059876442,
                              -0.022277471 0.0083525181 0.0044999709,
                              -0.02242988 0.0083751669 0.0059774509,
                              -0.022722481 0.0083525181 0.0044999709,
                              -0.02279436 0.0083332649 0.0059876442,
                              -0.02311795 0.0081638088 0.0059999819,
                              -0.023123439 0.0081594577 0.0044999709,
                              -0.023399411 0.0078146448 0.0059999819,
                              -0.02340096 0.0078114858 0.0044999709,
                              -0.02349996 0.007377624 0.0059999819,
                              -0.02349996 0.007377624 0.0044999709,
                              -0.022499969 0.007377624 -0.0027999871,
                              -0.022277471 0.0064026709 0.0044999709,
                              -0.02187651 0.0065957899 0.0044999709,
                              -0.022722481 0.0064026709 0.0044999709,
                              -0.023123439 0.0065957899 0.0044999709,
                              -0.021598989 0.0069437618 0.0044999709,
                              -0.02203238 0.006791234 0.0044999709,
                              -0.02233308 0.0066463938 0.0044999709,
                              -0.02266687 0.0066463938 0.0044999709,
                              -0.02296757 0.006791234 0.0044999709,
                              -0.02340096 0.0069437618 0.0044999709,
                              -0.021824241 0.0070521832 0.0044999709,
                              -0.023175711 0.0070521832 0.0044999709,
                              -0.02149999 0.007377624 0.0044999709,
                              -0.02174997 0.007377624 0.0044999709,
                              -0.02324998 0.007377624 0.0044999709,
                              -0.02349996 0.007377624 0.0044999709,
                              -0.023175711 0.0077030058 0.0044999709,
                              -0.021598989 0.0078114858 0.0044999709,
                              -0.021824241 0.0077030058 0.0044999709,
                              -0.02340096 0.0078114858 0.0044999709,
                              -0.02203238 0.0079639554 0.0044999709,
                              -0.02296757 0.0079639554 0.0044999709,
                              -0.02187651 0.0081594577 0.0044999709,
                              -0.02266687 0.0081087938 0.0044999709,
                              -0.02233308 0.0081087938 0.0044999709,
                              -0.023123439 0.0081594577 0.0044999709,
                              -0.022277471 0.0083525181 0.0044999709,
                              -0.022722481 0.0083525181 0.0044999709,
                              -0.022499969 0.007377624 -0.0027999871,
                              0.01444995 0.00181365 0.0059999819,
                              0.01144999 0.00181365 0.0059999819,
                              0.01444995 0.00181365 0.0049999952,
                              0.01144999 0.00181365 0.0049999952,
                              -0.022499969 0.007377624 -0.0027999871,
                              0.0072780838 0.0051276078 0.0059999819,
                              -0.0099999905 0.006340682 0.0059999819,
                              0.0072780838 0.0051276078 0.0049999952,
                              -0.0099999905 0.006340682 0.0049999952,
                              -0.022499969 0.007377624 -0.0027999871,
                              -0.0099999905 0.006340682 0.0059999819,
                              -0.0099999905 0.0051276078 0.0059999819,
                              -0.0099999905 0.006340682 0.0049999952,
                              -0.0099999905 0.0051276078 0.0049999952,
                              -0.022499969 0.007377624 -0.0027999871,
                              0.01444995 -0.0033723109 -0.0049999952,
                              0.01144999 -0.0033723109 -0.0049999952,
                              0.01444995 -0.0063112369 -0.0040450692,
                              0.01144999 -0.0063112369 -0.0040450692,
                              0.01444995 -0.0081276288 -0.001545071,
                              0.01144999 -0.0081276288 -0.001545071,
                              0.01444995 -0.0081276288 0.0015450109,
                              0.01144999 -0.0081276288 0.0015450109,
                              0.01444995 -0.0074173799 0.002938926,
                              0.01144999 -0.0074173799 0.002938926,
                              0.01444995 -0.0049174419 0.0047552581,
                              0.01144999 -0.0049174419 0.0047552581,
                              0.01444995 -0.0033723109 0.0049999952,
                              0.01144999 -0.0033723109 0.0049999952,
                              -0.022499969 0.007377624 -0.0027999871,
                              0.01444995 0.00181365 -0.0049999952,
                              0.01144999 0.00181365 -0.0049999952,
                              0.01444995 0.00181365 -0.0059999819,
                              0.01144999 0.00181365 -0.0059999819,
                              -0.022499969 0.007377624 -0.0027999871,
                              -0.0099999905 -0.0048723221 0.0049999952,
                              -0.0099999905 -0.0064173932 0.0047552581,
                              -0.006999969 -0.0048723221 0.0049999952,
                              -0.006999969 -0.0064173932 0.0047552581,
                              -0.0099999905 -0.0089173913 0.002938926,
                              -0.006999969 -0.0089173913 0.002938926,
                              -0.0099999905 -0.0096275797 0.0015450109,
                              -0.006999969 -0.0096275797 0.0015450109,
                              -0.0099999905 -0.0096275797 -0.001545071,
                              -0.006999969 -0.0096275797 -0.001545071,
                              -0.0099999905 -0.0078112478 -0.0040450692,
                              -0.006999969 -0.0078112478 -0.0040450692,
                              -0.0099999905 -0.0048723221 -0.0049999952,
                              -0.006999969 -0.0048723221 -0.0049999952,
                              -0.022499969 0.007377624 -0.0027999871,
                              0.02010333 0.0065593119 -0.0049635172,
                              -0.022589801 0.0096275797 -0.0045913449,
                              -0.022549979 0.0096275797 -0.0044999709,
                              0.020108519 0.006632566 -0.0044999709,
                              -0.02311998 0.0095930686 -0.0049663782,
                              0.020065179 0.0060157771 -0.005713522,
                              -0.024225529 0.0089777112 -0.0058079362,
                              0.020003431 0.005136251 -0.0059999819,
                              -0.02464371 0.0082709193 -0.0059999819,
                              -0.022499969 0.007377624 -0.0027999871,
                              0.020249959 0.0065541859 -0.0049634571,
                              0.020108519 0.006632566 -0.0044999709,
                              0.020249959 0.0066276188 -0.0044999709,
                              0.02010333 0.0065593119 -0.0049635172,
                              0.020249959 0.0060092802 -0.005713522,
                              0.020065179 0.0060157771 -0.005713522,
                              0.020249959 0.0051276078 -0.0059999819,
                              0.020003431 0.005136251 -0.0059999819,
                              -0.022499969 0.007377624 -0.0027999871,
                              -0.022549979 0.0096275797 0.0044999709,
                              -0.022589801 0.0096275797 0.0045913449,
                              0.020108519 0.006632566 0.0044999709,
                              0.02010333 0.0065593119 0.0049635172,
                              -0.02311998 0.0095930686 0.0049663782,
                              0.020065179 0.0060157771 0.0057134619,
                              -0.024225529 0.0089777112 0.0058079362,
                              -0.02464371 0.0082709193 0.0059999819,
                              -0.02279436 0.0083332649 0.0059876442,
                              -0.02242988 0.0083751669 0.0059774509,
                              -0.02311795 0.0081638088 0.0059999819,
                              -0.02207475 0.0082826614 0.0059876442,
                              -0.02177822 0.0080697527 0.0059999819,
                              0.020003431 0.005136251 0.0059999819,
                              -0.022499969 0.007377624 -0.0027999871,
                              0.020003431 0.005136251 0.0059999819,
                              0.020249959 0.0051276078 0.0059999819,
                              0.020249959 0.0060092802 0.0057134619,
                              0.020065179 0.0060157771 0.0057134619,
                              0.020249959 0.0065541859 0.0049634571,
                              0.02010333 0.0065593119 0.0049635172,
                              0.020249959 0.0066276188 0.0044999709,
                              0.020108519 0.006632566 0.0044999709,
                              -0.022499969 0.007377624 -0.0027999871,
                              0.0072780838 0.0051276078 -0.0049999952,
                              -0.0099999905 0.006340682 -0.0049999952,
                              0.0072780838 0.0051276078 -0.0059999819,
                              -0.0099999905 0.006340682 -0.0059999819,
                              -0.022499969 0.007377624 -0.0027999871,
                              -0.0099999905 0.006340682 -0.0049999952,
                              -0.0099999905 0.0051276078 -0.0049999952,
                              -0.0099999905 0.006340682 -0.0059999819,
                              -0.0099999905 0.0051276078 -0.0059999819,
                              -0.022499969 0.007377624 -0.0027999871,
                              0.01444995 0.0021275871 -0.0049999952,
                              0.01444995 0.0022037621 -0.0053826571,
                              0.020249959 0.0021275871 -0.0049999952,
                              0.020249959 0.0022037621 -0.0053826571,
                              0.01444995 0.002420485 -0.0057070851,
                              0.020249959 0.002420485 -0.0057070851,
                              0.01444995 0.0027449131 -0.0059238672,
                              0.020249959 0.0027449131 -0.0059238672,
                              0.01444995 0.0031276341 -0.0059999819,
                              0.020249959 0.0031276341 -0.0059999819,
                              -0.022499969 0.007377624 -0.0027999871,
                              0.020249959 0.0021275871 0.0049999952,
                              0.020249959 0.0022037621 0.0053826571,
                              0.01444995 0.0021275871 0.0049999952,
                              0.01444995 0.0022037621 0.0053826571,
                              0.020249959 0.002420485 0.0057070851,
                              0.01444995 0.002420485 0.0057070851,
                              0.020249959 0.0027449131 0.0059238672,
                              0.01444995 0.0027449131 0.0059238672,
                              0.020249959 0.0031276341 0.0059999819,
                              0.01444995 0.0031276341 0.0059999819,
                              -0.022499969 0.007377624 -0.0027999871,
                              0.01249998 0.0043776031 0.0059999819,
                              0.01256698 0.0041276212 0.0059999819,
                              0.01249998 0.0043776031 -0.0059999819,
                              0.01256698 0.0041276212 -0.0059999819,
                              0.01274996 0.0039445749 0.0059999819,
                              0.01274996 0.0039445749 -0.0059999819,
                              0.01299995 0.0038775799 0.0059999819,
                              0.01299995 0.0038775799 -0.0059999819,
                              0.01324999 0.0039445749 0.0059999819,
                              0.01324999 0.0039445749 -0.0059999819,
                              0.01343297 0.0041276212 0.0059999819,
                              0.01343297 0.0041276212 -0.0059999819,
                              0.01349997 0.0043776031 0.0059999819,
                              0.01349997 0.0043776031 -0.0059999819,
                              -0.022499969 0.007377624 -0.0027999871,
                              0.01349997 0.0043776031 0.0059999819,
                              0.01343297 0.0046275849 0.0059999819,
                              0.01349997 0.0043776031 -0.0059999819,
                              0.01343297 0.0046275849 -0.0059999819,
                              0.01324999 0.0048106308 0.0059999819,
                              0.01324999 0.0048106308 -0.0059999819,
                              0.01299995 0.004877626 0.0059999819,
                              0.01299995 0.004877626 -0.0059999819,
                              0.01274996 0.0048106308 0.0059999819,
                              0.01274996 0.0048106308 -0.0059999819,
                              0.01256698 0.0046275849 0.0059999819,
                              0.01256698 0.0046275849 -0.0059999819,
                              0.01249998 0.0043776031 0.0059999819,
                              0.01249998 0.0043776031 -0.0059999819,
                              -0.022499969 0.007377624 -0.0027999871,
                              0.01487499 0.0043776031 -0.0059999819,
                              0.01495867 0.0046901102 -0.0059999819,
                              0.01487499 0.0043776031 0.0059999819,
                              0.01495867 0.0046901102 0.0059999819,
                              0.01518744 0.0049188728 -0.0059999819,
                              0.01518744 0.0049188728 0.0059999819,
                              0.01549994 0.0050026169 -0.0059999819,
                              0.01549994 0.0050026169 0.0059999819,
                              0.015812449 0.0049188728 -0.0059999819,
                              0.015812449 0.0049188728 0.0059999819,
                              0.01604121 0.0046901102 -0.0059999819,
                              0.01604121 0.0046901102 0.0059999819,
                              0.01612496 0.0043776031 -0.0059999819,
                              0.01612496 0.0043776031 0.0059999819,
                              -0.022499969 0.007377624 -0.0027999871,
                              0.01612496 0.0043776031 -0.0059999819,
                              0.01604121 0.0040650959 -0.0059999819,
                              0.01612496 0.0043776031 0.0059999819,
                              0.01604121 0.0040650959 0.0059999819,
                              0.015812449 0.0038363331 -0.0059999819,
                              0.015812449 0.0038363331 0.0059999819,
                              0.01549994 0.003752589 -0.0059999819,
                              0.01549994 0.003752589 0.0059999819,
                              0.01518744 0.0038363331 -0.0059999819,
                              0.01518744 0.0038363331 0.0059999819,
                              0.01495867 0.0040650959 -0.0059999819,
                              0.01495867 0.0040650959 0.0059999819,
                              0.01487499 0.0043776031 -0.0059999819,
                              0.01487499 0.0043776031 0.0059999819,
                              -0.022499969 0.007377624 -0.0027999871,
                              0.01144999 0.003832221 -0.0049999952,
                              -0.006999969 0.0051276078 0.0049999952,
                              -0.006999969 0.0051276078 -0.0049999952,
                              0.01144999 0.003832221 0.0049999952,
                              -0.022499969 0.007377624 -0.0027999871,
                              -0.006999969 -0.0096275797 0.0015450109,
                              -0.006999969 -0.0096275797 -0.001545071,
                              -0.006999969 -0.0089173913 0.002938926,
                              -0.006999969 -0.0078112478 -0.0040450692,
                              -0.006999969 -0.0064173932 -0.0047552581,
                              -0.006999969 -0.0064463611 -0.0013858069,
                              -0.006999969 -0.0069329729 -0.001060605,
                              -0.006999969 -0.0072581759 -0.00057402003,
                              -0.006999969 -0.0073723192 0,
                              -0.006999969 -0.0072581759 0.00057401002,
                              -0.006999969 -0.0069329729 0.001060605,
                              -0.006999969 -0.0064463611 0.0013858069,
                              -0.006999969 -0.0064173932 0.0047552581,
                              -0.006999969 -0.0058723092 -0.00150001,
                              -0.006999969 -0.0058723092 0.00149995,
                              -0.006999969 -0.005298316 -0.0013858069,
                              -0.006999969 -0.005298316 0.0013858069,
                              -0.006999969 -0.0048723221 0.0049999952,
                              -0.006999969 -0.0048116441 -0.001060605,
                              -0.006999969 -0.0048116441 0.001060605,
                              -0.006999969 0.0032615659 -0.0049999952,
                              -0.006999969 0.0031297801 -0.0045653582,
                              -0.006999969 -0.0043723579 0,
                              -0.006999969 -0.0044865012 -0.00057402003,
                              -0.006999969 0.0049936171 -0.0049999952,
                              -0.006999969 0.0051276078 -0.0049999952,
                              -0.006999969 0.0051276078 -0.0044999709,
                              -0.006999969 -0.0044865012 0.00057401002,
                              -0.006999969 0.003203749 -0.00411731,
                              -0.006999969 0.0034682751 -0.0037481179,
                              -0.006999969 0.0038688181 -0.0035340181,
                              -0.006999969 0.0043227072 -0.003519177,
                              -0.006999969 0.004736363 -0.003706634,
                              -0.006999969 0.0050244918 -0.0040576449,
                              -0.006999969 0.0051276078 0.0049999952,
                              -0.022499969 0.007377624 -0.0027999871,
                              0.02384996 0.0043776031 0.0024999969,
                              0.02374744 0.0048937201 0.0024999969,
                              0.02354997 0.0043776031 0.0021999469,
                              0.023446141 0.0048328042 0.0021999469,
                              0.023454839 0.005331933 0.0024999969,
                              0.023154849 0.005198359 0.0021999469,
                              0.02301681 0.0056247711 0.0024999969,
                              0.022733681 0.0054012528 0.0021999469,
                              0.022499969 0.0057275891 0.0024999969,
                              0.0222662 0.0054012528 0.0021999469,
                              0.021983139 0.0056247711 0.0024999969,
                              0.0218451 0.005198359 0.0021999469,
                              0.021545051 0.005331873 0.0024999969,
                              0.021553749 0.0048328042 0.0021999469,
                              0.021252509 0.0048937201 0.0024999969,
                              0.021149989 0.0043776031 0.0024999969,
                              0.021449979 0.0043776031 0.0021999469,
                              -0.022499969 0.007377624 -0.0027999871,
                              0.021149989 0.0043776031 0.0024999969,
                              0.021252509 0.003861486 0.0024999969,
                              0.021449979 0.0043776031 0.0021999469,
                              0.021553811 0.0039224019 0.0021999469,
                              0.02154511 0.0034233329 0.0024999969,
                              0.0218451 0.0035568471 0.0021999469,
                              0.021983139 0.003130435 0.0024999969,
                              0.022266259 0.0033539529 0.0021999469,
                              0.022499969 0.003027617 0.0024999969,
                              0.022733741 0.0033539529 0.0021999469,
                              0.02301681 0.0031304951 0.0024999969,
                              0.023154849 0.0035568471 0.0021999469,
                              0.023454901 0.0034233329 0.0024999969,
                              0.0234462 0.0039224019 0.0021999469,
                              0.02374744 0.003861486 0.0024999969,
                              0.02384996 0.0043776031 0.0024999969,
                              0.02354997 0.0043776031 0.0021999469,
                              -0.022499969 0.007377624 -0.0027999871,
                              0.021149989 0.0043776031 -0.0024999969,
                              0.021252509 0.0048937201 -0.0024999969,
                              0.021449979 0.0043776031 -0.0021999469,
                              0.021553749 0.0048328042 -0.002200007,
                              0.021545051 0.005331873 -0.0024999969,
                              0.0218451 0.005198359 -0.0021999469,
                              0.021983139 0.0056247711 -0.0024999969,
                              0.0222662 0.0054012528 -0.0021999469,
                              0.022499969 0.0057275891 -0.0024999969,
                              0.022733681 0.0054012528 -0.0021999469,
                              0.02301681 0.0056247711 -0.0024999969,
                              0.023154849 0.005198359 -0.002200007,
                              0.023454839 0.005331933 -0.0024999969,
                              0.023446141 0.0048328042 -0.002200007,
                              0.02374744 0.0048937201 -0.0024999969,
                              0.02384996 0.0043776031 -0.0024999969,
                              0.02354997 0.0043776031 -0.0021999469,
                              -0.022499969 0.007377624 -0.0027999871,
                              0.02384996 0.0043776031 -0.0024999969,
                              0.02374744 0.003861486 -0.0024999969,
                              0.02354997 0.0043776031 -0.0021999469,
                              0.0234462 0.0039224019 -0.002200007,
                              0.023454901 0.0034233329 -0.0024999969,
                              0.023154849 0.0035568471 -0.0021999469,
                              0.02301681 0.0031304951 -0.0024999969,
                              0.022733741 0.0033539529 -0.0021999469,
                              0.022499969 0.003027617 -0.0024999969,
                              0.022266259 0.0033539529 -0.0021999469,
                              0.021983139 0.003130435 -0.0024999969,
                              0.0218451 0.0035568471 -0.002200007,
                              0.02154511 0.0034233329 -0.0024999969,
                              0.021553811 0.0039224019 -0.002200007,
                              0.021252509 0.003861486 -0.0024999969,
                              0.021149989 0.0043776031 -0.0024999969,
                              0.021449979 0.0043776031 -0.0021999469,
                              -0.022499969 0.007377624 -0.0027999871,
                              0.024749991 0.0026276109 0.0024999969,
                              0.024711899 0.00243628 0.0024999969,
                              0.024749991 0.0026276109 -0.0024999969,
                              0.024711899 0.00243628 -0.0024999969,
                              0.02460354 0.0022740359 0.0024999969,
                              0.02460354 0.0022740359 -0.0024999969,
                              0.0244413 0.0021656749 0.0024999969,
                              0.0244413 0.0021656749 -0.0024999969,
                              0.024249971 0.0021275871 0.0024999969,
                              0.024249971 0.0021275871 -0.0024999969,
                              -0.022499969 0.007377624 -0.0027999871,
                              -0.022549979 0.0096275797 -0.0027999871,
                              -0.020249959 0.0094661107 -0.0027999871,
                              -0.022549979 0.0096275797 -0.0044999709,
                              0.020108519 0.006632566 0.0044999709,
                              -0.020249959 0.0094661107 0.002799928,
                              -0.022549979 0.0096275797 0.002799928,
                              -0.022549979 0.0096275797 0.0044999709,
                              0.020108519 0.006632566 -0.0044999709,
                              -0.022499969 0.007377624 -0.0027999871,
                              0.020108519 0.006632566 0.0044999709,
                              0.020108519 0.006632566 -0.0044999709,
                              0.020249959 0.0066276188 0.0044999709,
                              0.020249959 0.0066276188 -0.0044999709,
                              -0.022499969 0.007377624 -0.0027999871,
                              0.01444995 -0.0033723109 -0.0049999952,
                              0.01144999 -0.0033723109 -0.0049999952,
                              0.01444995 0.00181365 -0.0049999952,
                              0.01144999 0.00181365 -0.0049999952,
                              0.01144999 0.0051276078 -0.0049999952,
                              0.01144999 0.003832221 -0.0049999952,
                              -0.006999969 0.0051276078 -0.0049999952,
                              -0.006999969 -0.0048723221 -0.0049999952,
                              -0.0099999905 -0.0048723221 -0.0049999952,
                              -0.006999969 0.0032615659 -0.0049999952,
                              -0.0099999905 0.0032615659 -0.0049999952,
                              -0.006999969 0.0049936171 -0.0049999952,
                              -0.0099999905 0.0049936171 -0.0049999952,
                              -0.0099999905 0.006340682 -0.0049999952,
                              -0.022499969 0.007377624 -0.0027999871,
                              0.01444995 0.00181365 0.0049999952,
                              0.01144999 0.00181365 0.0049999952,
                              0.01444995 -0.0033723109 0.0049999952,
                              0.01144999 -0.0033723109 0.0049999952,
                              0.01144999 0.0051276078 0.0049999952,
                              0.01144999 0.003832221 0.0049999952,
                              -0.006999969 0.0051276078 0.0049999952,
                              -0.0099999905 0.006340682 0.0049999952,
                              -0.006999969 -0.0048723221 0.0049999952,
                              -0.0099999905 -0.0048723221 0.0049999952,
                              -0.022499969 0.007377624 -0.0027999871,
                              -0.0099999905 0.0051276078 -0.0044999709,
                              -0.0099999905 0.0050244918 -0.0040576449,
                              -0.0099999905 0.0051276078 0.0049999952,
                              -0.0099999905 0.0051276078 -0.0049999952,
                              -0.0099999905 0.0049936171 -0.0049999952,
                              -0.0099999905 -0.0048116441 -0.001060605,
                              -0.0099999905 -0.0044865012 -0.00057402003,
                              -0.0099999905 -0.0043723579 0,
                              -0.0099999905 0.0031297801 -0.0045653582,
                              -0.0099999905 0.0032615659 -0.0049999952,
                              -0.0099999905 0.004736363 -0.003706634,
                              -0.0099999905 0.0043227072 -0.003519177,
                              -0.0099999905 0.0038688181 -0.0035340181,
                              -0.0099999905 0.0034682751 -0.0037481179,
                              -0.0099999905 0.003203749 -0.00411731,
                              -0.0099999905 -0.0044865012 0.00057401002,
                              -0.0099999905 -0.0048116441 0.001060605,
                              -0.0099999905 -0.005298316 -0.0013858069,
                              -0.0099999905 -0.005298316 0.0013858069,
                              -0.0099999905 -0.0064173932 -0.0047552581,
                              -0.0099999905 -0.0058723092 -0.00150001,
                              -0.0099999905 -0.0058723092 0.00149995,
                              -0.0099999905 -0.0064173932 0.0047552581,
                              -0.0099999905 -0.0064463611 -0.0013858069,
                              -0.0099999905 -0.0064463611 0.0013858069,
                              -0.0099999905 -0.0078112478 -0.0040450692,
                              -0.0099999905 -0.0073723192 0,
                              -0.0099999905 -0.0072581759 -0.00057402003,
                              -0.0099999905 -0.0069329729 -0.001060605,
                              -0.0099999905 -0.0069329729 0.001060605,
                              -0.0099999905 -0.0072581759 0.00057401002,
                              -0.0099999905 -0.0078112478 0.0040450692,
                              -0.0099999905 -0.0096275797 -0.001545071,
                              -0.0099999905 -0.0096275797 0.0015450109,
                              -0.022499969 0.007377624 -0.0027999871,
                              -0.02324998 0.007377624 -0.0059999819,
                              -0.023198839 0.0076497789 -0.0059999819,
                              -0.02324998 0.007377624 -0.0027999871,
                              -0.023175711 0.0077030058 -0.0027999871,
                              -0.02324998 0.007377624 0.0027999871,
                              -0.023175711 0.0077030058 0.0027999871,
                              -0.02324998 0.007377624 0.0044999709,
                              -0.023175711 0.0077030058 0.0044999709,
                              -0.023052391 0.00788486 -0.0059999819,
                              -0.02296757 0.0079639554 -0.0027999871,
                              -0.02296757 0.0079639554 0.0027999871,
                              -0.02296757 0.0079639554 0.0044999709,
                              -0.02283066 0.0080507994 -0.0059999819,
                              -0.02266687 0.0081087938 -0.0027999871,
                              -0.02266687 0.0081087938 0.0027999871,
                              -0.02266687 0.0081087938 0.0044999709,
                              -0.02256381 0.008124887 -0.0059999819,
                              -0.02233308 0.0081087938 -0.0027999871,
                              -0.02233308 0.0081087938 0.0027999871,
                              -0.02233308 0.0081087938 0.0044999709,
                              -0.02233237 0.0081086149 -0.0059999819,
                              -0.022100501 0.0080123544 -0.0059999819,
                              -0.02203238 0.0079639554 -0.0027999871,
                              -0.02203238 0.0079639554 0.0027999871,
                              -0.02203238 0.0079639554 0.0044999709,
                              -0.021824241 0.0077030058 -0.0027999871,
                              -0.021824241 0.0077030058 0.0027999871,
                              -0.021824241 0.0077030058 0.0044999709,
                              -0.021791991 0.0076251621 -0.0059999819,
                              -0.02174997 0.007377624 -0.0059999819,
                              -0.02174997 0.007377624 -0.0027999871,
                              -0.02174997 0.007377624 0.0027999871,
                              -0.02174997 0.007377624 0.0044999709,
                              -0.022499969 0.007377624 -0.0027999871,
                              -0.02174997 0.007377624 -0.0059999819,
                              -0.021824241 0.0070521832 -0.0059999819,
                              -0.02174997 0.007377624 -0.0027999871,
                              -0.021824241 0.0070521832 -0.0027999871,
                              -0.02174997 0.007377624 0.0027999871,
                              -0.021824241 0.0070521832 0.0027999871,
                              -0.02174997 0.007377624 0.0044999709,
                              -0.021824241 0.0070521832 0.0044999709,
                              -0.02203238 0.006791234 -0.0059999819,
                              -0.02203238 0.006791234 -0.0027999871,
                              -0.02203238 0.006791234 0.0027999871,
                              -0.02203238 0.006791234 0.0044999709,
                              -0.02233308 0.0066463938 -0.0059999819,
                              -0.02233308 0.0066463938 -0.0027999871,
                              -0.02233308 0.0066463938 0.0027999871,
                              -0.02233308 0.0066463938 0.0044999709,
                              -0.02266687 0.0066463938 -0.0059999819,
                              -0.02266687 0.0066463938 -0.0027999871,
                              -0.02266687 0.0066463938 0.0027999871,
                              -0.02266687 0.0066463938 0.0044999709,
                              -0.02296757 0.006791234 -0.0059999819,
                              -0.02296757 0.006791234 -0.0027999871,
                              -0.02296757 0.006791234 0.0027999871,
                              -0.02296757 0.006791234 0.0044999709,
                              -0.023175711 0.0070521832 -0.0059999819,
                              -0.023175711 0.0070521832 -0.0027999871,
                              -0.023175711 0.0070521832 0.0027999871,
                              -0.023175711 0.0070521832 0.0044999709,
                              -0.02324998 0.007377624 -0.0059999819,
                              -0.02324998 0.007377624 -0.0027999871,
                              -0.02324998 0.007377624 0.0027999871,
                              -0.02324998 0.007377624 0.0044999709,
                              -0.022499969 0.007377624 -0.0027999871,
                              0.02274996 0.0066276188 0.0024999969,
                              0.023367999 0.006529748 0.0024999969,
                              0.02274996 0.0066276188 -0.0024999969,
                              0.023367999 0.006529748 -0.0024999969,
                              0.024367981 0.0058031669 0.0024999969,
                              0.024367981 0.0058031669 -0.0024999969,
                              0.024749991 0.0046275849 0.0024999969,
                              0.024749991 0.0046275849 -0.0024999969,
                              -0.022499969 0.007377624 -0.0027999871,
                              -0.02465206 0.008245646 0.0027999871,
                              -0.024711899 0.0054362412 0.0027999871,
                              -0.02460354 0.0052740569 0.0027999871,
                              -0.024367981 0.0088031879 0.0027999871,
                              -0.0244413 0.0051656961 0.0027999871,
                              -0.024249971 0.0051276078 0.0027999871,
                              -0.02274996 0.0096275797 0.0027999871,
                              -0.02296757 0.0079639554 0.0027999871,
                              -0.023175711 0.0077030058 0.0027999871,
                              -0.02324998 0.007377624 0.0027999871,
                              -0.023367999 0.0095297089 0.0027999871,
                              -0.02266687 0.0081087938 0.0027999871,
                              -0.02233308 0.0081087938 0.0027999871,
                              -0.020249959 0.0094661107 0.0027999871,
                              -0.02174997 0.007377624 0.0027999871,
                              -0.021824241 0.0077030058 0.0027999871,
                              -0.02203238 0.0079639554 0.0027999871,
                              -0.023175711 0.0070521832 0.0027999871,
                              -0.02296757 0.006791234 0.0027999871,
                              -0.02266687 0.0066463938 0.0027999871,
                              -0.02233308 0.0066463938 0.0027999871,
                              -0.02203238 0.006791234 0.0027999871,
                              -0.021824241 0.0070521832 0.0027999871,
                              -0.020249959 0.0051276078 0.0027999871,
                              -0.022499969 0.007377624 -0.0027999871,
                              -0.024711899 0.0054362412 -0.0027999871,
                              -0.02465206 0.008245646 -0.0027999871,
                              -0.02460354 0.0052740569 -0.0027999871,
                              -0.0244413 0.0051656961 -0.0027999871,
                              -0.024367981 0.0088031879 -0.0027999871,
                              -0.023367999 0.0095297089 -0.0027999871,
                              -0.02324998 0.007377624 -0.0027999871,
                              -0.023175711 0.0077030058 -0.0027999871,
                              -0.02296757 0.0079639554 -0.0027999871,
                              -0.02274996 0.0096275797 -0.0027999871,
                              -0.02266687 0.0081087938 -0.0027999871,
                              -0.02233308 0.0081087938 -0.0027999871,
                              -0.020249959 0.0051276078 -0.0027999871,
                              -0.02174997 0.007377624 -0.0027999871,
                              -0.021824241 0.0070521832 -0.0027999871,
                              -0.02203238 0.006791234 -0.0027999871,
                              -0.02233308 0.0066463938 -0.0027999871,
                              -0.02266687 0.0066463938 -0.0027999871,
                              -0.02296757 0.006791234 -0.0027999871,
                              -0.023175711 0.0070521832 -0.0027999871,
                              -0.02203238 0.0079639554 -0.0027999871,
                              -0.021824241 0.0077030058 -0.0027999871,
                              -0.020249959 0.0094661107 -0.0027999871,
                              -0.022499969 0.007377624 -0.0027999871,
                              -0.020249959 0.0094661107 0.0027999871,
                              -0.020249959 0.0094661107 -0.0027999871,
                              -0.020249959 0.0051276078 0.0027999871,
                              -0.020249959 0.0051276078 -0.0027999871,
                              -0.022499969 0.007377624 -0.0027999871,
                              0.020249959 0.0021275871 -0.0049999952,
                              0.020249959 0.0021275871 -0.0024999969,
                              0.01444995 0.0021275871 -0.0049999952,
                              0.024249971 0.0021275871 -0.0024999969,
                              0.024249971 0.0021275871 0.0024999969,
                              0.020249959 0.0021275871 0.0024999969,
                              0.020249959 0.0021275871 0.0049999952,
                              0.01444995 0.0021275871 0.0049999952,
                              -0.022499969 0.007377624 -0.0027999871,
                              0.024749991 0.0046275849 -0.0024999969,
                              0.024749991 0.0046275849 0.0024999969,
                              0.024749991 0.0026276109 -0.0024999969,
                              0.024749991 0.0026276109 0.0024999969,
                              -0.022499969 0.007377624 -0.0027999871,
                              0.020249959 0.0066276188 -0.0024999969,
                              0.020249959 0.0066276188 0.0024999969,
                              0.02274996 0.0066276188 -0.0024999969,
                              0.02274996 0.0066276188 0.0024999969,
                              -0.022499969 0.007377624 -0.0027999871,
                              0.01144999 0.0051276078 0.0049999952,
                              0.01144999 0.003832221 0.0049999952,
                              0.01144999 0.0051276078 0.0059999819,
                              0.01144999 0.00181365 -0.0059999819,
                              0.01144999 0.003832221 -0.0049999952,
                              0.01144999 0.0051276078 -0.0049999952,
                              0.01144999 0.0051276078 -0.0059999819,
                              0.01144999 0.00181365 -0.0049999952,
                              0.01144999 0.00181365 0.0049999952,
                              0.01144999 0.00181365 0.0059999819,
                              0.01144999 -0.002707242 -0.001249969,
                              0.01144999 -0.0024102919 -0.00043412999,
                              0.01144999 -0.002707242 0.001249969,
                              0.01144999 -0.004017293 -0.0023491969,
                              0.01144999 -0.004017293 0.0023491969,
                              0.01144999 -0.0049174419 -0.0047552581,
                              0.01144999 -0.0048723221 0.0024999969,
                              0.01144999 -0.0049174419 0.0047552581,
                              0.01144999 -0.0057273498 -0.0023491969,
                              0.01144999 -0.0057273498 0.0023491969,
                              0.01144999 -0.0074173799 -0.002938926,
                              0.01144999 -0.0073343511 0.00043412001,
                              0.01144999 -0.0070374012 -0.001249969,
                              0.01144999 -0.0070374012 0.001249969,
                              0.01144999 -0.0074173799 0.002938926,
                              0.01144999 -0.0081276288 -0.001545071,
                              0.01144999 -0.0081276288 0.0015450109,
                              -0.022499969 0.007377624 -0.0027999871,
                              0.02354997 0.0043776031 0.0021999469,
                              0.023446141 0.0048328042 0.0021999469,
                              0.02354997 0.0043776031 -0.0021999469,
                              0.023446141 0.0048328042 -0.002200007,
                              0.023154849 0.005198359 0.0021999469,
                              0.023154849 0.005198359 -0.002200007,
                              0.022733681 0.0054012528 0.0021999469,
                              0.022733681 0.0054012528 -0.0021999469,
                              0.0222662 0.0054012528 0.0021999469,
                              0.0222662 0.0054012528 -0.0021999469,
                              0.0218451 0.005198359 0.0021999469,
                              0.0218451 0.005198359 -0.0021999469,
                              0.021553749 0.0048328042 0.0021999469,
                              0.021553749 0.0048328042 -0.002200007,
                              0.021449979 0.0043776031 0.0021999469,
                              0.021449979 0.0043776031 -0.0021999469,
                              -0.022499969 0.007377624 -0.0027999871,
                              0.021449979 0.0043776031 0.0021999469,
                              0.021553811 0.0039224019 0.0021999469,
                              0.021449979 0.0043776031 -0.0021999469,
                              0.021553811 0.0039224019 -0.002200007,
                              0.0218451 0.0035568471 0.0021999469,
                              0.0218451 0.0035568471 -0.002200007,
                              0.022266259 0.0033539529 0.0021999469,
                              0.022266259 0.0033539529 -0.0021999469,
                              0.022733741 0.0033539529 0.0021999469,
                              0.022733741 0.0033539529 -0.0021999469,
                              0.023154849 0.0035568471 0.0021999469,
                              0.023154849 0.0035568471 -0.0021999469,
                              0.0234462 0.0039224019 0.0021999469,
                              0.0234462 0.0039224019 -0.002200007,
                              0.02354997 0.0043776031 0.0021999469,
                              0.02354997 0.0043776031 -0.0021999469,
                              -0.022499969 0.007377624 -0.0027999871,
                              -0.02274996 0.0096275797 -0.0047044749,
                              -0.02274996 0.0096275797 -0.0027999871,
                              -0.023367999 0.0095297089 -0.0027999871,
                              -0.023367999 0.0095297089 0.0027999871,
                              -0.02274996 0.0096275797 0.0047044749,
                              -0.02274996 0.0096275797 0.0027999871,
                              -0.023426291 0.0095098009 0.0052103992,
                              -0.023426291 0.0095098009 -0.0052103992,
                              -0.024225529 0.0089777112 0.0058079362,
                              -0.024225529 0.0089777112 -0.0058079362,
                              -0.024367981 0.0088031879 -0.0027999871,
                              -0.024367981 0.0088031879 0.0027999871,
                              -0.024481891 0.008627831 0.0059542651,
                              -0.024481891 0.008627831 -0.0059542651,
                              -0.024749991 0.0076276059 -0.0059999819,
                              -0.024749991 0.0076276059 -0.0027999871,
                              -0.024749991 0.0076276059 0.0027999871,
                              -0.024749991 0.0076276059 0.0059999819,
                              -0.022499969 0.007377624 -0.0027999871,
                              -0.024249971 0.0051276078 0.0059999819,
                              -0.0244413 0.0051656961 0.0059999819,
                              -0.024249971 0.0051276078 0.0027999871,
                              -0.0244413 0.0051656961 0.0027999871,
                              -0.024249971 0.0051276078 -0.0027999871,
                              -0.0244413 0.0051656961 -0.0027999871,
                              -0.024249971 0.0051276078 -0.0059999819,
                              -0.0244413 0.0051656961 -0.0059999819,
                              -0.02460354 0.0052740569 0.0059999819,
                              -0.02460354 0.0052740569 0.0027999871,
                              -0.02460354 0.0052740569 -0.0027999871,
                              -0.02460354 0.0052740569 -0.0059999819,
                              -0.024711899 0.0054362412 0.0059999819,
                              -0.024711899 0.0054362412 0.0027999871,
                              -0.024711899 0.0054362412 -0.0027999871,
                              -0.024711899 0.0054362412 -0.0059999819,
                              -0.024749991 0.0056276321 0.0059999819,
                              -0.024749991 0.0056276321 0.0027999871,
                              -0.024749991 0.0056276321 -0.0027999871,
                              -0.024749991 0.0056276321 -0.0059999819,
                              -0.022499969 0.007377624 -0.0027999871,
                              0.024367981 0.0058031669 0.0024999969,
                              0.022499969 0.0057275891 0.0024999969,
                              0.02301681 0.0056247711 0.0024999969,
                              0.023454839 0.005331933 0.0024999969,
                              0.02465206 0.005245625 0.0024999969,
                              0.02374744 0.0048937201 0.0024999969,
                              0.02384996 0.0043776031 0.0024999969,
                              0.02374744 0.003861486 0.0024999969,
                              0.023454901 0.0034233329 0.0024999969,
                              0.02301681 0.0031304951 0.0024999969,
                              0.022499969 0.003027617 0.0024999969,
                              0.020249959 0.0021275871 0.0024999969,
                              0.0244413 0.0021656749 0.0024999969,
                              0.02460354 0.0022740359 0.0024999969,
                              0.024711899 0.00243628 0.0024999969,
                              0.021983139 0.003130435 0.0024999969,
                              0.02154511 0.0034233329 0.0024999969,
                              0.021252509 0.003861486 0.0024999969,
                              0.021149989 0.0043776031 0.0024999969,
                              0.021252509 0.0048937201 0.0024999969,
                              0.021983139 0.0056247711 0.0024999969,
                              0.023367999 0.006529748 0.0024999969,
                              0.021545051 0.005331873 0.0024999969,
                              0.020249959 0.0066276188 0.0024999969,
                              -0.022499969 0.007377624 -0.0027999871,
                              0.020249959 0.0065541859 0.0049634571,
                              0.020249959 0.0066276188 0.0024999969,
                              0.020249959 0.0063411589 0.0053816428,
                              0.020249959 0.0055911541 0.005926549,
                              0.020249959 0.0027449131 0.0059238672,
                              0.020249959 0.002420485 0.0057070851,
                              0.020249959 0.0022037621 0.0053826571,
                              0.020249959 0.0021275871 0.0024999969,
                              -0.022499969 0.007377624 -0.0027999871,
                              0.020249959 0.0021275871 -0.0024999969,
                              0.020249959 0.0022037621 -0.0053826571,
                              0.020249959 0.002420485 -0.0057070851,
                              0.020249959 0.0027449131 -0.0059238672,
                              0.020249959 0.0055911541 -0.005926549,
                              0.020249959 0.0060092802 -0.005713522,
                              0.020249959 0.0065541859 -0.0049634571,
                              0.020249959 0.0066276188 -0.0024999969,
                              -0.022499969 0.007377624 -0.0027999871,
                              0.023367999 0.006529748 -0.0024999969,
                              0.020249959 0.0066276188 -0.0024999969,
                              0.02465206 0.005245625 -0.0024999969,
                              0.023454839 0.005331933 -0.0024999969,
                              0.02301681 0.0056247711 -0.0024999969,
                              0.022499969 0.0057275891 -0.0024999969,
                              0.024367981 0.0058031669 -0.0024999969,
                              0.02374744 0.0048937201 -0.0024999969,
                              0.02384996 0.0043776031 -0.0024999969,
                              0.022499969 0.003027617 -0.0024999969,
                              0.02301681 0.0031304951 -0.0024999969,
                              0.023454901 0.0034233329 -0.0024999969,
                              0.02374744 0.003861486 -0.0024999969,
                              0.021983139 0.0056247711 -0.0024999969,
                              0.021545051 0.005331873 -0.0024999969,
                              0.021252509 0.0048937201 -0.0024999969,
                              0.021149989 0.0043776031 -0.0024999969,
                              0.021252509 0.003861486 -0.0024999969,
                              0.024711899 0.00243628 -0.0024999969,
                              0.021983139 0.003130435 -0.0024999969,
                              0.02460354 0.0022740359 -0.0024999969,
                              0.0244413 0.0021656749 -0.0024999969,
                              0.020249959 0.0021275871 -0.0024999969,
                              0.02154511 0.0034233329 -0.0024999969,
                              -0.022499969 0.007377624 -0.0027999871,
                              0.01444995 0.0031276341 -0.0059999819,
                              0.01487499 0.0043776031 -0.0059999819,
                              0.01495867 0.0040650959 -0.0059999819,
                              0.01518744 0.0038363331 -0.0059999819,
                              0.01549994 0.003752589 -0.0059999819,
                              0.015812449 0.0038363331 -0.0059999819,
                              0.01604121 0.0040650959 -0.0059999819,
                              0.01612496 0.0043776031 -0.0059999819,
                              0.020003431 0.005136251 -0.0059999819,
                              0.020249959 0.0051276078 -0.0059999819,
                              0.020249959 0.0031276341 -0.0059999819,
                              0.01144999 0.00181365 -0.0059999819,
                              0.01249998 0.0043776031 -0.0059999819,
                              0.01256698 0.0041276212 -0.0059999819,
                              0.01274996 0.0039445749 -0.0059999819,
                              0.01299995 0.0038775799 -0.0059999819,
                              0.01324999 0.0039445749 -0.0059999819,
                              0.01343297 0.0041276212 -0.0059999819,
                              0.01349997 0.0043776031 -0.0059999819,
                              0.01444995 0.00181365 -0.0059999819,
                              0.01604121 0.0046901102 -0.0059999819,
                              0.015812449 0.0049188728 -0.0059999819,
                              0.01549994 0.0050026169 -0.0059999819,
                              0.01495867 0.0046901102 -0.0059999819,
                              0.01518744 0.0049188728 -0.0059999819,
                              0.01343297 0.0046275849 -0.0059999819,
                              0.01324999 0.0048106308 -0.0059999819,
                              0.01299995 0.004877626 -0.0059999819,
                              0.01256698 0.0046275849 -0.0059999819,
                              0.01144999 0.0051276078 -0.0059999819,
                              0.01274996 0.0048106308 -0.0059999819,
                              -0.0099999905 0.006340682 -0.0059999819,
                              -0.01925098 0.0073075891 -0.0059999819,
                              -0.01929873 0.0074545741 -0.0059999819,
                              -0.019423719 0.0075453511 -0.0059999819,
                              -0.01970326 0.0074545741 -0.0059999819,
                              -0.019750951 0.0073075891 -0.0059999819,
                              -0.02174997 0.007377624 -0.0059999819,
                              -0.019578209 0.0075453511 -0.0059999819,
                              -0.0219134 0.007844924 -0.0059999819,
                              -0.02233237 0.0081086149 -0.0059999819,
                              -0.024249971 0.0051276078 -0.0059999819,
                              -0.02324998 0.007377624 -0.0059999819,
                              -0.023175711 0.0070521832 -0.0059999819,
                              -0.02296757 0.006791234 -0.0059999819,
                              -0.02266687 0.0066463938 -0.0059999819,
                              -0.02233308 0.0066463938 -0.0059999819,
                              -0.02203238 0.006791234 -0.0059999819,
                              -0.021824241 0.0070521832 -0.0059999819,
                              -0.01970326 0.0071606631 -0.0059999819,
                              -0.019578209 0.0070698261 -0.0059999819,
                              -0.019423719 0.0070698261 -0.0059999819,
                              -0.01929873 0.0071606631 -0.0059999819,
                              -0.0099999905 0.0051276078 -0.0059999819,
                              -0.023198839 0.0076497789 -0.0059999819,
                              -0.0244413 0.0051656961 -0.0059999819,
                              -0.02460354 0.0052740569 -0.0059999819,
                              -0.02464371 0.0082709193 -0.0059999819,
                              -0.023052391 0.00788486 -0.0059999819,
                              -0.02283066 0.0080507994 -0.0059999819,
                              -0.02256381 0.008124887 -0.0059999819,
                              -0.024711899 0.0054362412 -0.0059999819,
                              -0.022499969 0.007377624 -0.0027999871,
                              0.01144999 0.0051276078 0.0059999819,
                              0.0072780838 0.0051276078 0.0059999819,
                              0.01144999 0.0051276078 0.0049999952,
                              0.0072780838 0.0051276078 0.0049999952,
                              0.01144999 0.0051276078 -0.0049999952,
                              0.0072780838 0.0051276078 -0.0049999952,
                              0.01144999 0.0051276078 -0.0059999819,
                              0.0072780838 0.0051276078 -0.0059999819,
                              -0.020249959 0.0051276078 0.0027999871,
                              -0.0099999905 0.0051276078 -0.0059999819,
                              -0.024249971 0.0051276078 0.0059999819,
                              -0.0099999905 0.0051276078 0.0059999819,
                              -0.024249971 0.0051276078 0.0027999871,
                              -0.020249959 0.0051276078 -0.0027999871,
                              -0.024249971 0.0051276078 -0.0027999871,
                              -0.024249971 0.0051276078 -0.0059999819,
                              -0.022499969 0.007377624 -0.0027999871,
                              0.020249959 0.0051276078 0.0059999819,
                              0.020249959 0.0031276341 0.0059999819,
                              0.01974999 0.0043776031 0.0059999819,
                              0.01970225 0.0042306781 0.0059999819,
                              0.0195772 0.0041398401 0.0059999819,
                              0.019422701 0.0041398401 0.0059999819,
                              0.01929771 0.0042306781 0.0059999819,
                              0.01924997 0.0043776031 0.0059999819,
                              0.01612496 0.0043776031 0.0059999819,
                              0.01604121 0.0040650959 0.0059999819,
                              0.015812449 0.0038363331 0.0059999819,
                              0.01549994 0.003752589 0.0059999819,
                              0.01495867 0.0040650959 0.0059999819,
                              0.01487499 0.0043776031 0.0059999819,
                              0.01444995 0.0031276341 0.0059999819,
                              0.01518744 0.0038363331 0.0059999819,
                              0.01444995 0.00181365 0.0059999819,
                              0.01349997 0.0043776031 0.0059999819,
                              0.01343297 0.0041276212 0.0059999819,
                              0.01324999 0.0039445749 0.0059999819,
                              0.01299995 0.0038775799 0.0059999819,
                              0.01274996 0.0039445749 0.0059999819,
                              0.01256698 0.0041276212 0.0059999819,
                              0.01249998 0.0043776031 0.0059999819,
                              0.01144999 0.0051276078 0.0059999819,
                              0.01144999 0.00181365 0.0059999819,
                              -0.021572171 0.0077505698 0.0059999819,
                              -0.02149999 0.007377624 0.0059999819,
                              -0.019750951 0.0073075891 0.0059999819,
                              -0.02177822 0.0080697527 0.0059999819,
                              -0.01970326 0.0074545741 0.0059999819,
                              -0.019578209 0.0075453511 0.0059999819,
                              -0.019423719 0.0075453511 0.0059999819,
                              -0.01929873 0.0074545741 0.0059999819,
                              -0.01925098 0.0073075891 0.0059999819,
                              -0.0099999905 0.0051276078 0.0059999819,
                              -0.0099999905 0.006340682 0.0059999819,
                              0.01256698 0.0046275849 0.0059999819,
                              0.01274996 0.0048106308 0.0059999819,
                              0.01299995 0.004877626 0.0059999819,
                              0.01343297 0.0046275849 0.0059999819,
                              0.01324999 0.0048106308 0.0059999819,
                              0.01495867 0.0046901102 0.0059999819,
                              0.01518744 0.0049188728 0.0059999819,
                              0.01549994 0.0050026169 0.0059999819,
                              0.01604121 0.0046901102 0.0059999819,
                              0.015812449 0.0049188728 0.0059999819,
                              0.01929771 0.004524528 0.0059999819,
                              0.019422701 0.004615366 0.0059999819,
                              0.0195772 0.004615366 0.0059999819,
                              0.01970225 0.004524528 0.0059999819,
                              -0.01929873 0.0071606631 0.0059999819,
                              -0.019423719 0.0070698261 0.0059999819,
                              -0.019578209 0.0070698261 0.0059999819,
                              -0.01970326 0.0071606631 0.0059999819,
                              -0.021598989 0.0069437022 0.0059999819,
                              -0.02187651 0.0065957899 0.0059999819,
                              -0.022277471 0.0064026709 0.0059999819,
                              -0.022722481 0.0064026709 0.0059999819,
                              -0.02340096 0.0069437022 0.0059999819,
                              -0.02349996 0.007377624 0.0059999819,
                              -0.023123439 0.0065957899 0.0059999819,
                              -0.02464371 0.0082709193 0.0059999819,
                              -0.02460354 0.0052740569 0.0059999819,
                              -0.0244413 0.0051656961 0.0059999819,
                              -0.023399411 0.0078146448 0.0059999819,
                              -0.02311795 0.0081638088 0.0059999819,
                              -0.024711899 0.0054362412 0.0059999819,
                              -0.022499969 0.007377624 -0.0027999871,
                              -0.02274996 0.0096275797 0.0047044749,
                              -0.022589801 0.0096275797 0.0045913449,
                              -0.022549979 0.0096275797 0.0044999709,
                              -0.022549979 0.0096275797 0.0027999871,
                              -0.02274996 0.0096275797 0.0027999871,
                              -0.022549979 0.0096275797 -0.0027999871,
                              -0.022549979 0.0096275797 -0.0044999709,
                              -0.02274996 0.0096275797 -0.0027999871,
                              -0.022589801 0.0096275797 -0.0045913449,
                              -0.02274996 0.0096275797 -0.0047044749 ]

                        }
                        normal 
                        Normal {
                          vector [  ]

                        }
                        coordIndex [ 303, 302, 304, -1, 198, 197, 199, -1,
                            684, 682, 683, -1, 281, 279, 280, -1,
                            544, 542, 543, -1, 779, 778, 782, -1,
                            549, 548, 552, -1, 34, 32, 35, -1,
                            221, 219, 218, -1, 545, 543, 548, -1,
                            771, 769, 776, -1, 824, 826, 827, -1,
                            331, 330, 332, -1, 591, 590, 594, -1,
                            717, 715, 716, -1, 72, 70, 73, -1,
                            260, 258, 261, -1, 53, 51, 54, -1,
                            565, 564, 569, -1, 665, 663, 664, -1,
                            186, 184, 185, -1, 290, 289, 291, -1,
                            166, 164, 165, -1, 243, 241, 240, -1,
                            712, 713, 708, -1, 101, 99, 98, -1,
                            783, 782, 786, -1, 1001, 994, 995, -1,
                            356, 346, 355, -1, 93, 92, 90, -1,
                            475, 473, 472, -1, 550, 554, 551, -1,
                            205, 206, 204, -1, 1015, 1013, 1012, -1,
                            595, 594, 598, -1, 718, 716, 719, -1,
                            516, 505, 515, -1, 581, 580, 584, -1,
                            12, 11, 13, -1, 314, 313, 315, -1,
                            575, 573, 580, -1, 103, 102, 104, -1,
                            82, 81, 83, -1, 326, 324, 325, -1,
                            557, 556, 561, -1, 739, 738, 740, -1,
                            741, 740, 742, -1, 743, 742, 744, -1,
                            19, 17, 20, -1, 33, 31, 32, -1,
                            210, 209, 211, -1, 439, 438, 440, -1,
                            389, 387, 388, -1, 753, 754, 752, -1,
                            446, 448, 447, -1, 226, 225, 223, -1,
                            245, 243, 242, -1, 170, 169, 171, -1,
                            751, 750, 749, -1, 228, 226, 227, -1,
                            110, 108, 111, -1, 437, 436, 435, -1,
                            229, 230, 233, -1, 238, 239, 240, -1,
                            209, 210, 208, -1, 419, 418, 417, -1,
                            194, 193, 195, -1, 578, 576, 577, -1,
                            264, 263, 265, -1, 145, 137, 147, -1,
                            311, 309, 310, -1, 40, 39, 41, -1,
                            74, 73, 75, -1, 301, 300, 302, -1,
                            27, 26, 28, -1, 770, 768, 769, -1,
                            922, 920, 921, -1, 36, 35, 37, -1,
                            200, 199, 201, -1, 171, 173, 174, -1,
                            161, 159, 160, -1, 610, 609, 611, -1,
                            288, 287, 289, -1, 23, 22, 24, -1,
                            608, 606, 609, -1, 339, 342, 340, -1,
                            80, 79, 81, -1, 734, 732, 733, -1,
                            275, 274, 276, -1, 192, 190, 193, -1,
                            136, 134, 127, -1, 889, 890, 879, -1,
                            726, 725, 727, -1, 781, 780, 784, -1,
                            410, 412, 411, -1, 403, 402, 404, -1,
                            424, 426, 425, -1, 385, 384, 386, -1,
                            401, 400, 399, -1, 540, 538, 539, -1,
                            760, 765, 761, -1, 442, 444, 443, -1,
                            426, 428, 427, -1, 428, 430, 429, -1,
                            383, 382, 381, -1, 390, 392, 391, -1,
                            407, 405, 406, -1, 444, 446, 445, -1,
                            392, 394, 393, -1, 217, 214, 218, -1,
                            408, 410, 409, -1, 563, 560, 559, -1,
                            421, 420, 422, -1, 109, 107, 108, -1,
                            327, 325, 328, -1, 817, 821, 814, -1,
                            466, 470, 464, -1, 121, 120, 122, -1,
                            305, 304, 306, -1, 574, 572, 573, -1,
                            249, 247, 248, -1, 562, 561, 564, -1,
                            320, 319, 321, -1, 599, 598, 602, -1,
                            501, 498, 499, -1, 4, 2, 5, -1,
                            101, 100, 102, -1, 271, 269, 272, -1,
                            6, 5, 7, -1, 115, 117, 116, -1,
                            759, 751, 756, -1, 180, 179, 181, -1,
                            454, 452, 453, -1, 568, 563, 566, -1,
                            312, 310, 313, -1, 593, 592, 596, -1,
                            86, 85, 87, -1, 21, 20, 22, -1,
                            259, 257, 258, -1, 55, 54, 56, -1,
                            65, 64, 66, -1, 59, 58, 60, -1,
                            316, 315, 317, -1, 329, 328, 330, -1,
                            597, 596, 600, -1, 583, 582, 586, -1,
                            63, 62, 64, -1, 18, 16, 17, -1,
                            607, 605, 606, -1, 42, 41, 43, -1,
                            71, 69, 70, -1, 38, 37, 39, -1,
                            579, 577, 582, -1, 273, 272, 274, -1,
                            926, 924, 925, -1, 318, 317, 319, -1,
                            114, 112, 113, -1, 254, 252, 253, -1,
                            649, 644, 647, -1, 655, 656, 642, -1,
                            299, 298, 300, -1, 297, 295, 298, -1,
                            284, 283, 285, -1, 176, 175, 177, -1,
                            747, 745, 744, -1, 333, 332, 334, -1,
                            494, 492, 493, -1, 296, 294, 295, -1,
                            46, 45, 47, -1, 529, 530, 535, -1,
                            1008, 1009, 1010, -1, 286, 285, 287, -1,
                            57, 56, 58, -1, 76, 75, 77, -1,
                            78, 77, 79, -1, 695, 694, 698, -1,
                            95, 93, 91, -1, 739, 737, 736, -1,
                            174, 173, 175, -1, 722, 720, 719, -1,
                            490, 481, 483, -1, 366, 373, 378, -1,
                            178, 177, 179, -1, 735, 733, 736, -1,
                            191, 189, 190, -1, 555, 551, 554, -1,
                            215, 216, 214, -1, 764, 759, 762, -1,
                            119, 118, 120, -1, 760, 757, 755, -1,
                            555, 558, 559, -1, 541, 539, 546, -1,
                            25, 24, 26, -1, 455, 453, 456, -1,
                            775, 773, 778, -1, 553, 552, 556, -1,
                            774, 772, 773, -1, 270, 268, 269, -1,
                            872, 857, 876, -1, 589, 588, 592, -1,
                            486, 484, 485, -1, 95, 94, 96, -1,
                            585, 584, 588, -1, 795, 796, 803, -1,
                            832, 845, 833, -1, 459, 458, 460, -1,
                            84, 83, 85, -1, 3, 1, 2, -1,
                            99, 97, 96, -1, 623, 615, 614, -1,
                            44, 43, 45, -1, 61, 60, 62, -1,
                            882, 883, 881, -1, 119, 116, 117, -1,
                            457, 456, 458, -1, 850, 853, 843, -1,
                            8, 7, 9, -1, 10, 9, 11, -1,
                            901, 898, 913, -1, 983, 982, 984, -1,
                            929, 928, 933, -1, 370, 368, 369, -1,
                            196, 195, 197, -1, 951, 938, 948, -1,
                            730, 728, 727, -1, 479, 477, 478, -1,
                            627, 637, 628, -1, 679, 677, 678, -1,
                            335, 334, 336, -1, 587, 586, 590, -1,
                            282, 280, 283, -1, 724, 723, 725, -1,
                            156, 154, 155, -1, 722, 721, 723, -1,
                            52, 50, 51, -1, 670, 669, 673, -1,
                            506, 507, 503, -1, 262, 261, 263, -1,
                            812, 808, 811, -1, 777, 776, 780, -1,
                            305, 303, 304, -1, 200, 198, 199, -1,
                            685, 684, 683, -1, 282, 281, 280, -1,
                            545, 544, 543, -1, 783, 779, 782, -1,
                            553, 549, 552, -1, 36, 34, 35, -1,
                            220, 221, 218, -1, 549, 545, 548, -1,
                            777, 771, 776, -1, 827, 823, 824, -1,
                            823, 829, 830, -1, 829, 827, 828, -1,
                            824, 825, 826, -1, 827, 829, 823, -1,
                            333, 331, 332, -1, 595, 591, 594, -1,
                            718, 717, 716, -1, 74, 72, 73, -1,
                            262, 260, 261, -1, 55, 53, 54, -1,
                            570, 565, 569, -1, 666, 665, 664, -1,
                            187, 186, 185, -1, 292, 290, 291, -1,
                            167, 166, 165, -1, 242, 243, 240, -1,
                            709, 707, 712, -1, 713, 711, 708, -1,
                            708, 709, 712, -1, 100, 101, 98, -1,
                            787, 783, 786, -1, 1004, 1000, 1001, -1,
                            1002, 1003, 999, -1, 998, 1004, 1001, -1,
                            972, 971, 988, -1, 997, 999, 1004, -1,
                            972, 988, 989, -1, 997, 1002, 999, -1,
                            1001, 972, 989, -1, 990, 964, 992, -1,
                            1001, 989, 990, -1, 996, 997, 1004, -1,
                            990, 992, 993, -1, 998, 996, 1004, -1,
                            990, 993, 994, -1, 995, 998, 1001, -1,
                            1001, 990, 994, -1, 371, 366, 361, -1,
                            354, 355, 346, -1, 352, 344, 345, -1,
                            350, 347, 348, -1, 345, 350, 351, -1,
                            363, 371, 361, -1, 345, 347, 350, -1,
                            360, 363, 361, -1, 345, 351, 352, -1,
                            358, 360, 361, -1, 344, 352, 353, -1,
                            356, 358, 361, -1, 344, 353, 354, -1,
                            356, 355, 358, -1, 354, 346, 344, -1,
                            91, 93, 90, -1, 474, 475, 472, -1,
                            547, 546, 550, -1, 550, 551, 547, -1,
                            204, 208, 205, -1, 206, 207, 204, -1,
                            1012, 1014, 1015, -1, 1013, 1011, 1012, -1,
                            599, 595, 598, -1, 720, 718, 719, -1,
                            528, 531, 526, -1, 533, 529, 534, -1,
                            528, 526, 523, -1, 532, 533, 534, -1,
                            522, 523, 520, -1, 527, 532, 534, -1,
                            522, 520, 508, -1, 524, 527, 534, -1,
                            522, 528, 523, -1, 525, 524, 534, -1,
                            517, 508, 509, -1, 525, 521, 524, -1,
                            511, 522, 508, -1, 519, 521, 525, -1,
                            516, 509, 510, -1, 505, 519, 525, -1,
                            505, 510, 518, -1, 505, 503, 504, -1,
                            511, 512, 522, -1, 505, 504, 513, -1,
                            517, 511, 508, -1, 505, 513, 514, -1,
                            516, 517, 509, -1, 505, 514, 515, -1,
                            505, 516, 510, -1, 518, 519, 505, -1,
                            585, 581, 584, -1, 14, 12, 13, -1,
                            316, 314, 315, -1, 581, 575, 580, -1,
                            105, 103, 104, -1, 84, 82, 83, -1,
                            327, 326, 325, -1, 562, 557, 561, -1,
                            741, 739, 740, -1, 743, 741, 742, -1,
                            745, 743, 744, -1, 21, 19, 20, -1,
                            34, 33, 32, -1, 212, 210, 211, -1,
                            441, 439, 440, -1, 388, 390, 389, -1,
                            387, 386, 388, -1, 755, 753, 752, -1,
                            447, 445, 446, -1, 448, 450, 447, -1,
                            450, 448, 449, -1, 224, 227, 226, -1,
                            226, 223, 224, -1, 244, 245, 242, -1,
                            172, 170, 171, -1, 756, 751, 749, -1,
                            229, 228, 227, -1, 112, 110, 111, -1,
                            437, 438, 439, -1, 436, 434, 435, -1,
                            435, 438, 437, -1, 232, 228, 229, -1,
                            228, 235, 236, -1, 229, 233, 231, -1,
                            228, 234, 235, -1, 229, 231, 232, -1,
                            232, 234, 228, -1, 241, 238, 240, -1,
                            204, 209, 208, -1, 419, 420, 421, -1,
                            418, 416, 417, -1, 417, 420, 419, -1,
                            196, 194, 195, -1, 579, 578, 577, -1,
                            266, 264, 265, -1, 147, 151, 152, -1,
                            137, 142, 147, -1, 126, 129, 137, -1,
                            130, 131, 126, -1, 144, 146, 148, -1,
                            135, 130, 126, -1, 150, 144, 148, -1,
                            138, 135, 126, -1, 150, 148, 149, -1,
                            138, 126, 137, -1, 152, 150, 149, -1,
                            143, 138, 137, -1, 152, 149, 145, -1,
                            145, 143, 137, -1, 147, 152, 145, -1,
                            312, 311, 310, -1, 42, 40, 41, -1,
                            76, 74, 75, -1, 303, 301, 302, -1,
                            29, 27, 28, -1, 771, 770, 769, -1,
                            923, 922, 921, -1, 38, 36, 37, -1,
                            202, 200, 201, -1, 172, 171, 174, -1,
                            162, 161, 160, -1, 612, 610, 611, -1,
                            290, 288, 289, -1, 25, 23, 24, -1,
                            610, 608, 609, -1, 341, 339, 340, -1,
                            82, 80, 81, -1, 735, 734, 733, -1,
                            277, 275, 276, -1, 194, 192, 193, -1,
                            126, 131, 132, -1, 127, 125, 126, -1,
                            134, 128, 127, -1, 144, 140, 134, -1,
                            141, 146, 144, -1, 127, 126, 132, -1,
                            139, 141, 144, -1, 127, 132, 133, -1,
                            136, 139, 144, -1, 127, 133, 136, -1,
                            136, 144, 134, -1, 879, 883, 884, -1,
                            875, 881, 880, -1, 886, 870, 868, -1,
                            875, 880, 858, -1, 886, 869, 870, -1,
                            874, 858, 859, -1, 885, 869, 886, -1,
                            857, 859, 860, -1, 887, 885, 886, -1,
                            874, 875, 858, -1, 884, 887, 886, -1,
                            857, 860, 861, -1, 879, 884, 886, -1,
                            857, 874, 859, -1, 879, 886, 888, -1,
                            857, 861, 862, -1, 907, 910, 898, -1,
                            867, 857, 862, -1, 898, 893, 906, -1,
                            867, 862, 863, -1, 898, 906, 907, -1,
                            867, 863, 864, -1, 888, 910, 907, -1,
                            866, 864, 877, -1, 879, 888, 907, -1,
                            866, 877, 878, -1, 879, 907, 908, -1,
                            866, 867, 864, -1, 879, 908, 909, -1,
                            866, 878, 879, -1, 879, 891, 865, -1,
                            865, 866, 879, -1, 879, 909, 889, -1,
                            879, 890, 891, -1, 728, 726, 727, -1,
                            785, 781, 784, -1, 411, 409, 410, -1,
                            412, 414, 411, -1, 414, 412, 413, -1,
                            405, 403, 404, -1, 423, 422, 424, -1,
                            424, 425, 423, -1, 387, 385, 386, -1,
                            401, 402, 403, -1, 400, 398, 399, -1,
                            399, 402, 401, -1, 541, 540, 539, -1,
                            761, 757, 760, -1, 765, 766, 761, -1,
                            441, 440, 442, -1, 442, 443, 441, -1,
                            425, 426, 427, -1, 429, 427, 428, -1,
                            430, 432, 429, -1, 432, 430, 431, -1,
                            383, 384, 385, -1, 382, 380, 381, -1,
                            381, 384, 383, -1, 389, 390, 391, -1,
                            406, 408, 407, -1, 405, 404, 406, -1,
                            443, 444, 445, -1, 393, 391, 392, -1,
                            394, 396, 393, -1, 396, 394, 395, -1,
                            219, 217, 218, -1, 407, 408, 409, -1,
                            566, 563, 559, -1, 423, 421, 422, -1,
                            110, 109, 108, -1, 329, 327, 328, -1,
                            817, 818, 819, -1, 814, 816, 817, -1,
                            821, 815, 814, -1, 817, 820, 821, -1,
                            820, 817, 819, -1, 467, 468, 469, -1,
                            465, 463, 464, -1, 467, 469, 466, -1,
                            470, 465, 464, -1, 464, 467, 466, -1,
                            123, 121, 122, -1, 307, 305, 306, -1,
                            575, 574, 573, -1, 250, 249, 248, -1,
                            565, 562, 564, -1, 322, 320, 321, -1,
                            603, 599, 602, -1, 498, 496, 499, -1,
                            498, 501, 500, -1, 498, 497, 496, -1,
                            6, 4, 5, -1, 103, 101, 102, -1,
                            273, 271, 272, -1, 8, 6, 7, -1,
                            114, 115, 116, -1, 758, 759, 756, -1,
                            182, 180, 181, -1, 455, 454, 453, -1,
                            567, 568, 566, -1, 314, 312, 313, -1,
                            597, 593, 596, -1, 88, 86, 87, -1,
                            23, 21, 22, -1, 260, 259, 258, -1,
                            57, 55, 56, -1, 67, 65, 66, -1,
                            61, 59, 60, -1, 318, 316, 317, -1,
                            331, 329, 330, -1, 601, 597, 600, -1,
                            587, 583, 586, -1, 65, 63, 64, -1,
                            19, 18, 17, -1, 608, 607, 606, -1,
                            44, 42, 43, -1, 72, 71, 70, -1,
                            40, 38, 39, -1, 583, 579, 582, -1,
                            275, 273, 274, -1, 927, 926, 925, -1,
                            320, 318, 319, -1, 113, 115, 114, -1,
                            112, 111, 113, -1, 255, 254, 253, -1,
                            644, 649, 648, -1, 644, 646, 647, -1,
                            648, 649, 650, -1, 643, 646, 644, -1,
                            648, 650, 659, -1, 640, 646, 643, -1,
                            661, 659, 660, -1, 640, 645, 646, -1,
                            661, 648, 659, -1, 658, 645, 640, -1,
                            661, 660, 652, -1, 639, 658, 640, -1,
                            651, 652, 653, -1, 657, 658, 639, -1,
                            651, 661, 652, -1, 641, 657, 639, -1,
                            651, 653, 654, -1, 641, 642, 657, -1,
                            651, 654, 655, -1, 655, 642, 651, -1,
                            642, 656, 657, -1, 301, 299, 300, -1,
                            299, 297, 298, -1, 286, 284, 285, -1,
                            178, 176, 177, -1, 746, 747, 744, -1,
                            335, 333, 334, -1, 495, 494, 493, -1,
                            297, 296, 295, -1, 48, 46, 47, -1,
                            529, 536, 534, -1, 531, 528, 535, -1,
                            535, 536, 529, -1, 530, 531, 535, -1,
                            1006, 1007, 1008, -1, 1008, 1010, 1006, -1,
                            288, 286, 287, -1, 59, 57, 58, -1,
                            78, 76, 77, -1, 80, 78, 79, -1,
                            710, 708, 711, -1, 701, 704, 695, -1,
                            688, 696, 689, -1, 689, 687, 688, -1,
                            691, 692, 693, -1, 695, 696, 688, -1,
                            691, 693, 690, -1, 695, 688, 691, -1,
                            706, 710, 711, -1, 691, 690, 694, -1,
                            706, 711, 704, -1, 695, 691, 694, -1,
                            705, 702, 707, -1, 707, 709, 705, -1,
                            703, 706, 704, -1, 702, 705, 700, -1,
                            701, 703, 704, -1, 694, 702, 700, -1,
                            699, 701, 695, -1, 694, 700, 697, -1,
                            698, 699, 695, -1, 694, 697, 698, -1,
                            94, 95, 91, -1, 738, 739, 736, -1,
                            176, 174, 175, -1, 721, 722, 719, -1,
                            483, 489, 490, -1, 481, 482, 483, -1,
                            483, 488, 489, -1, 378, 361, 366, -1,
                            349, 350, 348, -1, 373, 366, 367, -1,
                            357, 349, 348, -1, 372, 367, 362, -1,
                            359, 357, 348, -1, 348, 362, 359, -1,
                            377, 370, 378, -1, 348, 364, 365, -1,
                            376, 377, 378, -1, 362, 365, 372, -1,
                            375, 376, 378, -1, 367, 372, 373, -1,
                            374, 375, 378, -1, 378, 373, 374, -1,
                            365, 362, 348, -1, 180, 178, 179, -1,
                            737, 735, 736, -1, 192, 191, 190, -1,
                            558, 555, 554, -1, 217, 215, 214, -1,
                            762, 763, 764, -1, 759, 758, 762, -1,
                            121, 119, 120, -1, 752, 760, 755, -1,
                            560, 555, 559, -1, 547, 541, 546, -1,
                            27, 25, 26, -1, 457, 455, 456, -1,
                            779, 775, 778, -1, 557, 553, 556, -1,
                            775, 774, 773, -1, 271, 270, 269, -1,
                            868, 870, 871, -1, 872, 876, 868, -1,
                            873, 874, 857, -1, 868, 871, 872, -1,
                            872, 873, 857, -1, 593, 589, 592, -1,
                            487, 486, 485, -1, 97, 95, 96, -1,
                            589, 585, 588, -1, 794, 793, 789, -1,
                            801, 802, 803, -1, 805, 806, 800, -1,
                            797, 801, 803, -1, 792, 789, 810, -1,
                            810, 809, 790, -1, 804, 805, 800, -1,
                            810, 790, 791, -1, 799, 804, 800, -1,
                            810, 791, 792, -1, 801, 799, 800, -1,
                            789, 792, 794, -1, 798, 799, 801, -1,
                            795, 793, 794, -1, 797, 798, 801, -1,
                            803, 793, 795, -1, 796, 797, 803, -1,
                            846, 847, 833, -1, 837, 832, 838, -1,
                            845, 846, 833, -1, 845, 832, 837, -1,
                            461, 459, 460, -1, 86, 84, 85, -1,
                            4, 3, 2, -1, 98, 99, 96, -1,
                            619, 618, 616, -1, 616, 623, 619, -1,
                            624, 620, 622, -1, 622, 617, 624, -1,
                            622, 623, 614, -1, 615, 623, 616, -1,
                            614, 617, 622, -1, 46, 44, 45, -1,
                            63, 61, 62, -1, 881, 875, 882, -1,
                            883, 879, 881, -1, 118, 119, 117, -1,
                            459, 457, 458, -1, 833, 847, 848, -1,
                            836, 837, 838, -1, 854, 848, 849, -1,
                            835, 836, 838, -1, 854, 833, 848, -1,
                            839, 835, 838, -1, 854, 849, 855, -1,
                            834, 839, 838, -1, 854, 855, 851, -1,
                            834, 840, 839, -1, 854, 851, 841, -1,
                            850, 840, 834, -1, 853, 841, 842, -1,
                            844, 840, 850, -1, 853, 854, 841, -1,
                            843, 844, 850, -1, 853, 842, 843, -1,
                            850, 852, 853, -1, 10, 8, 9, -1,
                            12, 10, 11, -1, 900, 918, 914, -1,
                            898, 912, 913, -1, 903, 893, 898, -1,
                            897, 865, 891, -1, 903, 904, 893, -1,
                            897, 891, 895, -1, 914, 917, 916, -1,
                            896, 897, 895, -1, 914, 916, 915, -1,
                            892, 896, 895, -1, 914, 915, 911, -1,
                            892, 894, 896, -1, 914, 911, 899, -1,
                            892, 893, 894, -1, 914, 899, 900, -1,
                            894, 893, 905, -1, 913, 918, 901, -1,
                            893, 904, 905, -1, 901, 918, 900, -1,
                            902, 903, 898, -1, 898, 901, 902, -1,
                            957, 962, 953, -1, 971, 972, 973, -1,
                            954, 951, 977, -1, 966, 973, 961, -1,
                            955, 951, 954, -1, 970, 971, 973, -1,
                            956, 951, 955, -1, 969, 970, 973, -1,
                            957, 951, 956, -1, 964, 990, 991, -1,
                            953, 951, 957, -1, 964, 991, 965, -1,
                            962, 957, 958, -1, 964, 965, 967, -1,
                            959, 962, 958, -1, 963, 967, 968, -1,
                            961, 962, 959, -1, 963, 964, 967, -1,
                            961, 959, 960, -1, 963, 968, 969, -1,
                            961, 960, 974, -1, 966, 969, 973, -1,
                            969, 966, 963, -1, 942, 943, 938, -1,
                            937, 966, 961, -1, 941, 942, 938, -1,
                            961, 974, 975, -1, 940, 941, 938, -1,
                            961, 975, 976, -1, 939, 938, 937, -1,
                            976, 978, 950, -1, 939, 940, 938, -1,
                            976, 950, 979, -1, 987, 939, 937, -1,
                            980, 976, 979, -1, 986, 987, 937, -1,
                            981, 976, 980, -1, 985, 986, 937, -1,
                            961, 976, 981, -1, 982, 944, 984, -1,
                            937, 961, 981, -1, 983, 984, 985, -1,
                            983, 937, 981, -1, 982, 945, 944, -1,
                            985, 937, 983, -1, 933, 935, 929, -1,
                            928, 930, 932, -1, 933, 934, 935, -1,
                            931, 930, 928, -1, 928, 929, 931, -1,
                            198, 196, 197, -1, 950, 978, 977, -1,
                            947, 938, 943, -1, 949, 977, 951, -1,
                            944, 945, 946, -1, 949, 950, 977, -1,
                            943, 946, 947, -1, 952, 949, 951, -1,
                            938, 947, 948, -1, 948, 952, 951, -1,
                            946, 943, 944, -1, 729, 730, 727, -1,
                            480, 479, 478, -1, 619, 623, 631, -1,
                            621, 622, 620, -1, 619, 631, 632, -1,
                            625, 621, 620, -1, 619, 632, 633, -1,
                            626, 625, 620, -1, 619, 633, 634, -1,
                            630, 626, 620, -1, 637, 634, 635, -1,
                            627, 630, 620, -1, 637, 619, 634, -1,
                            629, 630, 627, -1, 637, 635, 636, -1,
                            628, 629, 627, -1, 637, 636, 628, -1,
                            680, 679, 678, -1, 337, 335, 336, -1,
                            591, 587, 590, -1, 284, 282, 283, -1,
                            726, 724, 725, -1, 157, 156, 155, -1,
                            724, 722, 723, -1, 53, 52, 51, -1,
                            673, 675, 670, -1, 671, 672, 673, -1,
                            673, 674, 675, -1, 670, 668, 669, -1,
                            669, 671, 673, -1, 264, 262, 263, -1,
                            800, 806, 807, -1, 809, 810, 812, -1,
                            812, 807, 808, -1, 811, 809, 812, -1,
                            812, 800, 807, -1, 781, 777, 780 ]
                        ccw TRUE
                        solid FALSE
                        convex TRUE
                        creaseAngle 0

                      }

                    }

                }

            }

        },
          
        Group {
          children 
            Transform {
              translation 0.044999991 -0.0030000061 0
              rotation 0 0 1  0
              scale 1 1 1
              scaleOrientation 0 0 1  0

            }

        } ]

    }

}
