#VRML V2.0 utf8


Group {
  children 
    Group {
      children 
        Group {
          children 
            Transform {
              translation 0.0018890587 -0.0019104813 -0.1104373
              children 
                Transform {
                  rotation 0 0 1  0
                  children 
                    Transform {
                      rotation 0 0 1  0
                      children 
                        Transform {
                          rotation 0.99999994 0 0  1.5707979
                          children 
                            Group {
                              children 
                                Transform {
                                  translation -5.9604645e-008 -1.0430813e-007 3.2479875e-008
                                  children 
                                    Transform {
                                      rotation 0 0 1  0
                                      children 
                                        Transform {
                                          rotation 0 0 1  0
                                          children 
                                            Transform {
                                              rotation 1 0 0  1.5707959
                                              children 
                                                Shape {
                                                  appearance 
                                                  Appearance {
                                                    material 
                                                    Material {
                                                      diffuseColor 0.5 0.5 0.5

                                                    }

                                                  }
                                                  geometry 
                                                  IndexedFaceSet {
                                                    coord 
                                                    Coordinate {
                                                      point [ 0.01501739 0.01598387 -0.078855328,
                                                          0.01501739 -0.019805189 -0.078855328,
                                                          0.01600551 -0.01881706 -0.078855328,
                                                          0.01359629 0.020768341 -0.069855332,
                                                          -0.02713876 0.017090021 -0.074155331,
                                                          -0.02876693 -0.001910626 -0.07515531,
                                                          0.02251946 0.01638346 -0.07515531,
                                                          0.02336096 0.0170893 -0.074155331,
                                                          0.025988869 -0.001910626 -0.074155331,
                                                          0.003329217 0.022639031 -0.074155271,
                                                          -0.026297331 0.016384119 -0.07515531,
                                                          -0.02976691 -0.001910626 -0.074155331,
                                                          -0.01737427 -0.02458971 -0.069855332,
                                                          0.01359719 -0.02458977 -0.069855332,
                                                          0.02251929 -0.02020549 -0.07515531,
                                                          0.02498888 -0.001910626 -0.07515531,
                                                          -0.027139001 -0.020910621 -0.074155331,
                                                          0.0033284421 -0.026460521 -0.074155211,
                                                          0.02336078 -0.02091133 -0.074155331,
                                                          -0.0071071978 -0.02646034 -0.074155271,
                                                          -0.0262975 -0.02020484 -0.07515531,
                                                          0.01351821 0.0052736988 -0.08395534,
                                                          0.01013183 0.01011008 -0.08395534,
                                                          0.005295455 0.01349651 -0.08395534,
                                                          -0.00035443599 0.015629999 -0.083467059,
                                                          -0.00040739399 0.0150246 -0.08395534,
                                                          -0.0062890048 0.01451003 -0.08395534,
                                                          -0.01198846 0.01251262 -0.083467059,
                                                          -0.01163989 0.0120148 -0.08395534,
                                                          -0.018896749 0.0026465049 -0.083467059,
                                                          -0.018309711 0.0024892089 -0.08395534,
                                                          -0.017296251 -0.0090950131 -0.08395534,
                                                          -0.01390987 -0.01393139 -0.08395534,
                                                          -0.0090734949 -0.017317889 -0.08395534,
                                                          -0.0034235709 -0.01945132 -0.083467059,
                                                          -0.0033705831 -0.01884597 -0.08395534,
                                                          0.0025109639 -0.01833134 -0.08395534,
                                                          0.0078618517 -0.01583617 -0.08395534,
                                                          0.01453167 -0.0063105822 -0.08395534,
                                                          0.0026682611 -0.01891833 -0.083467059,
                                                          -0.0093303323 -0.017868631 -0.083467059,
                                                          -0.01942968 -0.0034450879 -0.083467059,
                                                          0.022259111 -0.0083811283 -0.077155352,
                                                          -0.01550483 -0.022877449 -0.077155352,
                                                          -0.016312471 0.0081885448 -0.083467059,
                                                          -0.0064462419 0.01509702 -0.083467059,
                                                          0.0055522909 0.01404726 -0.083467059,
                                                          0.01406902 0.0055305362 -0.083467059,
                                                          0.01511871 -0.0064678192 -0.083467059,
                                                          -0.0031971929 0.023055069 -0.077155352,
                                                          0.0045425892 0.022092581 -0.077155352,
                                                          -0.0108481 0.02142882 -0.077155352,
                                                          -0.0083206287 0.022092581 -0.077155352,
                                                          0.023076709 -0.00060243299 -0.077155352,
                                                          -0.02685475 -0.003218889 -0.077155352,
                                                          0.0070700641 -0.025250129 -0.077155352,
                                                          0.0045425892 -0.02591389 -0.077155352,
                                                          -0.000580783 -0.026876381 -0.077155352,
                                                          -0.0083206287 -0.02591389 -0.077155352,
                                                          -0.026037149 0.0045597549 -0.077155352,
                                                          0.01172679 0.01905614 -0.077155352,
                                                          -0.031588972 -0.01441061 0.086944692,
                                                          -0.031588972 -0.0051357741 0.1051476,
                                                          -0.031588972 0.008089303 0.1094447,
                                                          -0.031588972 0.026292199 0.1001698,
                                                          -0.031588972 0.02131444 0.1051476,
                                                          -0.031588972 -0.01011353 0.1001698,
                                                          -0.031588972 0.029488079 0.093897581,
                                                          -0.031588972 0.030589281 0.086944692,
                                                          -0.031588972 0.029488079 0.07999181,
                                                          -0.022588961 0.027735051 0.1096172,
                                                          -0.022588961 -0.02286911 0.088546991,
                                                          -0.022588961 -0.021065891 0.09747833,
                                                          -0.016088961 0.02096718 0.1151432,
                                                          -0.016088961 0.03416818 0.1037046,
                                                          -0.022588961 0.036200698 0.1000117,
                                                          -0.022588961 0.03878504 0.091277182,
                                                          -0.021588979 0.039089318 0.086944692,
                                                          -0.016088961 0.039089318 0.086944692,
                                                          -0.016088961 -0.0216549 0.095678382,
                                                          -0.016088961 -0.017596539 0.1033911,
                                                          -0.016088961 -0.01221132 0.1103729,
                                                          -0.016088961 0.02838999 0.1103729,
                                                          -0.016088961 -0.004603087 0.114678,
                                                          -0.016088961 0.003677546 0.1176291,
                                                          -0.016088961 0.01250106 0.1176291,
                                                          -0.022588961 0.038718872 0.082167499,
                                                          -0.022588961 -0.016743651 0.1055002,
                                                          -0.022588961 -0.01027619 0.1119186,
                                                          -0.022588961 0.024179511 0.1134417,
                                                          -0.022588961 -0.00078477297 0.1158634,
                                                          -0.022588961 0.0168724 0.1158912,
                                                          -0.022588961 0.0067187538 0.1179143,
                                                          0.039610978 -0.007997334 0.070858002,
                                                          0.039361 -0.01241397 0.097366512,
                                                          0.039610978 -0.01219147 0.097252302,
                                                          0.039361 0.01174819 0.1096518,
                                                          0.039610978 0.01170873 0.1094048,
                                                          0.039361 0.02435278 0.1032081,
                                                          0.039610978 0.024176 0.1030313,
                                                          0.039361 0.030796221 0.090604842,
                                                          0.039610978 0.02837014 0.076637022,
                                                          0.039610978 0.018397739 0.066664211,
                                                          0.039610978 0.0044698711 0.064484648,
                                                          0.039361 -0.002333581 0.1074475,
                                                          0.039610978 -0.00221908 0.1072251,
                                                          0.039610978 -0.0075376621 0.1025717,
                                                          0.039610978 -0.01438772 0.090457909,
                                                          0.039610978 0.00767517 0.1089902,
                                                          0.039610978 -0.01437056 0.083324313,
                                                          0.039610978 0.018494239 0.1071754,
                                                          0.039610978 -0.0023155799 0.066713981,
                                                          0.039610978 0.030549221 0.090565018,
                                                          0.039610978 0.030566391 0.083431482,
                                                          0.039610978 0.01160341 0.064467721,
                                                          0.039610978 0.02417618 0.070858471,
                                                          0.037611 0.03108733 0.087225787,
                                                          0.037611 0.02580094 0.1016173,
                                                          0.037611 0.004874527 0.1097188,
                                                          0.037611 0.01989847 0.1066814,
                                                          0.037611 -0.0087243309 0.1026381,
                                                          0.037611 0.029678579 0.094874911,
                                                          -0.032388981 0.01308929 0.051944669,
                                                          -0.02744269 -0.02461832 0.04694467,
                                                          -0.02744269 -0.02461832 0.051944669,
                                                          -0.03180122 -0.01861977 0.051944669,
                                                          0.029319821 -0.02632302 0.051944669,
                                                          0.029320121 -0.026322899 0.04694467,
                                                          0.03531849 -0.0219646 0.051944669,
                                                          0.035318669 -0.02196431 0.04694467,
                                                          -0.020388961 -0.026910661 0.051944669,
                                                          0.02561098 -0.026910661 0.051944669,
                                                          0.02561098 -0.026910661 0.04694467,
                                                          -0.032388981 -0.01491063 0.051944669,
                                                          -0.032388981 0.01308929 0.04694467,
                                                          -0.032388981 -0.01491063 0.04694467,
                                                          0.037611 -0.01491063 0.04694467,
                                                          0.037611 0.02508932 0.04694467,
                                                          -0.024098091 -0.026322899 0.051944669,
                                                          0.032664351 -0.02461856 0.051944669,
                                                          -0.03180122 -0.01861977 0.04694467,
                                                          -0.024098091 -0.026322899 0.04694467,
                                                          -0.020388961 -0.026910661 0.04694467,
                                                          0.037023239 -0.01861977 0.04694467 ]

                                                    }
                                                    normal 
                                                    Normal {
                                                      vector [  ]

                                                    }
                                                    coordIndex [ 46, 24, 50, -1, 92, 84, 85, -1,
                                                        23, 25, 24, -1, 35, 33, 38, -1,
                                                        133, 66, 62, -1, 91, 92, 85, -1,
                                                        87, 88, 62, -1, 33, 32, 38, -1,
                                                        25, 26, 45, -1, 90, 83, 84, -1,
                                                        30, 38, 32, -1, 24, 49, 50, -1,
                                                        72, 87, 66, -1, 45, 27, 51, -1,
                                                        72, 79, 80, -1, 49, 9, 50, -1,
                                                        118, 84, 83, -1, 86, 78, 49, -1,
                                                        26, 38, 30, -1, 79, 107, 94, -1,
                                                        27, 10, 51, -1, 52, 51, 86, -1,
                                                        120, 104, 83, -1, 10, 4, 51, -1,
                                                        106, 105, 104, -1, 51, 4, 86, -1,
                                                        26, 25, 38, -1, 10, 59, 4, -1,
                                                        25, 23, 38, -1, 4, 68, 86, -1,
                                                        107, 95, 94, -1, 59, 11, 4, -1,
                                                        45, 52, 49, -1, 134, 69, 4, -1,
                                                        23, 22, 38, -1, 78, 116, 113, -1,
                                                        74, 82, 119, -1, 22, 21, 38, -1,
                                                        101, 137, 113, -1, 98, 99, 112, -1,
                                                        4, 69, 68, -1, 14, 37, 38, -1,
                                                        137, 7, 113, -1, 27, 45, 26, -1,
                                                        11, 16, 135, -1, 28, 10, 27, -1,
                                                        69, 134, 68, -1, 7, 3, 113, -1,
                                                        28, 44, 10, -1, 3, 50, 113, -1,
                                                        59, 5, 11, -1, 100, 121, 98, -1,
                                                        44, 30, 10, -1, 124, 71, 61, -1,
                                                        5, 54, 11, -1, 50, 9, 113, -1,
                                                        121, 117, 98, -1, 9, 49, 78, -1,
                                                        30, 29, 10, -1, 125, 140, 123, -1,
                                                        117, 74, 98, -1, 29, 59, 10, -1,
                                                        29, 41, 54, -1, 86, 77, 78, -1,
                                                        89, 73, 82, -1, 77, 76, 78, -1,
                                                        70, 82, 74, -1, 54, 5, 59, -1,
                                                        65, 89, 70, -1, 30, 44, 28, -1,
                                                        16, 140, 135, -1, 77, 86, 76, -1,
                                                        124, 138, 71, -1, 31, 20, 54, -1,
                                                        68, 67, 76, -1, 96, 108, 97, -1,
                                                        65, 63, 91, -1, 138, 130, 71, -1,
                                                        108, 105, 106, -1, 79, 71, 130, -1,
                                                        131, 130, 142, -1, 31, 32, 20, -1,
                                                        108, 106, 95, -1, 68, 122, 67, -1,
                                                        32, 33, 20, -1, 108, 95, 107, -1,
                                                        122, 134, 135, -1, 68, 134, 122, -1,
                                                        63, 92, 91, -1, 33, 40, 20, -1,
                                                        108, 107, 109, -1, 54, 20, 16, -1,
                                                        63, 62, 90, -1, 126, 131, 132, -1,
                                                        40, 43, 20, -1, 108, 109, 93, -1,
                                                        124, 123, 141, -1, 40, 34, 58, -1,
                                                        114, 108, 111, -1, 108, 93, 111, -1,
                                                        125, 61, 133, -1, 62, 88, 90, -1,
                                                        88, 81, 83, -1, 129, 143, 109, -1,
                                                        16, 123, 140, -1, 61, 66, 133, -1,
                                                        93, 109, 143, -1, 133, 135, 140, -1,
                                                        34, 57, 58, -1, 87, 80, 81, -1,
                                                        57, 19, 58, -1, 108, 114, 102, -1,
                                                        20, 43, 16, -1, 12, 16, 58, -1,
                                                        127, 139, 126, -1, 142, 141, 12, -1,
                                                        108, 102, 115, -1, 43, 58, 16, -1,
                                                        80, 94, 120, -1, 108, 115, 101, -1,
                                                        127, 18, 139, -1, 61, 71, 72, -1,
                                                        123, 16, 12, -1, 18, 129, 139, -1,
                                                        108, 101, 113, -1, 71, 79, 72, -1,
                                                        132, 142, 19, -1, 95, 106, 120, -1,
                                                        108, 113, 112, -1, 129, 128, 139, -1,
                                                        39, 56, 57, -1, 18, 143, 129, -1,
                                                        131, 126, 107, -1, 108, 112, 99, -1,
                                                        138, 141, 142, -1, 55, 13, 17, -1,
                                                        108, 99, 110, -1, 103, 8, 114, -1,
                                                        113, 100, 112, -1, 18, 42, 8, -1,
                                                        56, 17, 57, -1, 108, 110, 97, -1,
                                                        126, 139, 107, -1, 116, 78, 100, -1,
                                                        73, 85, 96, -1, 110, 96, 97, -1,
                                                        42, 15, 8, -1, 57, 17, 132, -1,
                                                        139, 128, 107, -1, 78, 76, 100, -1,
                                                        15, 53, 8, -1, 13, 127, 132, -1,
                                                        128, 129, 107, -1, 74, 100, 76, -1,
                                                        118, 96, 85, -1, 56, 39, 55, -1,
                                                        136, 18, 8, -1, 36, 1, 55, -1,
                                                        136, 111, 93, -1, 129, 109, 107, -1,
                                                        42, 48, 53, -1, 115, 137, 101, -1,
                                                        18, 136, 143, -1, 74, 121, 100, -1,
                                                        118, 108, 96, -1, 21, 53, 48, -1,
                                                        103, 111, 136, -1, 115, 102, 137, -1,
                                                        113, 116, 100, -1, 105, 108, 118, -1,
                                                        36, 37, 1, -1, 102, 114, 137, -1,
                                                        74, 117, 121, -1, 37, 2, 1, -1,
                                                        8, 7, 137, -1, 13, 18, 127, -1,
                                                        64, 70, 75, -1, 119, 82, 73, -1,
                                                        21, 47, 53, -1, 2, 14, 1, -1,
                                                        13, 55, 18, -1, 76, 67, 75, -1,
                                                        2, 37, 14, -1, 47, 6, 53, -1,
                                                        53, 6, 7, -1, 55, 1, 18, -1,
                                                        34, 35, 36, -1, 0, 6, 21, -1,
                                                        99, 98, 110, -1, 1, 14, 18, -1,
                                                        67, 122, 64, -1, 47, 21, 6, -1,
                                                        98, 119, 110, -1, 14, 42, 18, -1,
                                                        6, 0, 7, -1, 40, 33, 35, -1,
                                                        122, 65, 64, -1, 122, 133, 63, -1,
                                                        0, 60, 7, -1, 14, 48, 42, -1,
                                                        91, 85, 73, -1, 46, 0, 22, -1,
                                                        14, 38, 48, -1, 60, 50, 7, -1,
                                                        41, 30, 31, -1, 50, 3, 7, -1,
                                                        37, 36, 38, -1, 133, 62, 63, -1,
                                                        41, 29, 30, -1, 36, 35, 38, -1,
                                                        60, 0, 50, -1, 0, 46, 50, -1,
                                                        46, 23, 24, -1, 66, 87, 62, -1,
                                                        24, 25, 45, -1, 92, 90, 84, -1,
                                                        31, 30, 32, -1, 61, 72, 66, -1,
                                                        52, 45, 51, -1, 87, 72, 80, -1,
                                                        104, 118, 83, -1, 52, 86, 49, -1,
                                                        28, 26, 30, -1, 80, 79, 94, -1,
                                                        81, 120, 83, -1, 120, 106, 104, -1,
                                                        24, 45, 49, -1, 11, 134, 4, -1,
                                                        98, 74, 119, -1, 100, 98, 112, -1,
                                                        28, 27, 26, -1, 134, 11, 135, -1,
                                                        125, 124, 61, -1, 113, 9, 78, -1,
                                                        124, 125, 123, -1, 59, 29, 54, -1,
                                                        70, 89, 82, -1, 75, 70, 74, -1,
                                                        64, 65, 70, -1, 41, 31, 54, -1,
                                                        86, 68, 76, -1, 89, 65, 91, -1,
                                                        131, 79, 130, -1, 132, 131, 142, -1,
                                                        133, 122, 135, -1, 11, 54, 16, -1,
                                                        92, 63, 90, -1, 127, 126, 132, -1,
                                                        138, 124, 141, -1, 43, 40, 58, -1,
                                                        103, 114, 111, -1, 90, 88, 83, -1,
                                                        136, 93, 143, -1, 125, 133, 140, -1,
                                                        88, 87, 81, -1, 19, 12, 58, -1,
                                                        19, 142, 12, -1, 81, 80, 120, -1,
                                                        141, 123, 12, -1, 57, 132, 19, -1,
                                                        94, 95, 120, -1, 34, 39, 57, -1,
                                                        79, 131, 107, -1, 130, 138, 142, -1,
                                                        56, 55, 17, -1, 110, 73, 96, -1,
                                                        17, 13, 132, -1, 75, 74, 76, -1,
                                                        84, 118, 85, -1, 103, 136, 8, -1,
                                                        39, 36, 55, -1, 15, 42, 53, -1,
                                                        38, 21, 48, -1, 104, 105, 118, -1,
                                                        114, 8, 137, -1, 67, 64, 75, -1,
                                                        110, 119, 73, -1, 8, 53, 7, -1,
                                                        39, 34, 36, -1, 22, 0, 21, -1,
                                                        34, 40, 35, -1, 65, 122, 63, -1,
                                                        89, 91, 73, -1, 23, 46, 22 ]
                                                    ccw TRUE
                                                    solid FALSE
                                                    convex TRUE
                                                    creaseAngle 0

                                                  }

                                                }

                                            }

                                        }

                                    }

                                }

                            }

                        }

                    }

                }

            }

        }

    }

}
