#VRML V2.0 utf8


Group {
  children 
    Group {
      children 
        Group {
          children 
            Transform {
              translation 8.248719e-008 0.057532027 0.019499974
              children 
                Transform {
                  rotation -0 -0 -1  3.1415918
                  children 
                    Transform {
                      rotation 0 0 1  0
                      children 
                        Transform {
                          rotation 1 0 0  1.5707963
                          children 
                            Group {
                              children 
                                Transform {
                                  translation 7.4505806e-008 -1.0477379e-008 5.9604645e-008
                                  children 
                                    Transform {
                                      rotation 0 0 1  0
                                      children 
                                        Transform {
                                          rotation 0 1 0  3.141592
                                          children 
                                            Transform {
                                              rotation 0.99999994 0 0  1.5707963
                                              children 
                                                Shape {
                                                  appearance 
                                                  Appearance {
                                                    material 
                                                    Material {
                                                      diffuseColor 0.5 0.5 0.5

                                                    }

                                                  }
                                                  geometry 
                                                  IndexedFaceSet {
                                                    coord 
                                                    Coordinate {
                                                      point [ -0.018067351 0.01974999 0.02495872,
                                                          -0.017915601 0.01974999 0.025075249,
                                                          0.0099440813 0.01725 0.02961879,
                                                          0.0085196486 0.01725 0.031313181,
                                                          0.0093938699 0.01725 0.03060215,
                                                          0.0074448581 0.01725 0.031651489,
                                                          -0.02077323 0.01725 0.02409046,
                                                          -0.02153486 0.01725 0.02326005,
                                                          -0.021936409 0.01725 0.022207201,
                                                          0.0046674008 0.01974999 0.0310505,
                                                          0.0044777389 0.01974999 0.03107553,
                                                          -0.015999969 0.016950009 -0.039499991,
                                                          0.015999969 0.016950009 -0.039499991,
                                                          0.03065991 -0.027049949 -0.016804449,
                                                          0.036327951 -0.027049949 -0.00053631898,
                                                          0.036327951 -0.031049959 -0.00053631898,
                                                          0.036136441 -0.031049959 0.0081386557,
                                                          0.029754341 -0.027049949 0.02414017,
                                                          0.029754341 -0.031049959 0.02414017,
                                                          0.01674067 -0.027049949 0.035434179,
                                                          0.01674067 -0.031049959 0.035434179,
                                                          0 -0.027049949 0.039499991,
                                                          -0.029754341 -0.027049949 0.02414017,
                                                          -0.029754341 -0.031049959 0.02414017,
                                                          -0.036136441 -0.031049959 0.0081386557,
                                                          -0.036327951 -0.027049949 -0.00053631898,
                                                          -0.03065991 -0.027049949 -0.016804449,
                                                          -0.03065991 -0.031049959 -0.016804449,
                                                          -0.015999969 -0.031049959 -0.039499991,
                                                          -0.01674067 -0.027049949 0.035434179,
                                                          0.023923689 -0.027049949 0.030566329,
                                                          0.033902101 -0.027049949 0.016523121,
                                                          0.036136441 -0.027049949 0.0081386557,
                                                          -0.036136441 -0.027049949 0.0081386557,
                                                          0.034467991 -0.027049949 -0.0090076318,
                                                          -0.034467991 -0.027049949 -0.0090076318,
                                                          0 -0.031049959 0.039499991,
                                                          -0.01674067 -0.031049959 0.035434179,
                                                          -0.023923689 -0.031049959 0.030566329,
                                                          0.023923689 -0.031049959 0.030566329,
                                                          -0.033902101 -0.031049959 0.016523121,
                                                          0.033902101 -0.031049959 0.016523121,
                                                          -0.036327951 -0.031049959 -0.00053631898,
                                                          0.034467991 -0.031049959 -0.0090076318,
                                                          0.03065991 -0.031049959 -0.016804449,
                                                          0.015999969 -0.031049959 -0.039499991,
                                                          -0.03231889 -0.039049979 0.019962659,
                                                          -0.02732032 -0.039049979 0.02720427,
                                                          -0.02732032 -0.035049971 0.02720427,
                                                          -0.01294291 -0.039049979 0.037128031,
                                                          -0.0043989411 -0.039049979 0.039233919,
                                                          -0.0043989411 -0.035049971 0.039233919,
                                                          0.01294291 -0.035049971 0.037128031,
                                                          0.02732032 -0.035049971 0.02720427,
                                                          0.03231889 -0.039049979 0.019962659,
                                                          0.02732032 -0.039049979 -0.021204229,
                                                          0.02732032 -0.039049979 0.02720427,
                                                          -0.020734839 -0.039049979 0.03303843,
                                                          0.01294291 -0.039049979 0.037128031,
                                                          0.0043989411 -0.039049979 0.039233919,
                                                          0.03649997 -0.039049979 0.0029999609,
                                                          0.03231889 -0.039049979 -0.01396268,
                                                          -0.02732032 -0.039049979 -0.021204229,
                                                          -0.03231889 -0.039049979 -0.01396268,
                                                          -0.03231889 -0.035049971 -0.01396268,
                                                          -0.03649997 -0.039049979 0.0029999609,
                                                          -0.03649997 -0.035049971 0.0029999609,
                                                          0 -0.048049979 0.037249979,
                                                          -0.02749997 -0.070050001 0.0029999609,
                                                          -0.02381587 -0.070050001 0.01674938,
                                                          0.02381587 -0.070050001 0.01674938,
                                                          -0.034999959 -0.048049979 0.0029999609,
                                                          -0.02619737 -0.048049979 0.026209651,
                                                          -0.01241177 -0.048049979 0.035725292,
                                                          0.02619737 -0.048049979 0.026209651,
                                                          0.030990889 -0.048049979 0.01926511,
                                                          0.034999959 -0.048049979 0.0029999609,
                                                          0.02749997 -0.070050001 0.0029999609,
                                                          0.02381587 -0.070050001 -0.01074939,
                                                          0.0071167341 -0.070050001 -0.02356308,
                                                          -0.02381587 -0.070050001 -0.01074939,
                                                          0.02619737 -0.048049979 -0.02020967,
                                                          -0.02619737 -0.048049979 -0.02020967,
                                                          0.030990889 -0.048049979 -0.01326513,
                                                          0.033983052 -0.048049979 -0.0053753252,
                                                          -0.033983052 -0.048049979 -0.0053753252,
                                                          0.033983052 -0.048049979 0.0113753,
                                                          -0.033983052 -0.048049979 0.0113753,
                                                          -0.030990889 -0.048049979 0.01926511,
                                                          0.019881841 -0.048049979 0.031804621,
                                                          0.01241177 -0.048049979 0.035725292,
                                                          -0.01691067 -0.048049979 0.03277456,
                                                          0.0042191138 -0.048049979 0.037744641,
                                                          -0.030990889 -0.048049979 -0.01326513,
                                                          0.0043989411 -0.035049971 0.039233919,
                                                          -0.01294291 -0.035049971 0.037128031,
                                                          0.020734839 -0.035049971 0.03303843,
                                                          -0.020734839 -0.035049971 0.03303843,
                                                          0.03231889 -0.035049971 0.019962659,
                                                          -0.03231889 -0.035049971 0.019962659,
                                                          0.03649997 -0.035049971 0.0029999609,
                                                          0.03231889 -0.035049971 -0.01396268,
                                                          -0.0071167341 -0.070050001 -0.02356308,
                                                          0.01374942 -0.070050001 -0.02081584,
                                                          -0.01374942 -0.070050001 -0.02081584,
                                                          0.0194453 -0.070050001 -0.01644527,
                                                          -0.0194453 -0.070050001 -0.01644527,
                                                          0.026563101 -0.070050001 -0.0041167731,
                                                          -0.026563101 -0.070050001 -0.0041167731,
                                                          0.026563101 -0.070050001 0.01011675,
                                                          -0.026563101 -0.070050001 0.01011675,
                                                          0.0194453 -0.070050001 0.022445319,
                                                          -0.0194453 -0.070050001 0.022445319,
                                                          0.0071167341 -0.070050001 0.02956306,
                                                          -0.0071167341 -0.070050001 0.02956306,
                                                          0.032806449 -0.008049964 0.0065688491,
                                                          -0.032806449 -0.008049964 0.0065688491,
                                                          -0.01331245 -0.008049964 0.033195611,
                                                          0.02456516 -0.008049964 0.02503508,
                                                          0.032806449 -0.008049964 -0.000568858,
                                                          0.031365748 -0.008049964 -0.0072557922,
                                                          0.01949393 -0.008049964 0.029626779,
                                                          -0.0067998171 -0.008049964 0.035291731,
                                                          -0.031365331 -0.008049964 0.01325708,
                                                          -0.0150038 -0.017049961 0.034620941,
                                                          -0.034886409 -0.017049961 0.000183212,
                                                          -0.007001101 -0.017049961 0.03729254,
                                                          0.00140959 -0.017049961 0.037971549,
                                                          0.034886409 -0.017049961 0.0058167572,
                                                          0.032199439 -0.017049961 -0.01071834,
                                                          0.02958148 -0.017049961 0.02170652,
                                                          0.01749998 -0.017049961 0.03331089,
                                                          -0.027980139 -0.017049961 0.024026331,
                                                          -0.032199439 -0.017049961 0.016718321,
                                                          0.0097374907 -0.01905 0.03661805,
                                                          0.03272545 -0.01905 0.01541137,
                                                          -0.03272545 -0.01905 -0.0094113937,
                                                          0.02320957 -0.01905 0.02919757,
                                                          -0.02320957 -0.01905 0.02919757,
                                                          0 0.067550004 -0.030499989,
                                                          0.006427764 0.065210521 -0.030499989,
                                                          0.0098480582 0.059286471 -0.030499989,
                                                          -0.0098480582 0.059286471 -0.030499989,
                                                          -0.008226811 0.06230044 -0.030999949,
                                                          0 0.06704998 -0.030999949,
                                                          -0.0020245309 0.06988477 -0.01299995,
                                                          -0.0090828529 0.066137731 -0.01299995,
                                                          0.01135134 0.062784068 -0.01299995,
                                                          0.01242882 0.058881581 -0.01799994,
                                                          -0.01242882 0.058881581 -0.01799994,
                                                          0.0086601973 0.06255006 -0.030499989,
                                                          0 0.070050001 -0.01349997,
                                                          0.0069090119 0.06796705 -0.01349997,
                                                          0.0080350628 0.06712532 -0.020999961,
                                                          0.01082539 0.063799731 -0.020999961,
                                                          0.01151543 0.0624125 -0.01349997,
                                                          0.0042754998 0.069296062 -0.020999961,
                                                          0 0.070050001 -0.020999961,
                                                          -0.0042754998 0.069296062 -0.020999961,
                                                          -0.0086601973 0.06255006 -0.030499989,
                                                          -0.006427764 0.065210521 -0.030499989,
                                                          0.008226811 0.06230044 -0.030999949,
                                                          0.0061057801 0.064827852 -0.030999949,
                                                          0.003248512 0.066477291 -0.030999949,
                                                          -0.003248512 0.066477291 -0.030999949,
                                                          -0.0061057801 0.064827852 -0.030999949,
                                                          -0.01135134 0.062784068 -0.01299995,
                                                          -0.01082539 0.063799731 -0.020999961,
                                                          -0.0058612819 0.068590462 -0.01299995,
                                                          0.0020245309 0.06988477 -0.01299995,
                                                          0.003608047 0.06951791 -0.01349997,
                                                          0.0058612819 0.068590462 -0.01299995,
                                                          0.0090828529 0.066137731 -0.01299995,
                                                          0.0096217394 0.065529399 -0.01349997 ]

                                                    }
                                                    normal 
                                                    Normal {
                                                      vector [  ]

                                                    }
                                                    coordIndex [ 169, 171, 170, -1, 152, 172, 153, -1,
                                                        42, 35, 63, -1, 69, 106, 104, -1,
                                                        89, 96, 58, -1, 8, 133, 132, -1,
                                                        28, 27, 26, -1, 29, 95, 126, -1,
                                                        133, 40, 22, -1, 69, 104, 102, -1,
                                                        11, 165, 164, -1, 26, 35, 11, -1,
                                                        56, 96, 89, -1, 165, 160, 164, -1,
                                                        69, 102, 79, -1, 42, 25, 35, -1,
                                                        23, 22, 40, -1, 21, 126, 95, -1,
                                                        35, 136, 11, -1, 143, 159, 160, -1,
                                                        69, 79, 103, -1, 42, 65, 66, -1,
                                                        53, 39, 96, -1, 125, 142, 11, -1,
                                                        46, 47, 23, -1, 10, 122, 126, -1,
                                                        167, 158, 160, -1, 66, 33, 25, -1,
                                                        69, 103, 105, -1, 30, 19, 96, -1,
                                                        117, 124, 126, -1, 107, 69, 105, -1,
                                                        116, 166, 149, -1, 85, 71, 65, -1,
                                                        11, 164, 144, -1, 137, 121, 30, -1,
                                                        38, 22, 23, -1, 23, 47, 48, -1,
                                                        159, 142, 167, -1, 42, 85, 65, -1,
                                                        121, 131, 30, -1, 51, 95, 49, -1,
                                                        93, 80, 108, -1, 69, 107, 77, -1,
                                                        25, 125, 136, -1, 142, 125, 167, -1,
                                                        53, 17, 30, -1, 125, 149, 167, -1,
                                                        69, 77, 109, -1, 72, 47, 46, -1,
                                                        73, 67, 50, -1, 33, 116, 125, -1,
                                                        69, 109, 70, -1, 63, 93, 85, -1,
                                                        116, 123, 8, -1, 83, 84, 107, -1,
                                                        69, 70, 111, -1, 130, 118, 30, -1,
                                                        59, 50, 67, -1, 133, 123, 116, -1,
                                                        69, 111, 113, -1, 118, 137, 30, -1,
                                                        69, 112, 72, -1, 61, 43, 84, -1,
                                                        123, 133, 8, -1, 69, 113, 114, -1,
                                                        2, 4, 121, -1, 110, 69, 88, -1,
                                                        58, 59, 92, -1, 33, 24, 40, -1,
                                                        69, 114, 112, -1, 70, 75, 74, -1,
                                                        137, 118, 121, -1, 66, 65, 24, -1,
                                                        58, 20, 19, -1, 81, 55, 61, -1,
                                                        89, 90, 113, -1, 2, 147, 4, -1,
                                                        66, 24, 33, -1, 58, 19, 52, -1,
                                                        65, 71, 87, -1, 147, 172, 4, -1,
                                                        46, 40, 24, -1, 20, 96, 19, -1,
                                                        75, 86, 54, -1, 78, 105, 81, -1,
                                                        16, 41, 54, -1, 68, 110, 87, -1,
                                                        31, 17, 98, -1, 111, 74, 89, -1,
                                                        147, 173, 172, -1, 80, 93, 82, -1,
                                                        30, 131, 19, -1, 46, 99, 40, -1,
                                                        153, 172, 173, -1, 85, 108, 68, -1,
                                                        41, 98, 54, -1, 54, 98, 18, -1,
                                                        109, 86, 75, -1, 131, 3, 19, -1,
                                                        87, 88, 46, -1, 166, 146, 167, -1,
                                                        121, 4, 3, -1, 63, 62, 82, -1,
                                                        18, 17, 53, -1, 84, 76, 77, -1,
                                                        152, 171, 172, -1, 172, 171, 3, -1,
                                                        31, 41, 16, -1, 18, 53, 56, -1,
                                                        152, 156, 171, -1, 77, 76, 86, -1,
                                                        54, 56, 74, -1, 84, 43, 60, -1,
                                                        156, 170, 171, -1, 9, 3, 171, -1,
                                                        135, 31, 32, -1, 9, 5, 3, -1,
                                                        60, 16, 86, -1, 130, 17, 31, -1,
                                                        156, 157, 169, -1, 43, 15, 60, -1,
                                                        18, 98, 17, -1, 14, 32, 100, -1,
                                                        118, 130, 135, -1, 9, 10, 5, -1,
                                                        148, 155, 115, -1, 169, 145, 10, -1,
                                                        15, 100, 60, -1, 14, 15, 43, -1,
                                                        16, 60, 100, -1, 157, 151, 169, -1,
                                                        128, 14, 119, -1, 135, 128, 115, -1,
                                                        16, 100, 32, -1, 1, 10, 145, -1,
                                                        151, 145, 169, -1, 2, 118, 115, -1,
                                                        157, 158, 145, -1, 1, 117, 122, -1,
                                                        43, 61, 101, -1, 13, 34, 43, -1,
                                                        14, 128, 32, -1, 14, 34, 120, -1,
                                                        117, 1, 124, -1, 158, 168, 145, -1,
                                                        1, 6, 124, -1, 155, 154, 147, -1,
                                                        101, 61, 44, -1, 6, 29, 124, -1,
                                                        154, 173, 147, -1, 146, 0, 1, -1,
                                                        38, 29, 138, -1, 101, 44, 13, -1,
                                                        6, 138, 29, -1, 115, 155, 147, -1,
                                                        44, 61, 45, -1, 59, 94, 36, -1,
                                                        34, 129, 120, -1, 37, 29, 38, -1,
                                                        0, 6, 1, -1, 61, 55, 45, -1,
                                                        141, 154, 120, -1, 57, 49, 37, -1,
                                                        36, 94, 21, -1, 0, 7, 6, -1,
                                                        55, 81, 45, -1, 150, 140, 153, -1,
                                                        52, 134, 21, -1, 12, 150, 141, -1,
                                                        132, 138, 6, -1, 103, 45, 81, -1,
                                                        140, 163, 156, -1, 129, 12, 141, -1,
                                                        134, 127, 21, -1, 140, 150, 161, -1,
                                                        37, 49, 95, -1, 139, 157, 156, -1,
                                                        127, 126, 21, -1, 132, 22, 138, -1,
                                                        103, 79, 45, -1, 148, 154, 155, -1,
                                                        37, 95, 29, -1, 12, 161, 150, -1,
                                                        45, 79, 102, -1, 91, 73, 49, -1,
                                                        161, 12, 162, -1, 51, 50, 36, -1,
                                                        148, 119, 154, -1, 139, 164, 158, -1,
                                                        51, 36, 21, -1, 47, 57, 38, -1,
                                                        119, 120, 154, -1, 82, 28, 104, -1,
                                                        102, 104, 28, -1, 129, 34, 12, -1,
                                                        114, 73, 91, -1, 94, 59, 58, -1,
                                                        34, 13, 12, -1, 164, 160, 158, -1,
                                                        45, 12, 13, -1, 141, 150, 154, -1,
                                                        57, 97, 38, -1, 72, 91, 57, -1,
                                                        146, 168, 158, -1, 82, 62, 28, -1,
                                                        114, 67, 73, -1, 12, 45, 28, -1,
                                                        62, 63, 28, -1, 113, 92, 67, -1,
                                                        52, 19, 134, -1, 72, 112, 91, -1,
                                                        63, 27, 28, -1, 162, 163, 140, -1,
                                                        3, 5, 134, -1, 64, 35, 26, -1,
                                                        144, 139, 163, -1, 69, 110, 68, -1,
                                                        27, 63, 64, -1, 166, 7, 146, -1,
                                                        142, 159, 11, -1, 69, 68, 108, -1,
                                                        10, 126, 127, -1, 162, 12, 163, -1,
                                                        113, 90, 92, -1, 159, 143, 11, -1,
                                                        5, 127, 134, -1, 7, 0, 146, -1,
                                                        12, 144, 163, -1, 69, 108, 80, -1,
                                                        166, 8, 7, -1, 143, 165, 11, -1,
                                                        69, 80, 106, -1, 64, 63, 35, -1,
                                                        144, 164, 139, -1, 96, 20, 58, -1,
                                                        156, 152, 153, -1, 85, 42, 63, -1,
                                                        90, 89, 58, -1, 7, 8, 132, -1,
                                                        11, 28, 26, -1, 124, 29, 126, -1,
                                                        132, 133, 22, -1, 74, 56, 89, -1,
                                                        99, 23, 40, -1, 51, 21, 95, -1,
                                                        165, 143, 160, -1, 56, 53, 96, -1,
                                                        136, 125, 11, -1, 99, 46, 23, -1,
                                                        159, 167, 160, -1, 42, 66, 25, -1,
                                                        39, 30, 96, -1, 122, 117, 126, -1,
                                                        78, 107, 105, -1, 125, 116, 149, -1,
                                                        12, 11, 144, -1, 48, 38, 23, -1,
                                                        50, 51, 49, -1, 85, 93, 108, -1,
                                                        35, 25, 136, -1, 39, 53, 30, -1,
                                                        88, 72, 46, -1, 49, 73, 50, -1,
                                                        25, 33, 125, -1, 166, 116, 8, -1,
                                                        78, 83, 107, -1, 17, 130, 30, -1,
                                                        92, 59, 67, -1, 33, 133, 116, -1,
                                                        88, 69, 72, -1, 83, 61, 84, -1,
                                                        118, 2, 121, -1, 87, 110, 88, -1,
                                                        90, 58, 92, -1, 133, 33, 40, -1,
                                                        111, 70, 74, -1, 83, 81, 61, -1,
                                                        111, 89, 113, -1, 24, 65, 87, -1,
                                                        87, 46, 24, -1, 83, 78, 81, -1,
                                                        86, 16, 54, -1, 71, 68, 87, -1,
                                                        41, 31, 98, -1, 106, 80, 82, -1,
                                                        154, 153, 173, -1, 71, 85, 68, -1,
                                                        56, 54, 18, -1, 70, 109, 75, -1,
                                                        149, 166, 167, -1, 131, 121, 3, -1,
                                                        93, 63, 82, -1, 107, 84, 77, -1,
                                                        4, 172, 3, -1, 32, 31, 16, -1,
                                                        109, 77, 86, -1, 75, 54, 74, -1,
                                                        76, 84, 60, -1, 169, 9, 171, -1,
                                                        128, 135, 32, -1, 76, 60, 86, -1,
                                                        135, 130, 31, -1, 170, 156, 169, -1,
                                                        15, 14, 100, -1, 115, 118, 135, -1,
                                                        119, 148, 115, -1, 9, 169, 10, -1,
                                                        34, 14, 43, -1, 115, 128, 119, -1,
                                                        168, 1, 145, -1, 147, 2, 115, -1,
                                                        151, 157, 145, -1, 10, 1, 122, -1,
                                                        101, 13, 43, -1, 119, 14, 120, -1,
                                                        168, 146, 1, -1, 22, 38, 138, -1,
                                                        50, 59, 36, -1, 97, 37, 38, -1,
                                                        129, 141, 120, -1, 97, 57, 37, -1,
                                                        154, 150, 153, -1, 94, 52, 21, -1,
                                                        7, 132, 6, -1, 105, 103, 81, -1,
                                                        153, 140, 156, -1, 162, 140, 161, -1,
                                                        163, 139, 156, -1, 28, 45, 102, -1,
                                                        57, 91, 49, -1, 157, 139, 158, -1,
                                                        48, 47, 38, -1, 106, 82, 104, -1,
                                                        112, 114, 91, -1, 52, 94, 58, -1,
                                                        44, 45, 13, -1, 47, 72, 57, -1,
                                                        167, 146, 158, -1, 11, 12, 28, -1,
                                                        114, 113, 67, -1, 19, 3, 134, -1,
                                                        27, 64, 26, -1, 5, 10, 127 ]
                                                    ccw TRUE
                                                    solid FALSE
                                                    convex TRUE
                                                    creaseAngle 0

                                                  }

                                                }

                                            }

                                        }

                                    }

                                }

                            }

                        }

                    }

                }

            }

        }

    }

}
