#VRML V2.0 utf8


Group {
  children 
    Group {
      children 
        Group {
          children 
            Transform {
              translation -0.0015000121 -1.7371398e-005 0.049243167
              children 
                Transform {
                  rotation -0 -0 -0.99999994  1.5707963
                  children 
                    Transform {
                      rotation 0 1 0  2.8797932
                      children 
                        Transform {
                          rotation -1.0000012 -0 -0  0.26179901
                          children 
                            Group {
                              children 
                                Transform {
                                  translation 5.9604645e-008 1.1175871e-008 -1.4901161e-007
                                  children 
                                    Transform {
                                      rotation 0 0 1.0000001  1.5707965
                                      children 
                                        Transform {
                                          rotation 0 1 0  2.8797932
                                          children 
                                            Transform {
                                              rotation -1.0000005 -0 -0  0.26179811
                                              children 
                                                Shape {
                                                  appearance 
                                                  Appearance {
                                                    material 
                                                    Material {
                                                      diffuseColor 0.5 0.5 0.5

                                                    }

                                                  }
                                                  geometry 
                                                  IndexedFaceSet {
                                                    coord 
                                                    Coordinate {
                                                      point [ -0.034507331 -0.024249971 0.016761361,
                                                          -0.034507331 -0.0062997928 0.040178768,
                                                          -0.034507331 -0.02105015 0.028800961,
                                                          0.0295 0.02399998 -0.02323859,
                                                          0.0295 -0.02399998 -0.02323859,
                                                          0.03420138 -0.02247256 -0.019238589,
                                                          0.03420138 0.02247262 -0.019238589,
                                                          0.035972591 -0.020701399 -0.019238589,
                                                          0.035972591 0.020701399 -0.019238589,
                                                          0.0325092 0.0081496825 -0.0437386,
                                                          0.035350379 0.01099103 -0.0437386,
                                                          0.036274191 0.01060819 -0.042738609,
                                                          0.035350379 0.01500892 -0.0437386,
                                                          0.030499989 0.018249979 -0.0437386,
                                                          0.030499989 0.01924997 -0.042738609,
                                                          0.034919381 0.0085805655 -0.042738609,
                                                          0.036749952 0.01299995 -0.042738609,
                                                          0.036274191 0.01539176 -0.042738609,
                                                          0.034919381 0.01741939 -0.042738609,
                                                          0.03289175 0.01877421 -0.042738609,
                                                          0.0256496 0.01099103 -0.0437386,
                                                          0.0256496 0.01500892 -0.0437386,
                                                          0.02678751 0.01671212 -0.0437386,
                                                          0.02849072 0.0081496825 -0.0437386,
                                                          0.0325092 0.01785027 -0.0437386,
                                                          0.03421241 0.01671212 -0.0437386,
                                                          0.03421241 0.0092878342 -0.0437386,
                                                          0.035749909 0.01299995 -0.0437386,
                                                          0.02849072 0.01785027 -0.0437386,
                                                          0.02810817 0.01877421 -0.042738609,
                                                          0.02525001 0.01299995 -0.0437386,
                                                          0.02678751 0.0092878342 -0.0437386,
                                                          0.030499989 0.0077499738 -0.0437386,
                                                          0.033199959 0.0058233729 0.038494639,
                                                          0.033199959 -0.02173328 0.02258479,
                                                          0.033199959 -0.015909851 0.032671269,
                                                          0.033199959 0.02173328 0.02258479,
                                                          0.033199959 0.01590991 0.032671269,
                                                          0.033199959 -0.0058233729 0.038494639,
                                                          0.024199961 -0.0077645178 0.045739111,
                                                          0.024199961 0.019437671 0.039612468,
                                                          0.024199961 0.02783042 0.0279625,
                                                          0.024199961 -0.028259089 0.02683216,
                                                          0.024199961 -0.02502751 0.03330284,
                                                          0.024199961 0.02434122 0.034297042,
                                                          0.024199961 0.029702419 0.020976121,
                                                          0.024199961 0.01340371 0.043600488,
                                                          0.024199961 -0.00060380698 0.046755251,
                                                          0.024199961 -0.01447397 0.043038718,
                                                          0.02319997 0.030999949 0.016761361,
                                                          0.02319997 -0.030999949 0.016761361,
                                                          0.02319997 -0.030098669 0.024181239,
                                                          0.02319997 -0.023204381 0.037317451,
                                                          0.02319997 -0.0176087 0.042274531,
                                                          0.02319997 -0.003737926 0.047535062,
                                                          0.02319997 0.003737926 0.047535062,
                                                          0.02319997 0.0176087 0.042274531,
                                                          0.02319997 0.030098669 0.024181239,
                                                          0.02319997 0.030575451 0.01164919,
                                                          0.02319997 -0.030575451 0.01164919,
                                                          0.02319997 -0.02744925 0.031166909,
                                                          0.02319997 0.023204381 0.037317451,
                                                          0.02319997 0.01099288 0.045746502,
                                                          0.01269996 -0.02859294 0.029977789,
                                                          0.017199989 -0.031459801 0.01517468,
                                                          0.017199989 -0.02459996 0.036435541,
                                                          0.017199989 -0.019175939 0.041751981,
                                                          0.017199989 -0.01263684 0.045615189,
                                                          0.017199989 0.0022174709 0.048183199,
                                                          0.017199989 0.031459801 0.018348031,
                                                          0.017199989 0.03092503 0.01077073,
                                                          0.01369994 0.03016614 0.025830381,
                                                          0.017199989 0.027120469 0.032783981,
                                                          0.017199989 0.022495979 0.038810719,
                                                          0.017199989 0.0096749663 0.046738561,
                                                          0.017199989 -0.03092503 0.02275198,
                                                          -0.0017999409 0.005935132 0.047951572,
                                                          -0.0017999409 -0.0084115863 0.04815387,
                                                          -0.0017999409 0.01299649 0.046549611,
                                                          -0.0017999409 -0.03193336 0.02280348,
                                                          -0.0017999409 0.02463406 0.037960701,
                                                          -0.0017999409 0.02811789 0.031506769,
                                                          -0.0017999409 -0.031723429 0.01547145,
                                                          -0.0017999409 0.031723429 0.018051259,
                                                          -0.0017999409 0.03193336 0.01071923,
                                                          -0.004799962 0.03193336 0.01071923,
                                                          -0.004799962 -0.031392571 0.0083497157,
                                                          -0.004799962 0.031392571 0.02517294,
                                                          -0.004799962 -0.02978819 0.02975779,
                                                          -0.004799962 0.019299081 0.042910751,
                                                          -0.004799962 -0.02119928 0.041395418,
                                                          -0.004799962 -0.001215159 0.049238618,
                                                          -0.0017999409 0.031392571 0.02517294,
                                                          -0.004799962 0.02463406 0.037960701,
                                                          -0.004799962 0.01299649 0.046549611,
                                                          -0.0017999409 -0.001215159 0.049238618,
                                                          -0.004799962 -0.01518619 0.045495089,
                                                          -0.0017999409 -0.01518619 0.045495089,
                                                          -0.004799962 -0.02614939 0.036060508,
                                                          -0.0017999409 -0.02614939 0.036060508,
                                                          -0.004799962 -0.03193336 0.02280348,
                                                          -0.0017999409 -0.031392571 0.0083497157,
                                                          -0.037499961 0.0062760711 -0.0066623678,
                                                          -0.037499961 -0.006276547 -0.006662189,
                                                          -0.037499961 -0.02342361 0.01048475,
                                                          -0.037499961 -0.017147301 0.033908661,
                                                          -0.037499961 -0.01212477 0.037762519,
                                                          -0.037499961 0.01212507 0.03776234,
                                                          -0.037499961 0.021000979 0.02888643,
                                                          -0.037499961 0.02100116 0.0046365261,
                                                          -0.037499961 0.017147301 -0.00038596601,
                                                          -0.037499961 -0.01212507 -0.0042396178,
                                                          -0.037499961 -0.017147301 -0.00038594799,
                                                          -0.037499961 -2.68337e-007 -0.0074886079,
                                                          -0.037499961 -0.023423729 0.02303743,
                                                          -0.037499961 0.01212483 -0.0042397971,
                                                          -0.037499961 0.023423729 0.01048523,
                                                          -0.037499961 2.7239699e-007 0.04101133,
                                                          -0.037499961 0.024249971 0.016761599,
                                                          -0.037499961 0.006276547 0.040184971,
                                                          -0.037499961 0.02342361 0.02303791,
                                                          -0.037499961 0.017147301 0.033908661,
                                                          -0.0051381579 0.0171175 -0.03523862,
                                                          -0.01320952 -0.01300513 -0.03523862,
                                                          -0.018617511 -0.0036381481 -0.03523862,
                                                          -0.017486811 0.0071182838 -0.03523862,
                                                          -0.01024997 0.01515543 -0.03523862,
                                                          -0.031499978 -0.02399998 -0.02323859,
                                                          -0.031499978 0.02399998 -0.02323859,
                                                          0.035971761 0.02070242 -0.02323859,
                                                          0.037499961 0.015999969 -0.02323859,
                                                          0.035971761 -0.02070242 -0.02323859,
                                                          0.031972758 -0.023608141 -0.02323859,
                                                          0.037499961 -0.015999969 -0.02323859,
                                                          0.037499961 -0.015999969 -0.019238589,
                                                          0.037499961 0.015999969 -0.019238589,
                                                          0.03710812 0.018472729 -0.019238589,
                                                          0.03710812 -0.018472729 -0.019238589,
                                                          0.03710812 -0.018472729 -0.02323859,
                                                          0.03710812 0.018472729 -0.02323859,
                                                          0.034202449 0.02247178 -0.02323859,
                                                          0.031972758 0.023608141 -0.02323859 ]

                                                    }
                                                    normal 
                                                    Normal {
                                                      vector [  ]

                                                    }
                                                    coordIndex [ 14, 3, 141, -1, 87, 92, 83, -1,
                                                        127, 123, 4, -1, 53, 39, 54, -1,
                                                        47, 54, 39, -1, 30, 20, 123, -1,
                                                        48, 35, 38, -1, 53, 48, 39, -1,
                                                        13, 14, 19, -1, 81, 92, 87, -1,
                                                        20, 31, 123, -1, 67, 97, 53, -1,
                                                        29, 14, 13, -1, 31, 23, 123, -1,
                                                        97, 66, 53, -1, 48, 53, 35, -1,
                                                        71, 92, 81, -1, 66, 65, 52, -1,
                                                        23, 32, 123, -1, 85, 128, 118, -1,
                                                        29, 128, 14, -1, 53, 52, 35, -1,
                                                        127, 124, 123, -1, 80, 61, 72, -1,
                                                        52, 43, 35, -1, 34, 35, 43, -1,
                                                        29, 28, 128, -1, 118, 120, 87, -1,
                                                        65, 60, 52, -1, 89, 56, 73, -1,
                                                        93, 89, 80, -1, 28, 122, 128, -1,
                                                        60, 43, 52, -1, 65, 99, 88, -1,
                                                        122, 126, 128, -1, 108, 93, 87, -1,
                                                        121, 89, 93, -1, 60, 42, 34, -1,
                                                        81, 93, 80, -1, 126, 125, 128, -1,
                                                        88, 63, 60, -1, 42, 51, 34, -1,
                                                        94, 78, 89, -1, 125, 124, 128, -1,
                                                        63, 51, 60, -1, 51, 50, 34, -1,
                                                        7, 34, 50, -1, 124, 127, 128, -1,
                                                        51, 42, 60, -1, 91, 95, 76, -1,
                                                        121, 107, 89, -1, 127, 113, 128, -1,
                                                        107, 119, 94, -1, 133, 16, 130, -1,
                                                        113, 102, 128, -1, 75, 64, 50, -1,
                                                        10, 27, 16, -1, 119, 117, 91, -1,
                                                        134, 130, 135, -1, 94, 76, 78, -1,
                                                        102, 115, 128, -1, 63, 88, 51, -1,
                                                        12, 17, 16, -1, 76, 68, 74, -1,
                                                        135, 130, 139, -1, 115, 110, 128, -1,
                                                        130, 16, 17, -1, 88, 75, 51, -1,
                                                        108, 120, 118, -1, 36, 37, 135, -1,
                                                        110, 109, 128, -1, 108, 118, 116, -1,
                                                        76, 95, 68, -1, 138, 11, 16, -1,
                                                        109, 116, 128, -1, 64, 59, 50, -1,
                                                        18, 129, 139, -1, 108, 116, 109, -1,
                                                        9, 26, 131, -1, 8, 129, 140, -1,
                                                        116, 118, 128, -1, 59, 132, 50, -1,
                                                        108, 109, 110, -1, 26, 15, 131, -1,
                                                        33, 134, 135, -1, 131, 7, 5, -1,
                                                        132, 5, 50, -1, 108, 110, 115, -1,
                                                        33, 38, 134, -1, 91, 77, 95, -1,
                                                        70, 69, 49, -1, 108, 115, 102, -1,
                                                        26, 10, 11, -1, 112, 127, 104, -1,
                                                        134, 137, 138, -1, 108, 102, 113, -1,
                                                        1, 77, 91, -1, 96, 77, 1, -1,
                                                        112, 111, 127, -1, 108, 113, 103, -1,
                                                        69, 57, 49, -1, 104, 108, 111, -1,
                                                        111, 103, 127, -1, 108, 103, 111, -1,
                                                        57, 45, 49, -1, 38, 35, 134, -1,
                                                        96, 97, 77, -1, 103, 113, 127, -1,
                                                        131, 15, 11, -1, 67, 54, 77, -1,
                                                        6, 140, 49, -1, 30, 124, 125, -1,
                                                        34, 137, 134, -1, 90, 65, 66, -1,
                                                        10, 26, 9, -1, 140, 141, 49, -1,
                                                        96, 90, 97, -1, 10, 9, 32, -1,
                                                        108, 104, 114, -1, 141, 58, 49, -1,
                                                        92, 57, 69, -1, 22, 126, 28, -1,
                                                        10, 32, 23, -1, 108, 114, 105, -1,
                                                        8, 136, 139, -1, 126, 122, 28, -1,
                                                        10, 23, 31, -1, 108, 105, 106, -1,
                                                        92, 71, 57, -1, 90, 99, 65, -1,
                                                        22, 125, 126, -1, 21, 10, 20, -1,
                                                        10, 31, 20, -1, 108, 106, 117, -1,
                                                        71, 72, 57, -1, 98, 88, 99, -1,
                                                        22, 21, 125, -1, 2, 88, 98, -1,
                                                        108, 117, 119, -1, 72, 61, 57, -1,
                                                        90, 98, 99, -1, 8, 36, 136, -1,
                                                        108, 119, 107, -1, 61, 41, 57, -1,
                                                        49, 45, 36, -1, 28, 10, 21, -1,
                                                        100, 88, 2, -1, 108, 107, 121, -1,
                                                        61, 44, 41, -1, 41, 36, 45, -1,
                                                        44, 37, 36, -1, 80, 73, 61, -1,
                                                        10, 28, 13, -1, 73, 56, 61, -1,
                                                        100, 79, 88, -1, 82, 64, 75, -1,
                                                        10, 13, 24, -1, 117, 106, 1, -1,
                                                        56, 40, 61, -1, 79, 75, 88, -1,
                                                        10, 24, 25, -1, 49, 36, 8, -1,
                                                        106, 105, 90, -1, 10, 25, 12, -1,
                                                        78, 62, 56, -1, 101, 59, 64, -1,
                                                        40, 37, 44, -1, 10, 12, 27, -1,
                                                        25, 18, 17, -1, 105, 98, 90, -1,
                                                        62, 46, 56, -1, 4, 132, 59, -1,
                                                        56, 33, 37, -1, 74, 68, 55, -1,
                                                        105, 114, 2, -1, 78, 74, 62, -1,
                                                        104, 0, 114, -1, 32, 132, 4, -1,
                                                        19, 140, 129, -1, 3, 70, 58, -1,
                                                        56, 46, 33, -1, 0, 100, 114, -1,
                                                        46, 62, 33, -1, 86, 100, 104, -1,
                                                        0, 104, 100, -1, 32, 9, 132, -1,
                                                        68, 54, 55, -1, 62, 55, 33, -1,
                                                        47, 38, 33, -1, 54, 47, 55, -1,
                                                        83, 69, 70, -1, 18, 25, 24, -1,
                                                        84, 70, 3, -1, 86, 101, 82, -1,
                                                        138, 137, 7, -1, 131, 11, 138, -1,
                                                        77, 54, 68, -1, 82, 79, 100, -1,
                                                        14, 128, 3, -1, 34, 7, 137, -1,
                                                        128, 85, 84, -1, 86, 127, 4, -1,
                                                        138, 16, 133, -1, 19, 141, 140, -1,
                                                        86, 4, 101, -1, 67, 53, 54, -1,
                                                        85, 83, 84, -1, 19, 14, 141, -1,
                                                        85, 87, 83, -1, 38, 47, 39, -1,
                                                        124, 30, 123, -1, 39, 48, 38, -1,
                                                        24, 13, 19, -1, 93, 81, 87, -1,
                                                        28, 29, 13, -1, 72, 71, 81, -1,
                                                        53, 66, 52, -1, 87, 85, 118, -1,
                                                        81, 80, 72, -1, 60, 34, 43, -1,
                                                        80, 89, 73, -1, 60, 65, 88, -1,
                                                        120, 108, 87, -1, 108, 121, 93, -1,
                                                        5, 7, 50, -1, 94, 91, 76, -1,
                                                        89, 107, 94, -1, 134, 133, 130, -1,
                                                        51, 75, 50, -1, 11, 10, 16, -1,
                                                        94, 119, 91, -1, 27, 12, 16, -1,
                                                        78, 76, 74, -1, 136, 135, 139, -1,
                                                        139, 130, 17, -1, 136, 36, 135, -1,
                                                        17, 18, 139, -1, 132, 9, 131, -1,
                                                        6, 8, 140, -1, 37, 33, 135, -1,
                                                        132, 131, 5, -1, 58, 70, 49, -1,
                                                        15, 26, 11, -1, 133, 134, 138, -1,
                                                        117, 1, 91, -1, 106, 96, 1, -1,
                                                        112, 104, 111, -1, 97, 67, 77, -1,
                                                        21, 30, 125, -1, 35, 34, 134, -1,
                                                        97, 90, 66, -1, 83, 92, 69, -1,
                                                        129, 8, 139, -1, 30, 21, 20, -1,
                                                        105, 2, 98, -1, 22, 28, 21, -1,
                                                        114, 100, 2, -1, 57, 41, 45, -1,
                                                        41, 44, 36, -1, 79, 82, 75, -1,
                                                        6, 49, 8, -1, 96, 106, 90, -1,
                                                        89, 78, 56, -1, 82, 101, 64, -1,
                                                        61, 40, 44, -1, 12, 25, 17, -1,
                                                        101, 4, 59, -1, 40, 56, 37, -1,
                                                        62, 74, 55, -1, 123, 32, 4, -1,
                                                        18, 19, 129, -1, 141, 3, 58, -1,
                                                        127, 86, 104, -1, 55, 47, 33, -1,
                                                        84, 83, 70, -1, 19, 18, 24, -1,
                                                        128, 84, 3, -1, 100, 86, 82, -1,
                                                        131, 138, 7, -1, 95, 77, 68 ]
                                                    ccw TRUE
                                                    solid FALSE
                                                    convex TRUE
                                                    creaseAngle 0

                                                  }

                                                }

                                            }

                                        }

                                    }

                                }

                            }

                        }

                    }

                }

            }

        }

    }

}
