#VRML V2.0 utf8


Group {
  children 
    Group {
      children [ 
        Group {
          children 
            Transform {
              translation -0.25364456 0.19125012 -0.01837643
              rotation 0.59342605 0.59342629 -0.54377466  4.1376953
              scale 1 1.0000001 1
              scaleOrientation 0.91360331 -1.8503213e-006 -0.40650567  0.064437412
              children 
                Transform {
                  translation -0.19675 0.0080421157 -0.27396691
                  rotation 0.5935185 0.59351832 -0.54357314  2.1458004
                  scale 0.9999997 1 0.9999997
                  scaleOrientation 0.89502615 2.0156135e-006 0.44676468  0.029572543
                  children 
                    Shape {
                      appearance 
                      Appearance {
                        material 
                        Material {
                          diffuseColor 0.48188239 0.48188239 0.48188239

                        }

                      }
                      geometry 
                      IndexedFaceSet {
                        coord 
                        Coordinate {
                          point [ -0.019999981 0.0054999581 0.0024999969,
                              -0.0073999758 -0.0037499659 -0.00149995,
                              -0.0055999751 -0.0037499659 -0.00149995,
                              -0.0073999758 -0.0046316381 -0.00121349,
                              -0.0055999751 -0.0046316381 -0.00121349,
                              -0.0073999758 -0.0049635172 -0.00088166998,
                              -0.0055999751 -0.0049635172 -0.00088166998,
                              -0.0073999758 -0.0052499771 0,
                              -0.0055999751 -0.0052499771 0,
                              -0.0073999758 -0.0049635172 0.00088168,
                              -0.0055999751 -0.0049635172 0.00088168,
                              -0.0073999758 -0.004213511 0.001426577,
                              -0.0055999751 -0.004213511 0.001426577,
                              -0.0073999758 -0.0037499659 0.00149995,
                              -0.0055999751 -0.0037499659 0.00149995,
                              -0.019999981 0.0054999581 0.0024999969,
                              -0.0055999751 -0.0037499659 -0.00149995,
                              -0.0054999581 -0.0037499659 -0.001599967,
                              -0.0055999751 -0.0046316381 -0.00121349,
                              -0.0054999581 -0.0046914211 -0.001293659,
                              -0.0054999581 -0.0052710171 -0.00049609999,
                              -0.0055999751 -0.0051765442 -0.00046352,
                              -0.0055999751 -0.0051765442 0.00046353001,
                              -0.0054999581 -0.0052710171 0.00049611001,
                              -0.0055999751 -0.0046316381 0.00121349,
                              -0.0054999581 -0.0046914211 0.001293659,
                              -0.0055999751 -0.0037499659 0.00149995,
                              -0.0054999581 -0.0037499659 0.001599967,
                              -0.019999981 0.0054999581 0.0024999969,
                              -0.0055999751 -0.0037499659 0.00149995,
                              -0.0054999581 -0.0037499659 0.001599967,
                              -0.0055999751 -0.002868294 0.00121349,
                              -0.0054999581 -0.002808511 0.001293659,
                              -0.0054999581 -0.002228915 0.00049611001,
                              -0.0055999751 -0.0023233891 0.00046353001,
                              -0.0055999751 -0.0023233891 -0.00046352,
                              -0.0054999581 -0.002228915 -0.00049609999,
                              -0.0055999751 -0.002868294 -0.00121349,
                              -0.0054999581 -0.002808511 -0.001293659,
                              -0.0055999751 -0.0037499659 -0.00149995,
                              -0.0054999581 -0.0037499659 -0.001599967,
                              -0.019999981 0.0054999581 0.0024999969,
                              -0.0073999758 -0.0037499659 0.00149995,
                              -0.0055999751 -0.0037499659 0.00149995,
                              -0.0073999758 -0.002868294 0.00121349,
                              -0.0055999751 -0.002868294 0.00121349,
                              -0.0073999758 -0.0023233891 0.00046353001,
                              -0.0055999751 -0.0023233891 0.00046353001,
                              -0.0073999758 -0.0023233891 -0.00046352,
                              -0.0055999751 -0.0023233891 -0.00046352,
                              -0.0073999758 -0.002868294 -0.00121349,
                              -0.0055999751 -0.002868294 -0.00121349,
                              -0.0073999758 -0.0037499659 -0.00149995,
                              -0.0055999751 -0.0037499659 -0.00149995,
                              -0.019999981 0.0054999581 0.0024999969,
                              -0.0073999758 -0.0037499659 -0.00149995,
                              -0.0074999919 -0.0037499659 -0.001599967,
                              -0.0073999758 -0.002868294 -0.00121349,
                              -0.0074999919 -0.002808511 -0.001293659,
                              -0.0074999919 -0.002228915 -0.00049609999,
                              -0.0073999758 -0.0023233891 -0.00046352,
                              -0.0073999758 -0.0023233891 0.00046353001,
                              -0.0074999919 -0.002228915 0.00049611001,
                              -0.0073999758 -0.002868294 0.00121349,
                              -0.0074999919 -0.002808511 0.001293659,
                              -0.0073999758 -0.0037499659 0.00149995,
                              -0.0074999919 -0.0037499659 0.001599967,
                              -0.019999981 0.0054999581 0.0024999969,
                              -0.0073999758 -0.0037499659 0.00149995,
                              -0.0074999919 -0.0037499659 0.001599967,
                              -0.0073999758 -0.0046316381 0.00121349,
                              -0.0074999919 -0.0046914211 0.001293659,
                              -0.0074999919 -0.0052710171 0.00049611001,
                              -0.0073999758 -0.0051765442 0.00046353001,
                              -0.0073999758 -0.0051765442 -0.00046352,
                              -0.0074999919 -0.0052710171 -0.00049609999,
                              -0.0073999758 -0.0046316381 -0.00121349,
                              -0.0074999919 -0.0046914211 -0.001293659,
                              -0.0073999758 -0.0037499659 -0.00149995,
                              -0.0074999919 -0.0037499659 -0.001599967,
                              -0.019999981 0.0054999581 0.0024999969,
                              -0.01774996 0.003249943 0.0024999969,
                              -0.01774996 0.0074415202 0.0059617748,
                              -0.01774996 0.007603406 0.0058534741,
                              -0.01774996 0.0077117682 0.0056915279,
                              -0.01774996 0.0077499738 0.0024999969,
                              -0.01774996 0.003249943 0.0059999819,
                              -0.019999981 0.0054999581 0.0024999969,
                              -0.021941541 0.003288209 0.0024999969,
                              -0.021941541 0.0032881489 -0.0024999969,
                              -0.02174997 0.003249943 -0.0024999969,
                              -0.02174997 0.003249943 0.0024999969,
                              -0.02210342 0.003396451 -0.0024999969,
                              -0.022103479 0.0033965111 0.0024999969,
                              -0.02221179 0.0035583971 -0.0024999969,
                              -0.02221179 0.003558456 0.0024999969,
                              -0.022249989 0.0037499659 0.0024999969,
                              -0.022249989 0.0037499659 -0.0024999969,
                              -0.019999981 0.0054999581 0.0024999969,
                              0.01774996 0.003249943 -0.0024999969,
                              0.01774996 0.0074415202 -0.0059617748,
                              0.01774996 0.007603406 -0.0058534741,
                              0.01774996 0.0077117682 -0.0056915279,
                              0.01774996 0.0077499738 -0.0024999969,
                              0.01774996 0.003249943 -0.0059999819,
                              -0.019999981 0.0054999581 0.0024999969,
                              -0.01774996 0.0074415202 -0.0059617748,
                              0.01774996 0.0074415202 -0.0059617748,
                              0.01774996 0.0072499509 -0.0059999819,
                              -0.01774996 0.0072499509 -0.0059999819,
                              0.01774996 0.007603406 -0.0058534741,
                              -0.01774996 0.007603466 -0.0058534141,
                              0.01774996 0.0077117682 -0.0056915279,
                              -0.01774996 0.0077117682 -0.0056915279,
                              -0.01774996 0.0077499738 -0.0054999581,
                              0.01774996 0.0077499738 -0.0054999581,
                              -0.019999981 0.0054999581 0.0024999969,
                              -0.01774996 0.0077117682 -0.0056915279,
                              -0.01774996 0.0077499738 -0.0024999969,
                              -0.01774996 0.007603466 -0.0058534141,
                              -0.01774996 0.0074415202 -0.0059617748,
                              -0.01774996 0.003249943 -0.0059999819,
                              -0.01774996 0.003249943 -0.0024999969,
                              -0.019999981 0.0054999581 0.0024999969,
                              -0.0074999919 0.003249943 0.0059999819,
                              -0.01774996 0.003249943 0.0059999819,
                              -0.0074999919 0.003249943 -0.0059999819,
                              -0.01774996 0.003249943 0.0024999969,
                              -0.01774996 0.003249943 -0.0024999969,
                              -0.01774996 0.003249943 -0.0059999819,
                              -0.02174997 0.003249943 0.0024999969,
                              -0.02174997 0.003249943 -0.0024999969,
                              -0.019999981 0.0054999581 0.0024999969,
                              -0.0074999919 -0.0077499738 0.00099998701,
                              -0.0074999919 -0.0077499738 -0.00099998701,
                              -0.0054999581 -0.0077499738 0.00099998701,
                              -0.0054999581 -0.0077499738 -0.00099998701,
                              -0.019999981 0.0054999581 0.0024999969,
                              -0.0074999919 -0.002749979 0.0059999819,
                              -0.0054999581 -0.002749979 0.0059999819,
                              -0.0074999919 -0.0052511692 0.0053294301,
                              -0.0054999581 -0.0052511692 0.00532937,
                              -0.0074999919 -0.0070793619 0.0035011759,
                              -0.0054999581 -0.007079422 0.0035011759,
                              -0.0074999919 -0.0077499738 0.00099998701,
                              -0.0054999581 -0.0077499738 0.00099998701,
                              -0.019999981 0.0054999581 0.0024999969,
                              -0.0074999919 -0.0075790281 0.002295732,
                              -0.0074999919 -0.0042460561 0.00152105,
                              -0.0074999919 -0.0050436249 0.00094144099,
                              -0.0074999919 -0.0053499928 0,
                              -0.0074999919 -0.0052710171 -0.00049609999,
                              -0.0074999919 -0.0046914211 -0.001293659,
                              -0.0074999919 -0.0037499659 -0.001599967,
                              -0.0074999919 -0.0075790281 -0.002295672,
                              -0.0074999919 0.003249943 -0.0059999819,
                              -0.0074999919 -0.0040457239 -0.0058290358,
                              -0.0074999919 -0.0052511692 -0.00532937,
                              -0.0074999919 -0.007079422 -0.0035011759,
                              -0.0074999919 -0.002808511 -0.001293659,
                              -0.0074999919 -0.002228915 -0.00049609999,
                              -0.0074999919 -0.002228915 0.00049611001,
                              -0.0074999919 -0.0032538769 0.00152105,
                              -0.0074999919 -0.0070793619 0.0035011759,
                              -0.0074999919 -0.002808511 0.001293659,
                              -0.0074999919 -0.0052511692 0.0053294301,
                              -0.0074999919 -0.0040456648 0.0058290358,
                              -0.0074999919 0.003249943 0.0059999819,
                              -0.019999981 0.0054999581 0.0024999969,
                              -0.0074999919 -0.0077499738 -0.00099998701,
                              -0.0054999581 -0.0077499738 -0.00099998701,
                              -0.0074999919 -0.007079422 -0.0035011759,
                              -0.0054999581 -0.0070793619 -0.0035011759,
                              -0.0074999919 -0.0052511692 -0.00532937,
                              -0.0054999581 -0.0052511692 -0.0053294301,
                              -0.0074999919 -0.002749979 -0.0059999819,
                              -0.0054999581 -0.002749979 -0.0059999819,
                              -0.019999981 0.0054999581 0.0024999969,
                              -0.0054999581 -0.0040457239 0.0058290358,
                              -0.0054999581 0.003249943 0.0059999819,
                              -0.0054999581 -0.0042460561 0.00152105,
                              -0.0054999581 -0.0037499659 0.001599967,
                              -0.0054999581 -0.0075790281 0.002295672,
                              -0.0054999581 -0.0050436249 0.00094144099,
                              -0.0054999581 -0.0052710171 -0.00049609999,
                              -0.0054999581 -0.0053499928 0,
                              -0.0054999581 -0.0046914211 -0.001293659,
                              -0.0054999581 -0.0075790281 -0.002295672,
                              -0.0054999581 -0.0037499659 -0.001599967,
                              -0.0054999581 -0.0052511692 0.00532937,
                              -0.0054999581 -0.007079422 0.0035011759,
                              -0.0054999581 -0.002808511 0.001293659,
                              -0.0054999581 -0.002228915 0.00049611001,
                              -0.0054999581 -0.0021499989 0,
                              -0.0054999581 -0.0024563069 -0.00094143098,
                              -0.0054999581 -0.0070793619 -0.0035011759,
                              -0.0054999581 -0.002808511 -0.001293659,
                              -0.0054999581 -0.0052511692 -0.0053294301,
                              -0.0054999581 -0.0040456648 -0.0058290358,
                              -0.0054999581 0.003249943 -0.0059999819,
                              -0.019999981 0.0054999581 0.0024999969,
                              -0.01299995 0.0054999581 0.0018744461,
                              -0.01356309 0.0057711601 0.0022499559,
                              -0.01362496 0.0054999581 0.0022499559,
                              -0.01338964 0.0059885969 0.0022499559,
                              -0.01313906 0.0061092968 0.0022499559,
                              -0.01286089 0.0061092968 0.0022499559,
                              -0.01261031 0.0059885969 0.0022499559,
                              -0.01243686 0.0057711601 0.0022499559,
                              -0.01237499 0.0054999581 0.0022499559,
                              -0.019999981 0.0054999581 0.0024999969,
                              -0.01299995 0.0054999581 0.0018744461,
                              -0.01243686 0.005228817 0.0022499559,
                              -0.01237499 0.0054999581 0.0022499559,
                              -0.01261031 0.0050113201 0.0022499559,
                              -0.01286089 0.0048906798 0.0022499559,
                              -0.01313906 0.0048906798 0.0022499559,
                              -0.01338964 0.0050113201 0.0022499559,
                              -0.01356309 0.005228817 0.0022499559,
                              -0.01362496 0.0054999581 0.0022499559,
                              -0.019999981 0.0054999581 0.0024999969,
                              -0.01243686 0.005228817 0.0022499559,
                              -0.01242256 0.0052608252 0.0058999648,
                              -0.01237499 0.0054999581 0.0058999648,
                              -0.01237499 0.0054999581 0.0022499559,
                              -0.01255804 0.0050580502 0.0058999648,
                              -0.01261031 0.0050113201 0.0022499559,
                              -0.01276081 0.0049225679 0.0058999648,
                              -0.01286089 0.0048906798 0.0022499559,
                              -0.01299995 0.0048749442 0.0058999648,
                              -0.01313906 0.0048906798 0.0022499559,
                              -0.01323914 0.0049225679 0.0058999648,
                              -0.01338964 0.0050113201 0.0022499559,
                              -0.01344192 0.0050580502 0.0058999648,
                              -0.01356309 0.005228817 0.0022499559,
                              -0.0135774 0.0052608252 0.0058999648,
                              -0.01362496 0.0054999581 0.0022499559,
                              -0.01362496 0.0054999581 0.0058999648,
                              -0.019999981 0.0054999581 0.0024999969,
                              -0.01356309 0.0057711601 0.0022499559,
                              -0.0135774 0.005739152 0.0058999648,
                              -0.01362496 0.0054999581 0.0058999648,
                              -0.01362496 0.0054999581 0.0022499559,
                              -0.01344192 0.005941927 0.0058999648,
                              -0.01338964 0.0059885969 0.0022499559,
                              -0.01323914 0.0060774079 0.0058999648,
                              -0.01313906 0.0061092968 0.0022499559,
                              -0.01299995 0.0061249728 0.0058999648,
                              -0.01286089 0.0061092968 0.0022499559,
                              -0.01276081 0.0060774079 0.0058999648,
                              -0.01261031 0.0059885969 0.0022499559,
                              -0.01255804 0.005941927 0.0058999648,
                              -0.01243686 0.0057711601 0.0022499559,
                              -0.01242256 0.005739152 0.0058999648,
                              -0.01237499 0.0054999581 0.0022499559,
                              -0.01237499 0.0054999581 0.0058999648,
                              -0.019999981 0.0054999581 0.0024999969,
                              -0.01362496 0.0054999581 0.0058999648,
                              -0.0135774 0.005739152 0.0058999648,
                              -0.01372498 0.0054999581 0.0059999819,
                              -0.01366949 0.005777895 0.0059999819,
                              -0.01344192 0.005941927 0.0058999648,
                              -0.01351261 0.0060126181 0.0059999819,
                              -0.01323914 0.0060774079 0.0058999648,
                              -0.01327788 0.006169497 0.0059999819,
                              -0.01299995 0.0061249728 0.0058999648,
                              -0.01299995 0.006224989 0.0059999819,
                              -0.01276081 0.0060774079 0.0058999648,
                              -0.01272207 0.006169497 0.0059999819,
                              -0.01255804 0.005941927 0.0058999648,
                              -0.01248735 0.0060126181 0.0059999819,
                              -0.01242256 0.005739152 0.0058999648,
                              -0.01233041 0.0057778349 0.0059999819,
                              -0.01237499 0.0054999581 0.0058999648,
                              -0.01227498 0.0054999581 0.0059999819,
                              -0.019999981 0.0054999581 0.0024999969,
                              -0.01237499 0.0054999581 0.0058999648,
                              -0.01242256 0.0052608252 0.0058999648,
                              -0.01227498 0.0054999581 0.0059999819,
                              -0.01233047 0.0052220821 0.0059999819,
                              -0.01255804 0.0050580502 0.0058999648,
                              -0.01248735 0.004987299 0.0059999819,
                              -0.01276081 0.0049225679 0.0058999648,
                              -0.01272207 0.00483042 0.0059999819,
                              -0.01299995 0.0048749442 0.0058999648,
                              -0.01299995 0.0047749872 0.0059999819,
                              -0.01323914 0.0049225679 0.0058999648,
                              -0.01327788 0.00483042 0.0059999819,
                              -0.01344192 0.0050580502 0.0058999648,
                              -0.01351261 0.004987359 0.0059999819,
                              -0.0135774 0.0052608252 0.0058999648,
                              -0.01366955 0.0052220821 0.0059999819,
                              -0.01362496 0.0054999581 0.0058999648,
                              -0.01372498 0.0054999581 0.0059999819,
                              -0.019999981 0.0054999581 0.0024999969,
                              0.01243776 0.0057728291 -0.0059999819,
                              0.01242256 0.005739152 0.0058999648,
                              0.01237499 0.0054999581 0.0058999648,
                              0.01237499 0.0054999581 -0.0059999819,
                              0.01255804 0.005941927 0.0058999648,
                              0.01261222 0.0059900279 -0.0059999819,
                              0.01276081 0.0060774079 0.0058999648,
                              0.01285886 0.0061087599 -0.0059999819,
                              0.01299995 0.0061249728 0.0058999648,
                              0.01313412 0.0061103101 -0.0059999819,
                              0.01323914 0.0060774079 0.0058999648,
                              0.01338392 0.0059930682 -0.0059999819,
                              0.01344192 0.005941927 0.0058999648,
                              0.01356083 0.0057752719 -0.0059999819,
                              0.0135774 0.005739152 0.0058999648,
                              0.01362496 0.0054999581 -0.0059999819,
                              0.01362496 0.0054999581 0.0058999648,
                              -0.019999981 0.0054999581 0.0024999969,
                              0.01237499 0.0054999581 0.0058999648,
                              0.01242256 0.005739152 0.0058999648,
                              0.01227498 0.0054999581 0.0059999819,
                              0.01233041 0.005777895 0.0059999819,
                              0.01255804 0.005941927 0.0058999648,
                              0.01248735 0.0060126181 0.0059999819,
                              0.01276081 0.0060774079 0.0058999648,
                              0.01272207 0.006169497 0.0059999819,
                              0.01299995 0.0061249728 0.0058999648,
                              0.01299995 0.006224989 0.0059999819,
                              0.01323914 0.0060774079 0.0058999648,
                              0.01327788 0.006169497 0.0059999819,
                              0.01344192 0.005941927 0.0058999648,
                              0.01351261 0.0060126181 0.0059999819,
                              0.0135774 0.005739152 0.0058999648,
                              0.01366949 0.0057778349 0.0059999819,
                              0.01362496 0.0054999581 0.0058999648,
                              0.01372498 0.0054999581 0.0059999819,
                              -0.019999981 0.0054999581 0.0024999969,
                              0.01774996 0.003249943 0.0059999819,
                              0.01372498 0.0054999581 0.0059999819,
                              0.01366949 0.0052220821 0.0059999819,
                              0.01351261 0.004987299 0.0059999819,
                              0.01327788 0.00483042 0.0059999819,
                              0.01299995 0.0047749872 0.0059999819,
                              0.01272207 0.00483042 0.0059999819,
                              0.01233041 0.0052220821 0.0059999819,
                              0.01227498 0.0054999581 0.0059999819,
                              -0.0054999581 0.003249943 0.0059999819,
                              0.01248729 0.004987359 0.0059999819,
                              -0.0074999919 -0.002749979 0.0059999819,
                              -0.0054999581 -0.002749979 0.0059999819,
                              -0.0074999919 0.003249943 0.0059999819,
                              -0.01774996 0.0072499509 0.0059999819,
                              -0.01372498 0.0054999581 0.0059999819,
                              -0.01366949 0.005777895 0.0059999819,
                              -0.01351261 0.0060126181 0.0059999819,
                              -0.01327788 0.006169497 0.0059999819,
                              -0.01299995 0.006224989 0.0059999819,
                              -0.01272207 0.006169497 0.0059999819,
                              -0.01233041 0.0057778349 0.0059999819,
                              -0.01227498 0.0054999581 0.0059999819,
                              -0.01248735 0.0060126181 0.0059999819,
                              0.01233041 0.005777895 0.0059999819,
                              0.01248735 0.0060126181 0.0059999819,
                              0.01272207 0.006169497 0.0059999819,
                              0.01299995 0.006224989 0.0059999819,
                              0.01366949 0.0057778349 0.0059999819,
                              0.01351261 0.0060126181 0.0059999819,
                              0.01327788 0.006169497 0.0059999819,
                              0.01774996 0.0072499509 0.0059999819,
                              -0.01233047 0.0052220821 0.0059999819,
                              -0.01248735 0.004987299 0.0059999819,
                              -0.01272207 0.00483042 0.0059999819,
                              -0.01299995 0.0047749872 0.0059999819,
                              -0.01327788 0.00483042 0.0059999819,
                              -0.01366955 0.0052220821 0.0059999819,
                              -0.01351261 0.004987359 0.0059999819,
                              -0.01774996 0.003249943 0.0059999819,
                              -0.019999981 0.0054999581 0.0024999969,
                              0.01362496 0.0054999581 0.0058999648,
                              0.0135774 0.0052608252 0.0058999648,
                              0.01372498 0.0054999581 0.0059999819,
                              0.01366949 0.0052220821 0.0059999819,
                              0.01344192 0.0050580502 0.0058999648,
                              0.01351261 0.004987299 0.0059999819,
                              0.01323914 0.0049225679 0.0058999648,
                              0.01327788 0.00483042 0.0059999819,
                              0.01299995 0.0048749442 0.0058999648,
                              0.01299995 0.0047749872 0.0059999819,
                              0.01276081 0.0049225679 0.0058999648,
                              0.01272207 0.00483042 0.0059999819,
                              0.01255804 0.0050580502 0.0058999648,
                              0.01248729 0.004987359 0.0059999819,
                              0.01242256 0.0052608252 0.0058999648,
                              0.01233041 0.0052220821 0.0059999819,
                              0.01237499 0.0054999581 0.0058999648,
                              0.01227498 0.0054999581 0.0059999819,
                              -0.019999981 0.0054999581 0.0024999969,
                              0.01356214 0.0052271481 -0.0059999819,
                              0.0135774 0.0052608252 0.0058999648,
                              0.01362496 0.0054999581 0.0058999648,
                              0.01362496 0.0054999581 -0.0059999819,
                              0.01344192 0.0050580502 0.0058999648,
                              0.01338773 0.0050098891 -0.0059999819,
                              0.01323914 0.0049225679 0.0058999648,
                              0.01314109 0.0048912158 -0.0059999819,
                              0.01299995 0.0048749442 0.0058999648,
                              0.01286584 0.004889667 -0.0059999819,
                              0.01276081 0.0049225679 0.0058999648,
                              0.01261603 0.0050068488 -0.0059999819,
                              0.01255804 0.0050580502 0.0058999648,
                              0.01243913 0.0052246451 -0.0059999819,
                              0.01242256 0.0052608252 0.0058999648,
                              0.01237499 0.0054999581 -0.0059999819,
                              0.01237499 0.0054999581 0.0058999648,
                              -0.019999981 0.0054999581 0.0024999969,
                              -0.0054999581 0.003249943 -0.0059999819,
                              0.01237499 0.0054999581 -0.0059999819,
                              0.01243913 0.0052246451 -0.0059999819,
                              0.01261603 0.0050068488 -0.0059999819,
                              0.01286584 0.004889667 -0.0059999819,
                              0.01314109 0.0048912158 -0.0059999819,
                              0.01356214 0.0052271481 -0.0059999819,
                              0.01362496 0.0054999581 -0.0059999819,
                              0.01774996 0.0072499509 -0.0059999819,
                              0.01338773 0.0050098891 -0.0059999819,
                              0.01774996 0.003249943 -0.0059999819,
                              -0.0054999581 -0.002749979 -0.0059999819,
                              -0.0074999919 -0.002749979 -0.0059999819,
                              0.01356083 0.0057752719 -0.0059999819,
                              0.01338392 0.0059930682 -0.0059999819,
                              0.01313412 0.0061103101 -0.0059999819,
                              0.01285886 0.0061087599 -0.0059999819,
                              0.01243776 0.0057728291 -0.0059999819,
                              0.01261222 0.0059900279 -0.0059999819,
                              -0.0074999919 0.003249943 -0.0059999819,
                              -0.01774996 0.003249943 -0.0059999819,
                              -0.01774996 0.0072499509 -0.0059999819,
                              -0.019999981 0.0054999581 0.0024999969,
                              -0.0054999581 0.003249943 -0.0059999819,
                              0.017750019 0.003249943 -0.0059999819,
                              -0.0054999581 0.003249943 0.0059999819,
                              0.017750019 0.003249943 -0.0024999969,
                              0.017750019 0.003249943 0.0024999969,
                              0.017750019 0.003249943 0.0059999819,
                              0.021750029 0.003249943 -0.0024999969,
                              0.021750029 0.003249943 0.0024999969,
                              -0.019999981 0.0054999581 0.0024999969,
                              0.02221179 0.0035583971 0.0024999969,
                              0.02221179 0.003558456 -0.0024999969,
                              0.022249989 0.0037499659 -0.0024999969,
                              0.022249989 0.0037499659 0.0024999969,
                              0.022103479 0.0033965111 -0.0024999969,
                              0.02210342 0.003396451 0.0024999969,
                              0.021941541 0.003288209 -0.0024999969,
                              0.021941541 0.0032881489 0.0024999969,
                              0.02174997 0.003249943 0.0024999969,
                              0.02174997 0.003249943 -0.0024999969,
                              -0.019999981 0.0054999581 0.0024999969,
                              0.022249989 0.0052499771 -0.0024999969,
                              0.022249989 0.0052499771 0.0024999969,
                              0.022249989 0.0037499659 -0.0024999969,
                              0.022249989 0.0037499659 0.0024999969,
                              -0.019999981 0.0054999581 0.0024999969,
                              0.02052366 0.0076271291 0.0024999969,
                              0.02052366 0.0076271291 -0.0024999969,
                              0.01974999 0.0077499738 -0.0024999969,
                              0.01974999 0.0077499738 0.0024999969,
                              0.021772319 0.0067196479 -0.0024999969,
                              0.021772381 0.0067195888 0.0024999969,
                              0.022249989 0.0052499771 0.0024999969,
                              0.022249989 0.0052499771 -0.0024999969,
                              -0.019999981 0.0054999581 0.0024999969,
                              0.021049971 0.0054999581 0.002200007,
                              0.020970039 0.005901753 0.002200007,
                              0.021049971 0.0054999581 -0.0021999469,
                              0.020970039 0.005901753 -0.0021999469,
                              0.020742411 0.0062424541 0.002200007,
                              0.020742411 0.0062424541 -0.0021999469,
                              0.02040177 0.0064700241 0.002200007,
                              0.02040177 0.0064700241 -0.0021999469,
                              0.019999981 0.0065499539 0.002200007,
                              0.019999981 0.0065499539 -0.0021999469,
                              0.01959818 0.0064700241 0.002200007,
                              0.01959818 0.0064700241 -0.0021999469,
                              0.01925748 0.0062424541 0.002200007,
                              0.01925748 0.0062424541 -0.0021999469,
                              0.01902991 0.005901753 0.002200007,
                              0.01902991 0.005901753 -0.0021999469,
                              0.01894998 0.0054999581 0.002200007,
                              0.01894998 0.0054999581 -0.0021999469,
                              -0.019999981 0.0054999581 0.0024999969,
                              0.020970039 0.005901753 -0.0021999469,
                              0.021283381 0.0059185619 -0.0024999969,
                              0.021349959 0.0054999581 -0.0024999969,
                              0.021049971 0.0054999581 -0.0021999469,
                              0.020742411 0.0062424541 -0.0021999469,
                              0.02079433 0.0065914979 -0.0024999969,
                              0.02040177 0.0064700241 -0.0021999469,
                              0.019999981 0.0065499539 -0.0021999469,
                              0.019999981 0.0068499441 -0.0024999969,
                              0.01959818 0.0064700241 -0.0021999469,
                              0.019205621 0.0065914979 -0.0024999969,
                              0.01925748 0.0062424541 -0.0021999469,
                              0.01902991 0.005901753 -0.0021999469,
                              0.01871657 0.0059185619 -0.0024999969,
                              0.01894998 0.0054999581 -0.0021999469,
                              0.01864999 0.0054999581 -0.0024999969,
                              -0.019999981 0.0054999581 0.0024999969,
                              0.02052366 0.0076271291 -0.0024999969,
                              0.01774996 0.0077499738 -0.0024999969,
                              0.021772319 0.0067196479 -0.0024999969,
                              0.019999981 0.0068499441 -0.0024999969,
                              0.02079433 0.0065914979 -0.0024999969,
                              0.02212715 0.006023705 -0.0024999969,
                              0.021283381 0.0059185619 -0.0024999969,
                              0.021283381 0.0050813551 -0.0024999969,
                              0.019999981 0.0041499729 -0.0024999969,
                              0.02079433 0.0044084778 -0.0024999969,
                              0.01958137 0.0067833662 -0.0024999969,
                              0.018908439 0.0062943101 -0.0024999969,
                              0.01864999 0.0054999581 -0.0024999969,
                              0.01871657 0.0050813551 -0.0024999969,
                              0.02221179 0.003558456 -0.0024999969,
                              0.022103479 0.0033965111 -0.0024999969,
                              0.021941541 0.003288209 -0.0024999969,
                              0.01774996 0.003249943 -0.0024999969,
                              0.019205621 0.0044084778 -0.0024999969,
                              -0.019999981 0.0054999581 0.0024999969,
                              0.01902991 0.0050981641 -0.0021999469,
                              0.01871657 0.0050813551 -0.0024999969,
                              0.01864999 0.0054999581 -0.0024999969,
                              0.01894998 0.0054999581 -0.0021999469,
                              0.01925748 0.0047575231 -0.0021999469,
                              0.019205621 0.0044084778 -0.0024999969,
                              0.01959818 0.0045298929 -0.0021999469,
                              0.019999981 0.0044499631 -0.0021999469,
                              0.019999981 0.0041499729 -0.0024999969,
                              0.02040177 0.0045298929 -0.0021999469,
                              0.02079433 0.0044084778 -0.0024999969,
                              0.020742411 0.0047575231 -0.0021999469,
                              0.020970039 0.0050981641 -0.0021999469,
                              0.021283381 0.0050813551 -0.0024999969,
                              0.021049971 0.0054999581 -0.0021999469,
                              0.021349959 0.0054999581 -0.0024999969,
                              -0.019999981 0.0054999581 0.0024999969,
                              0.01894998 0.0054999581 0.002200007,
                              0.01902991 0.0050981641 0.002200007,
                              0.01894998 0.0054999581 -0.0021999469,
                              0.01902991 0.0050981641 -0.0021999469,
                              0.01925748 0.0047575231 0.002200007,
                              0.01925748 0.0047575231 -0.0021999469,
                              0.01959818 0.0045298929 0.002200007,
                              0.01959818 0.0045298929 -0.0021999469,
                              0.019999981 0.0044499631 0.002200007,
                              0.019999981 0.0044499631 -0.0021999469,
                              0.02040177 0.0045298929 0.002200007,
                              0.02040177 0.0045298929 -0.0021999469,
                              0.020742411 0.0047575231 0.002200007,
                              0.020742411 0.0047575231 -0.0021999469,
                              0.020970039 0.0050981641 0.002200007,
                              0.020970039 0.0050981641 -0.0021999469,
                              0.021049971 0.0054999581 0.002200007,
                              0.021049971 0.0054999581 -0.0021999469,
                              -0.019999981 0.0054999581 0.0024999969,
                              0.020970039 0.0050981641 0.002200007,
                              0.021283381 0.0050813551 0.0024999969,
                              0.021349959 0.0054999581 0.0024999969,
                              0.021049971 0.0054999581 0.002200007,
                              0.020742411 0.0047575231 0.002200007,
                              0.02079433 0.0044084778 0.0024999969,
                              0.02040177 0.0045298929 0.002200007,
                              0.019999981 0.0044499631 0.002200007,
                              0.019999981 0.0041499729 0.0024999969,
                              0.01959818 0.0045298929 0.002200007,
                              0.019205621 0.0044084778 0.0024999969,
                              0.01925748 0.0047575231 0.002200007,
                              0.01902991 0.0050981641 0.002200007,
                              0.01871657 0.0050813551 0.0024999969,
                              0.01894998 0.0054999581 0.002200007,
                              0.01864999 0.0054999581 0.0024999969,
                              -0.019999981 0.0054999581 0.0024999969,
                              0.01902991 0.005901753 0.002200007,
                              0.01871657 0.0059185619 0.0024999969,
                              0.01864999 0.0054999581 0.0024999969,
                              0.01894998 0.0054999581 0.002200007,
                              0.01925748 0.0062424541 0.002200007,
                              0.019205621 0.0065914979 0.0024999969,
                              0.01959818 0.0064700241 0.002200007,
                              0.019999981 0.0065499539 0.002200007,
                              0.019999981 0.0068499441 0.0024999969,
                              0.02040177 0.0064700241 0.002200007,
                              0.02079433 0.0065914979 0.0024999969,
                              0.020742411 0.0062424541 0.002200007,
                              0.020970039 0.005901753 0.002200007,
                              0.021283381 0.0059185619 0.0024999969,
                              0.021049971 0.0054999581 0.002200007,
                              0.021349959 0.0054999581 0.0024999969,
                              -0.019999981 0.0054999581 0.0024999969,
                              0.021219609 0.0072723031 0.0024999969,
                              0.019999981 0.0068499441 0.0024999969,
                              0.02079433 0.0065914979 0.0024999969,
                              0.02212715 0.0060236449 0.0024999969,
                              0.021283381 0.0059185619 0.0024999969,
                              0.021283381 0.0050813551 0.0024999969,
                              0.02079433 0.0044084778 0.0024999969,
                              0.019999981 0.0041499729 0.0024999969,
                              0.01774996 0.003249943 0.0024999969,
                              0.021941541 0.0032881489 0.0024999969,
                              0.02210342 0.003396451 0.0024999969,
                              0.02221179 0.0035583971 0.0024999969,
                              0.01958137 0.0042165508 0.0024999969,
                              0.019205621 0.0044084778 0.0024999969,
                              0.01871657 0.0050813551 0.0024999969,
                              0.01871657 0.0059185619 0.0024999969,
                              0.01958137 0.0067833662 0.0024999969,
                              0.02052366 0.0076271291 0.0024999969,
                              0.019205621 0.0065914979 0.0024999969,
                              0.01774996 0.0077499738 0.0024999969,
                              -0.019999981 0.0054999581 0.0024999969,
                              0.01774996 0.0077117682 0.0056915279,
                              0.01774996 0.0077499738 0.0024999969,
                              0.01774996 0.007603466 0.0058534141,
                              0.01774996 0.0074415202 0.0059617748,
                              0.01774996 0.003249943 0.0059999819,
                              0.01774996 0.003249943 0.0024999969,
                              -0.019999981 0.0054999581 0.0024999969,
                              0.01774996 0.0074415202 0.0059617748,
                              -0.01774996 0.0074415202 0.0059617748,
                              -0.01774996 0.0072499509 0.0059999819,
                              0.01774996 0.0072499509 0.0059999819,
                              -0.01774996 0.007603406 0.0058534741,
                              0.01774996 0.007603466 0.0058534141,
                              -0.01774996 0.0077117682 0.0056915279,
                              0.01774996 0.0077117682 0.0056915279,
                              0.01774996 0.0077499738 0.0054999581,
                              -0.01774996 0.0077499738 0.0054999581,
                              -0.019999981 0.0054999581 0.0024999969,
                              0.01974999 0.0077499738 -0.0024999969,
                              0.01774996 0.0077499738 -0.0024999969,
                              0.01974999 0.0077499738 0.0024999969,
                              0.01774996 0.0077499738 0.0024999969,
                              -0.01774996 0.0077499738 -0.0054999581,
                              0.01774996 0.0077499738 0.0054999581,
                              0.01774996 0.0077499738 -0.0054999581,
                              -0.01774996 0.0077499738 -0.0024999969,
                              -0.01774996 0.0077499738 0.0024999969,
                              -0.01774996 0.0077499738 0.0054999581,
                              -0.01974999 0.0077499738 -0.0024999969,
                              -0.01974999 0.0077499738 0.0024999969,
                              -0.019999981 0.0054999581 0.0024999969,
                              -0.01894998 0.0054999581 0.0022499559,
                              -0.01902991 0.005901753 0.0022499559,
                              -0.01894998 0.0054999581 -0.0022499559,
                              -0.01902991 0.005901753 -0.0022499559,
                              -0.01925754 0.0062424541 0.0022499559,
                              -0.01925754 0.0062424541 -0.0022499559,
                              -0.01959818 0.0064700241 0.0022499559,
                              -0.01959818 0.0064700241 -0.0022499559,
                              -0.019999981 0.0065499539 0.0022499559,
                              -0.019999981 0.0065499539 -0.0022499559,
                              -0.02040177 0.0064700241 0.0022499559,
                              -0.02040177 0.0064700241 -0.0022499559,
                              -0.020742411 0.0062424541 0.0022499559,
                              -0.020742411 0.0062424541 -0.0022499559,
                              -0.020970039 0.005901753 0.0022499559,
                              -0.020970039 0.005901753 -0.0022499559,
                              -0.021049971 0.0054999581 0.0022499559,
                              -0.021049971 0.0054999581 -0.0022499559,
                              -0.019999981 0.0054999581 0.0024999969,
                              -0.020970039 0.005901753 0.0022499559,
                              -0.021299951 0.0054999581 0.0024999969,
                              -0.021049971 0.0054999581 0.0022499559,
                              -0.021051399 0.0062642689 0.0024999969,
                              -0.020742411 0.0062424541 0.0022499559,
                              -0.02040177 0.0064700241 0.0022499559,
                              -0.020402251 0.0067360988 0.0024999969,
                              -0.019999981 0.0065499539 0.0022499559,
                              -0.01959818 0.0064700241 0.0022499559,
                              -0.0195977 0.0067360988 0.0024999969,
                              -0.01925754 0.0062424541 0.0022499559,
                              -0.018948549 0.0062642689 0.0024999969,
                              -0.01902991 0.005901753 0.0022499559,
                              -0.01876384 0.0059022298 0.0024999969,
                              -0.01894998 0.0054999581 0.0022499559,
                              -0.0187 0.0054999581 0.0024999969,
                              -0.019999981 0.0054999581 0.0024999969,
                              -0.02052366 0.0076271291 0.0024999969,
                              -0.01774996 0.0077499738 0.0024999969,
                              -0.021772319 0.0067196479 0.0024999969,
                              -0.019999981 0.0067999358 0.0024999969,
                              -0.020764289 0.0065514441 0.0024999969,
                              -0.02212715 0.006023705 0.0024999969,
                              -0.02123612 0.0059022899 0.0024999969,
                              -0.021299951 0.0054999581 0.0024999969,
                              -0.019999981 0.0041999812 0.0024999969,
                              -0.020402251 0.0042638178 0.0024999969,
                              -0.021051399 0.0047357078 0.0024999969,
                              -0.0195977 0.0067360988 0.0024999969,
                              -0.018948549 0.0062642689 0.0024999969,
                              -0.01876384 0.0059022298 0.0024999969,
                              -0.01876384 0.0050976868 0.0024999969,
                              -0.02221179 0.003558456 0.0024999969,
                              -0.022103479 0.0033965111 0.0024999969,
                              -0.021941541 0.003288209 0.0024999969,
                              -0.01774996 0.003249943 0.0024999969,
                              -0.019235671 0.0044485331 0.0024999969,
                              -0.019999981 0.0054999581 0.0024999969,
                              -0.01902991 0.0050981641 0.0022499559,
                              -0.0187 0.0054999581 0.0024999969,
                              -0.01894998 0.0054999581 0.0022499559,
                              -0.018948549 0.0047356482 0.0024999969,
                              -0.01925754 0.0047575231 0.0022499559,
                              -0.01959818 0.0045298929 0.0022499559,
                              -0.0195977 0.0042638178 0.0024999969,
                              -0.019999981 0.0044499631 0.0022499559,
                              -0.02040177 0.0045298929 0.0022499559,
                              -0.020402251 0.0042638178 0.0024999969,
                              -0.020742411 0.0047575231 0.0022499559,
                              -0.021051399 0.0047357078 0.0024999969,
                              -0.020970039 0.0050981641 0.0022499559,
                              -0.02123612 0.0050976868 0.0024999969,
                              -0.021049971 0.0054999581 0.0022499559,
                              -0.021299951 0.0054999581 0.0024999969,
                              -0.019999981 0.0054999581 0.0024999969,
                              -0.021049971 0.0054999581 0.0022499559,
                              -0.020970039 0.0050981641 0.0022499559,
                              -0.021049971 0.0054999581 -0.0022499559,
                              -0.020970039 0.0050981641 -0.0022499559,
                              -0.020742411 0.0047575231 0.0022499559,
                              -0.020742411 0.0047575231 -0.0022499559,
                              -0.02040177 0.0045298929 0.0022499559,
                              -0.02040177 0.0045298929 -0.0022499559,
                              -0.019999981 0.0044499631 0.0022499559,
                              -0.019999981 0.0044499631 -0.0022499559,
                              -0.01959818 0.0045298929 0.0022499559,
                              -0.01959818 0.0045298929 -0.0022499559,
                              -0.01925754 0.0047575231 0.0022499559,
                              -0.01925754 0.0047575231 -0.0022499559,
                              -0.01902991 0.0050981641 0.0022499559,
                              -0.01902991 0.0050981641 -0.0022499559,
                              -0.01894998 0.0054999581 0.0022499559,
                              -0.01894998 0.0054999581 -0.0022499559,
                              -0.019999981 0.0054999581 0.0024999969,
                              -0.020970039 0.0050981641 -0.0022499559,
                              -0.021299951 0.0054999581 -0.0024999969,
                              -0.021049971 0.0054999581 -0.0022499559,
                              -0.021051399 0.0047356482 -0.0024999969,
                              -0.020742411 0.0047575231 -0.0022499559,
                              -0.02040177 0.0045298929 -0.0022499559,
                              -0.020402251 0.0042638178 -0.0024999969,
                              -0.019999981 0.0044499631 -0.0022499559,
                              -0.01959818 0.0045298929 -0.0022499559,
                              -0.0195977 0.0042638178 -0.0024999969,
                              -0.01925754 0.0047575231 -0.0022499559,
                              -0.018948549 0.0047357078 -0.0024999969,
                              -0.01902991 0.0050981641 -0.0022499559,
                              -0.01876384 0.0050976868 -0.0024999969,
                              -0.01894998 0.0054999581 -0.0022499559,
                              -0.0187 0.0054999581 -0.0024999969,
                              -0.019999981 0.0054999581 0.0024999969,
                              -0.01902991 0.005901753 -0.0022499559,
                              -0.0187 0.0054999581 -0.0024999969,
                              -0.01894998 0.0054999581 -0.0022499559,
                              -0.018948549 0.0062642689 -0.0024999969,
                              -0.01925754 0.0062424541 -0.0022499559,
                              -0.01959818 0.0064700241 -0.0022499559,
                              -0.0195977 0.0067360988 -0.0024999969,
                              -0.019999981 0.0065499539 -0.0022499559,
                              -0.02040177 0.0064700241 -0.0022499559,
                              -0.020402251 0.0067360988 -0.0024999969,
                              -0.020742411 0.0062424541 -0.0022499559,
                              -0.021051399 0.0062642689 -0.0024999969,
                              -0.020970039 0.005901753 -0.0022499559,
                              -0.02123612 0.0059022298 -0.0024999969,
                              -0.021049971 0.0054999581 -0.0022499559,
                              -0.021299951 0.0054999581 -0.0024999969,
                              -0.019999981 0.0054999581 0.0024999969,
                              -0.021219609 0.0072723031 -0.0024999969,
                              -0.020402251 0.0067360988 -0.0024999969,
                              -0.021772381 0.0067195888 -0.0024999969,
                              -0.021051399 0.0062642689 -0.0024999969,
                              -0.02212715 0.0060236449 -0.0024999969,
                              -0.021299951 0.0054999581 -0.0024999969,
                              -0.02123612 0.0050976868 -0.0024999969,
                              -0.020764289 0.0044485331 -0.0024999969,
                              -0.019999981 0.0041999812 -0.0024999969,
                              -0.01774996 0.003249943 -0.0024999969,
                              -0.021941541 0.0032881489 -0.0024999969,
                              -0.02210342 0.003396451 -0.0024999969,
                              -0.02221179 0.0035583971 -0.0024999969,
                              -0.0195977 0.0042638178 -0.0024999969,
                              -0.018948549 0.0047357078 -0.0024999969,
                              -0.0187 0.0054999581 -0.0024999969,
                              -0.01876384 0.0059022899 -0.0024999969,
                              -0.0195977 0.0067360988 -0.0024999969,
                              -0.02052366 0.0076271291 -0.0024999969,
                              -0.019235671 0.0065514441 -0.0024999969,
                              -0.01774996 0.0077499738 -0.0024999969,
                              -0.019999981 0.0054999581 0.0024999969,
                              -0.01974999 0.0077499738 0.0024999969,
                              -0.01974999 0.0077499738 -0.0024999969,
                              -0.021219609 0.0072723618 0.0024999969,
                              -0.021219609 0.0072723031 -0.0024999969,
                              -0.02212715 0.006023705 0.0024999969,
                              -0.02212715 0.0060236449 -0.0024999969,
                              -0.022249989 0.0052499771 -0.0024999969,
                              -0.022249989 0.0052499771 0.0024999969,
                              -0.019999981 0.0054999581 0.0024999969,
                              -0.022249989 0.0052499771 0.0024999969,
                              -0.022249989 0.0052499771 -0.0024999969,
                              -0.022249989 0.0037499659 0.0024999969,
                              -0.022249989 0.0037499659 -0.0024999969 ]

                        }
                        normal 
                        Normal {
                          vector [  ]

                        }
                        coordIndex [ 543, 541, 544, -1, 724, 723, 725, -1,
                            650, 649, 651, -1, 215, 214, 211, -1,
                            619, 615, 617, -1, 33, 32, 31, -1,
                            24, 26, 27, -1, 72, 73, 74, -1,
                            20, 19, 18, -1, 76, 78, 79, -1,
                            30, 29, 31, -1, 36, 35, 37, -1,
                            63, 65, 66, -1, 33, 34, 35, -1,
                            72, 71, 70, -1, 23, 20, 21, -1,
                            6, 5, 7, -1, 2, 1, 3, -1,
                            135, 133, 134, -1, 43, 42, 44, -1,
                            656, 655, 657, -1, 56, 55, 57, -1,
                            253, 252, 254, -1, 69, 68, 70, -1,
                            17, 16, 18, -1, 418, 424, 425, -1,
                            214, 212, 213, -1, 120, 122, 118, -1,
                            62, 59, 60, -1, 482, 481, 483, -1,
                            97, 94, 95, -1, 628, 627, 625, -1,
                            88, 93, 92, -1, 112, 113, 114, -1,
                            476, 475, 477, -1, 100, 103, 99, -1,
                            798, 796, 797, -1, 442, 447, 446, -1,
                            626, 625, 622, -1, 106, 107, 108, -1,
                            648, 646, 649, -1, 128, 124, 127, -1,
                            472, 471, 473, -1, 170, 169, 171, -1,
                            174, 173, 175, -1, 801, 798, 799, -1,
                            148, 147, 163, -1, 159, 156, 153, -1,
                            782, 784, 779, -1, 553, 552, 554, -1,
                            654, 653, 655, -1, 352, 355, 341, -1,
                            545, 544, 546, -1, 139, 138, 140, -1,
                            463, 464, 465, -1, 143, 142, 144, -1,
                            23, 22, 24, -1, 62, 61, 63, -1,
                            469, 467, 468, -1, 691, 698, 690, -1,
                            7, 9, 10, -1, 180, 189, 190, -1,
                            44, 46, 47, -1, 360, 333, 363, -1,
                            197, 194, 196, -1, 10, 9, 11, -1,
                            12, 11, 13, -1, 75, 74, 76, -1,
                            219, 218, 217, -1, 206, 205, 201, -1,
                            209, 208, 207, -1, 204, 202, 203, -1,
                            709, 710, 711, -1, 242, 239, 240, -1,
                            239, 244, 243, -1, 402, 401, 403, -1,
                            246, 248, 247, -1, 59, 58, 57, -1,
                            249, 248, 250, -1, 392, 397, 396, -1,
                            224, 221, 222, -1, 395, 392, 393, -1,
                            233, 232, 234, -1, 226, 228, 227, -1,
                            401, 400, 399, -1, 244, 246, 245, -1,
                            221, 226, 225, -1, 235, 234, 236, -1,
                            230, 229, 228, -1, 289, 285, 286, -1,
                            260, 259, 258, -1, 379, 381, 380, -1,
                            384, 382, 383, -1, 387, 389, 388, -1,
                            271, 273, 272, -1, 326, 322, 323, -1,
                            376, 375, 374, -1, 268, 266, 267, -1,
                            327, 329, 328, -1, 318, 315, 314, -1,
                            309, 308, 310, -1, 404, 403, 405, -1,
                            397, 399, 398, -1, 302, 304, 303, -1,
                            714, 713, 712, -1, 499, 496, 497, -1,
                            406, 405, 407, -1, 37, 39, 40, -1,
                            263, 265, 264, -1, 281, 278, 277, -1,
                            293, 289, 290, -1, 478, 477, 479, -1,
                            658, 657, 659, -1, 728, 727, 729, -1,
                            652, 651, 653, -1, 520, 504, 515, -1,
                            721, 719, 720, -1, 734, 733, 735, -1,
                            319, 321, 320, -1, 298, 295, 296, -1,
                            295, 300, 299, -1, 231, 230, 232, -1,
                            305, 304, 306, -1, 307, 306, 308, -1,
                            576, 580, 577, -1, 455, 453, 454, -1,
                            414, 420, 410, -1, 49, 48, 50, -1,
                            436, 437, 435, -1, 451, 448, 449, -1,
                            113, 112, 110, -1, 447, 449, 448, -1,
                            795, 797, 796, -1, 445, 442, 443, -1,
                            730, 729, 731, -1, 555, 554, 556, -1,
                            50, 52, 53, -1, 702, 706, 705, -1,
                            670, 667, 668, -1, 572, 569, 570, -1,
                            495, 497, 496, -1, 537, 536, 535, -1,
                            568, 570, 569, -1, 480, 479, 481, -1,
                            508, 517, 510, -1, 84, 85, 82, -1,
                            542, 540, 541, -1, 494, 492, 493, -1,
                            486, 490, 487, -1, 532, 534, 533, -1,
                            589, 586, 587, -1, 458, 463, 462, -1,
                            745, 746, 747, -1, 551, 550, 552, -1,
                            647, 645, 646, -1, 141, 140, 142, -1,
                            584, 582, 583, -1, 523, 527, 524, -1,
                            585, 587, 586, -1, 531, 529, 530, -1,
                            598, 599, 604, -1, 612, 601, 608, -1,
                            91, 88, 89, -1, 93, 95, 94, -1,
                            111, 110, 107, -1, 621, 622, 623, -1,
                            547, 546, 548, -1, 635, 633, 639, -1,
                            549, 548, 550, -1, 4, 3, 5, -1,
                            748, 750, 749, -1, 708, 705, 706, -1,
                            677, 676, 678, -1, 755, 759, 758, -1,
                            559, 563, 560, -1, 715, 714, 716, -1,
                            722, 720, 723, -1, 682, 681, 692, -1,
                            732, 731, 733, -1, 676, 675, 674, -1,
                            664, 668, 667, -1, 738, 742, 741, -1,
                            671, 672, 673, -1, 660, 659, 661, -1,
                            474, 473, 475, -1, 470, 468, 471, -1,
                            726, 725, 727, -1, 765, 767, 766, -1,
                            567, 565, 566, -1, 762, 763, 764, -1,
                            744, 741, 742, -1, 768, 767, 769, -1,
                            251, 250, 252, -1, 761, 758, 759, -1,
                            300, 302, 301, -1, 751, 750, 752, -1,
                            773, 774, 772, -1, 371, 345, 367, -1,
                            461, 458, 459, -1, 172, 171, 173, -1,
                            627, 628, 629, -1, 47, 46, 48, -1,
                            805, 803, 804, -1, 285, 281, 282, -1,
                            545, 543, 544, -1, 726, 724, 725, -1,
                            652, 650, 651, -1, 211, 216, 215, -1,
                            216, 211, 217, -1, 617, 618, 619, -1,
                            614, 616, 617, -1, 617, 615, 614, -1,
                            34, 33, 31, -1, 25, 24, 27, -1,
                            75, 72, 74, -1, 21, 20, 18, -1,
                            77, 76, 79, -1, 32, 30, 31, -1,
                            38, 36, 37, -1, 64, 63, 66, -1,
                            36, 33, 35, -1, 73, 72, 70, -1,
                            22, 23, 21, -1, 8, 6, 7, -1,
                            4, 2, 3, -1, 136, 135, 134, -1,
                            45, 43, 44, -1, 658, 656, 657, -1,
                            58, 56, 57, -1, 255, 253, 254, -1,
                            71, 69, 70, -1, 19, 17, 18, -1,
                            429, 430, 431, -1, 421, 422, 429, -1,
                            428, 427, 410, -1, 410, 421, 429, -1,
                            426, 431, 418, -1, 418, 419, 416, -1,
                            426, 428, 410, -1, 418, 416, 417, -1,
                            431, 410, 429, -1, 418, 417, 423, -1,
                            426, 410, 431, -1, 418, 423, 424, -1,
                            425, 426, 418, -1, 211, 214, 213, -1,
                            122, 120, 121, -1, 118, 117, 119, -1,
                            119, 120, 118, -1, 61, 62, 60, -1,
                            484, 482, 483, -1, 96, 97, 95, -1,
                            626, 628, 625, -1, 89, 88, 92, -1,
                            115, 112, 114, -1, 478, 476, 477, -1,
                            103, 100, 101, -1, 100, 99, 104, -1,
                            101, 102, 103, -1, 799, 798, 797, -1,
                            443, 442, 446, -1, 621, 626, 622, -1,
                            109, 106, 108, -1, 650, 648, 649, -1,
                            127, 130, 131, -1, 124, 125, 127, -1,
                            128, 126, 124, -1, 127, 131, 128, -1,
                            128, 129, 126, -1, 474, 472, 473, -1,
                            172, 170, 171, -1, 176, 174, 175, -1,
                            800, 801, 799, -1, 162, 148, 163, -1,
                            161, 164, 167, -1, 162, 163, 165, -1,
                            147, 148, 149, -1, 166, 162, 165, -1,
                            147, 149, 150, -1, 166, 164, 162, -1,
                            154, 150, 151, -1, 167, 164, 166, -1,
                            154, 151, 152, -1, 160, 161, 167, -1,
                            154, 147, 150, -1, 155, 160, 167, -1,
                            157, 152, 153, -1, 159, 160, 155, -1,
                            158, 154, 152, -1, 156, 159, 155, -1,
                            153, 156, 157, -1, 157, 158, 152, -1,
                            789, 790, 792, -1, 774, 773, 775, -1,
                            789, 772, 790, -1, 776, 775, 777, -1,
                            791, 789, 792, -1, 776, 777, 778, -1,
                            788, 791, 792, -1, 776, 774, 775, -1,
                            787, 788, 792, -1, 784, 778, 779, -1,
                            781, 787, 792, -1, 784, 776, 778, -1,
                            786, 787, 781, -1, 782, 779, 780, -1,
                            785, 786, 781, -1, 781, 780, 785, -1,
                            782, 783, 784, -1, 780, 781, 782, -1,
                            555, 553, 554, -1, 656, 654, 655, -1,
                            332, 335, 336, -1, 346, 351, 363, -1,
                            332, 336, 337, -1, 351, 359, 363, -1,
                            332, 337, 338, -1, 351, 358, 359, -1,
                            341, 332, 338, -1, 352, 341, 358, -1,
                            341, 338, 342, -1, 358, 341, 357, -1,
                            341, 342, 339, -1, 357, 341, 356, -1,
                            346, 369, 347, -1, 364, 365, 345, -1,
                            346, 347, 348, -1, 354, 364, 345, -1,
                            346, 348, 349, -1, 353, 354, 345, -1,
                            346, 349, 350, -1, 355, 353, 345, -1,
                            346, 350, 351, -1, 341, 355, 345, -1,
                            358, 351, 352, -1, 343, 344, 341, -1,
                            341, 340, 356, -1, 345, 343, 341, -1,
                            341, 339, 340, -1, 547, 545, 546, -1,
                            141, 139, 140, -1, 462, 463, 465, -1,
                            145, 143, 144, -1, 25, 23, 24, -1,
                            64, 62, 63, -1, 470, 469, 468, -1,
                            691, 688, 696, -1, 685, 684, 683, -1,
                            699, 694, 695, -1, 687, 685, 683, -1,
                            699, 682, 694, -1, 686, 687, 683, -1,
                            699, 695, 700, -1, 686, 688, 687, -1,
                            699, 700, 689, -1, 696, 688, 686, -1,
                            698, 689, 690, -1, 698, 691, 696, -1,
                            696, 697, 698, -1, 698, 699, 689, -1,
                            8, 7, 10, -1, 195, 196, 188, -1,
                            194, 197, 198, -1, 195, 188, 186, -1,
                            199, 194, 198, -1, 187, 186, 184, -1,
                            193, 194, 199, -1, 187, 184, 185, -1,
                            179, 193, 199, -1, 182, 185, 183, -1,
                            179, 192, 193, -1, 187, 195, 186, -1,
                            191, 192, 179, -1, 182, 187, 185, -1,
                            178, 191, 179, -1, 190, 183, 180, -1,
                            178, 181, 191, -1, 180, 181, 189, -1,
                            183, 190, 182, -1, 178, 189, 181, -1,
                            45, 44, 47, -1, 363, 359, 362, -1,
                            334, 335, 332, -1, 363, 362, 361, -1,
                            333, 334, 332, -1, 363, 361, 360, -1,
                            363, 333, 332, -1, 195, 197, 196, -1,
                            12, 10, 11, -1, 14, 12, 13, -1,
                            77, 75, 76, -1, 211, 219, 217, -1,
                            201, 207, 206, -1, 205, 204, 201, -1,
                            201, 209, 207, -1, 201, 204, 203, -1,
                            708, 707, 709, -1, 709, 711, 708, -1,
                            241, 242, 240, -1, 240, 239, 243, -1,
                            404, 402, 403, -1, 247, 245, 246, -1,
                            248, 249, 247, -1, 60, 59, 57, -1,
                            251, 249, 250, -1, 393, 392, 396, -1,
                            223, 224, 222, -1, 394, 395, 393, -1,
                            235, 233, 234, -1, 225, 226, 227, -1,
                            400, 401, 402, -1, 400, 398, 399, -1,
                            243, 244, 245, -1, 222, 221, 225, -1,
                            237, 235, 236, -1, 229, 230, 231, -1,
                            229, 227, 228, -1, 286, 288, 289, -1,
                            285, 284, 286, -1, 289, 287, 285, -1,
                            261, 262, 260, -1, 259, 257, 258, -1,
                            258, 261, 260, -1, 380, 378, 377, -1,
                            381, 382, 380, -1, 380, 377, 379, -1,
                            385, 386, 384, -1, 382, 381, 383, -1,
                            383, 385, 384, -1, 388, 386, 385, -1,
                            389, 390, 388, -1, 388, 385, 387, -1,
                            272, 270, 269, -1, 273, 274, 272, -1,
                            272, 269, 271, -1, 323, 325, 326, -1,
                            322, 321, 323, -1, 326, 324, 322, -1,
                            377, 378, 376, -1, 375, 373, 374, -1,
                            374, 377, 376, -1, 269, 270, 268, -1,
                            266, 265, 267, -1, 267, 269, 268, -1,
                            328, 326, 325, -1, 329, 330, 328, -1,
                            328, 325, 327, -1, 314, 317, 318, -1,
                            315, 313, 314, -1, 318, 316, 315, -1,
                            311, 309, 310, -1, 406, 404, 405, -1,
                            396, 397, 398, -1, 303, 301, 302, -1,
                            304, 305, 303, -1, 713, 714, 715, -1,
                            711, 710, 712, -1, 712, 713, 711, -1,
                            500, 501, 499, -1, 499, 497, 498, -1,
                            498, 500, 499, -1, 408, 406, 407, -1,
                            38, 37, 40, -1, 264, 262, 261, -1,
                            265, 266, 264, -1, 264, 261, 263, -1,
                            277, 280, 281, -1, 278, 276, 277, -1,
                            281, 279, 278, -1, 290, 292, 293, -1,
                            289, 288, 290, -1, 293, 291, 289, -1,
                            480, 478, 479, -1, 660, 658, 659, -1,
                            730, 728, 729, -1, 654, 652, 653, -1,
                            516, 521, 520, -1, 504, 514, 515, -1,
                            515, 516, 520, -1, 722, 721, 720, -1,
                            736, 734, 735, -1, 320, 318, 317, -1,
                            321, 322, 320, -1, 320, 317, 319, -1,
                            297, 298, 296, -1, 296, 295, 299, -1,
                            233, 231, 232, -1, 307, 305, 306, -1,
                            309, 307, 308, -1, 577, 578, 579, -1,
                            580, 581, 577, -1, 577, 579, 576, -1,
                            456, 455, 454, -1, 410, 427, 411, -1,
                            419, 418, 420, -1, 410, 411, 412, -1,
                            415, 419, 420, -1, 410, 412, 413, -1,
                            414, 415, 420, -1, 410, 413, 414, -1,
                            51, 49, 50, -1, 433, 434, 436, -1,
                            436, 435, 433, -1, 439, 440, 437, -1,
                            437, 438, 435, -1, 436, 439, 437, -1,
                            450, 451, 449, -1, 111, 113, 110, -1,
                            446, 447, 448, -1, 794, 795, 796, -1,
                            444, 445, 443, -1, 732, 730, 731, -1,
                            557, 555, 556, -1, 51, 50, 53, -1,
                            703, 704, 702, -1, 702, 705, 703, -1,
                            669, 670, 668, -1, 573, 574, 572, -1,
                            572, 570, 571, -1, 571, 573, 572, -1,
                            494, 493, 495, -1, 495, 496, 494, -1,
                            536, 537, 538, -1, 536, 534, 535, -1,
                            534, 536, 533, -1, 567, 566, 568, -1,
                            568, 569, 567, -1, 482, 480, 481, -1,
                            520, 521, 511, -1, 513, 514, 504, -1,
                            519, 511, 512, -1, 503, 513, 504, -1,
                            519, 520, 511, -1, 503, 506, 513, -1,
                            517, 512, 510, -1, 507, 506, 503, -1,
                            508, 510, 509, -1, 505, 507, 503, -1,
                            509, 505, 508, -1, 512, 517, 518, -1,
                            518, 519, 512, -1, 509, 507, 505, -1,
                            82, 83, 84, -1, 81, 86, 82, -1,
                            82, 85, 81, -1, 543, 542, 541, -1,
                            492, 494, 491, -1, 491, 490, 492, -1,
                            487, 488, 489, -1, 490, 491, 487, -1,
                            487, 489, 486, -1, 531, 530, 532, -1,
                            532, 533, 531, -1, 590, 591, 589, -1,
                            589, 587, 588, -1, 588, 590, 589, -1,
                            459, 458, 462, -1, 744, 743, 745, -1,
                            745, 747, 744, -1, 553, 551, 552, -1,
                            648, 647, 646, -1, 143, 141, 142, -1,
                            582, 584, 581, -1, 581, 580, 582, -1,
                            524, 525, 526, -1, 527, 528, 524, -1,
                            524, 526, 523, -1, 584, 583, 585, -1,
                            585, 586, 584, -1, 529, 531, 528, -1,
                            528, 527, 529, -1, 593, 609, 594, -1,
                            600, 605, 601, -1, 593, 594, 595, -1,
                            602, 600, 601, -1, 593, 595, 597, -1,
                            599, 600, 602, -1, 596, 593, 597, -1,
                            603, 599, 602, -1, 596, 597, 598, -1,
                            598, 604, 596, -1, 604, 599, 603, -1,
                            609, 610, 612, -1, 601, 605, 606, -1,
                            609, 593, 610, -1, 601, 606, 607, -1,
                            611, 609, 612, -1, 601, 607, 608, -1,
                            608, 611, 612, -1, 90, 91, 89, -1,
                            92, 93, 94, -1, 106, 111, 107, -1,
                            624, 621, 623, -1, 549, 547, 548, -1,
                            641, 637, 635, -1, 642, 643, 640, -1,
                            640, 641, 635, -1, 635, 634, 632, -1,
                            633, 638, 636, -1, 635, 632, 633, -1,
                            639, 640, 635, -1, 633, 636, 639, -1,
                            639, 642, 640, -1, 551, 549, 550, -1,
                            6, 4, 5, -1, 748, 747, 746, -1,
                            750, 751, 749, -1, 749, 747, 748, -1,
                            707, 708, 706, -1, 679, 677, 678, -1,
                            756, 757, 755, -1, 755, 758, 756, -1,
                            560, 562, 559, -1, 562, 560, 561, -1,
                            560, 563, 564, -1, 717, 715, 716, -1,
                            724, 722, 723, -1, 681, 683, 684, -1,
                            693, 694, 682, -1, 681, 684, 692, -1,
                            692, 693, 682, -1, 734, 732, 733, -1,
                            675, 676, 677, -1, 673, 672, 674, -1,
                            674, 675, 673, -1, 665, 666, 664, -1,
                            664, 667, 665, -1, 739, 740, 738, -1,
                            738, 741, 739, -1, 670, 669, 671, -1,
                            671, 673, 670, -1, 662, 660, 661, -1,
                            476, 474, 475, -1, 472, 470, 471, -1,
                            728, 726, 727, -1, 765, 764, 763, -1,
                            767, 768, 766, -1, 766, 764, 765, -1,
                            565, 567, 564, -1, 564, 563, 565, -1,
                            761, 760, 762, -1, 762, 764, 761, -1,
                            743, 744, 742, -1, 770, 768, 769, -1,
                            253, 251, 252, -1, 760, 761, 759, -1,
                            299, 300, 301, -1, 753, 751, 752, -1,
                            789, 773, 772, -1, 369, 346, 371, -1,
                            345, 365, 366, -1, 370, 369, 371, -1,
                            345, 366, 367, -1, 368, 370, 371, -1,
                            371, 367, 368, -1, 460, 461, 459, -1,
                            174, 172, 173, -1, 630, 627, 629, -1,
                            49, 47, 48, -1, 806, 805, 804, -1,
                            282, 284, 285, -1, 281, 280, 282, -1,
                            285, 283, 281 ]
                        ccw TRUE
                        solid FALSE
                        convex TRUE
                        creaseAngle 0

                      }

                    }

                }

            }

        },
          
        Group {
          children 
            Transform {
              translation 0.039999992 0 0
              rotation 0 0 1  0
              scale 1 1 1
              scaleOrientation 0 0 1  0

            }

        } ]

    }

}
