#VRML V2.0 utf8


Group {
  children 
    Group {
      children 
        Group {
          children 
            Transform {
              translation 0.02248187 -0.0073687681 -0.00016423978
              children 
                Transform {
                  rotation 0 0 0.99999642  0.17453241
                  children 
                    Transform {
                      rotation 0 0 1  0
                      children 
                        Transform {
                          rotation -1 -0 -0  3.1415923
                          children 
                            Group {
                              children 
                                Transform {
                                  translation 0.00072802603 -0.0014826506 7.1711838e-008
                                  children 
                                    Transform {
                                      rotation 0 0 1.0000035  0.10471841
                                      children 
                                        Transform {
                                          rotation 0 0 1  0
                                          children 
                                            Transform {
                                              rotation -1 -0 -0  3.141588
                                              children 
                                                Shape {
                                                  appearance 
                                                  Appearance {
                                                    material 
                                                    Material {
                                                      diffuseColor 0.5 0.5 0.5

                                                    }

                                                  }
                                                  geometry 
                                                  IndexedFaceSet {
                                                    coord 
                                                    Coordinate {
                                                      point [ -0.02279436 0.0083332649 0.0059876442,
                                                          0.01444995 0.00181365 0.0059999819,
                                                          0.01144999 0.00181365 0.0059999819,
                                                          0.01444995 -0.0033723109 -0.0049999952,
                                                          0.01444995 -0.0063112369 -0.0040450692,
                                                          0.01444995 -0.0081276288 -0.001545071,
                                                          0.01444995 -0.0081276288 0.0015450109,
                                                          0.01444995 -0.0074173799 0.002938926,
                                                          0.01444995 -0.0049174419 0.0047552581,
                                                          0.01444995 0.00181365 -0.0059999819,
                                                          -0.0099999905 -0.0064173932 0.0047552581,
                                                          -0.006999969 -0.0048723221 0.0049999952,
                                                          -0.0099999905 -0.0089173913 0.002938926,
                                                          -0.006999969 -0.0089173913 0.002938926,
                                                          -0.0099999905 -0.0096275797 0.0015450109,
                                                          -0.0099999905 -0.0096275797 -0.001545071,
                                                          -0.006999969 -0.0096275797 -0.001545071,
                                                          -0.006999969 -0.0078112478 -0.0040450692,
                                                          -0.006999969 -0.0048723221 -0.0049999952,
                                                          -0.022589801 0.0096275797 -0.0045913449,
                                                          -0.02311998 0.0095930686 -0.0049663782,
                                                          0.020249959 0.0065541859 -0.0049634571,
                                                          0.020249959 0.0066276188 -0.0044999709,
                                                          0.020249959 0.0060092802 -0.005713522,
                                                          -0.022549979 0.0096275797 0.0044999709,
                                                          -0.022589801 0.0096275797 0.0045913449,
                                                          -0.02311998 0.0095930686 0.0049663782,
                                                          -0.024225529 0.0089777112 0.0058079362,
                                                          -0.02464371 0.0082709193 0.0059999819,
                                                          -0.02242988 0.0083751669 0.0059774509,
                                                          -0.02207475 0.0082826614 0.0059876442,
                                                          0.020249959 0.0051276078 0.0059999819,
                                                          0.020249959 0.0060092802 0.0057134619,
                                                          0.020249959 0.0065541859 0.0049634571,
                                                          0.020249959 0.0066276188 0.0044999709,
                                                          0.020249959 0.0027449131 -0.0059238672,
                                                          0.020249959 0.0031276341 0.0059999819,
                                                          -0.006999969 -0.0096275797 0.0015450109,
                                                          -0.006999969 -0.0064173932 -0.0047552581,
                                                          -0.006999969 -0.0064173932 0.0047552581,
                                                          0.024749991 0.0026276109 0.0024999969,
                                                          0.024749991 0.0026276109 -0.0024999969,
                                                          0.024711899 0.00243628 -0.0024999969,
                                                          0.02460354 0.0022740359 0.0024999969,
                                                          -0.022549979 0.0096275797 -0.0044999709,
                                                          -0.0099999905 -0.0048723221 -0.0049999952,
                                                          -0.0099999905 -0.0048723221 0.0049999952,
                                                          -0.0099999905 -0.0064173932 -0.0047552581,
                                                          -0.0099999905 -0.0078112478 -0.0040450692,
                                                          -0.0099999905 -0.0078112478 0.0040450692,
                                                          0.02274996 0.0066276188 0.0024999969,
                                                          0.023367999 0.006529748 0.0024999969,
                                                          0.023367999 0.006529748 -0.0024999969,
                                                          0.024749991 0.0046275849 -0.0024999969,
                                                          -0.02465206 0.008245646 0.0027999871,
                                                          -0.02465206 0.008245646 -0.0027999871,
                                                          -0.023367999 0.0095297089 -0.0027999871,
                                                          0.024749991 0.0046275849 0.0024999969,
                                                          0.02274996 0.0066276188 -0.0024999969,
                                                          0.01144999 -0.0049174419 -0.0047552581,
                                                          0.01144999 -0.0074173799 -0.002938926,
                                                          -0.02274996 0.0096275797 -0.0047044749,
                                                          -0.023367999 0.0095297089 0.0027999871,
                                                          -0.023426291 0.0095098009 0.0052103992,
                                                          -0.023426291 0.0095098009 -0.0052103992,
                                                          -0.024225529 0.0089777112 -0.0058079362,
                                                          -0.024367981 0.0088031879 -0.0027999871,
                                                          -0.024367981 0.0088031879 0.0027999871,
                                                          -0.024481891 0.008627831 0.0059542651,
                                                          -0.024481891 0.008627831 -0.0059542651,
                                                          -0.024749991 0.0076276059 -0.0059999819,
                                                          -0.024749991 0.0076276059 0.0059999819,
                                                          -0.024249971 0.0051276078 0.0059999819,
                                                          -0.0244413 0.0051656961 0.0059999819,
                                                          -0.0244413 0.0051656961 -0.0059999819,
                                                          -0.024711899 0.0054362412 0.0059999819,
                                                          -0.024749991 0.0056276321 0.0059999819,
                                                          -0.024749991 0.0056276321 -0.0059999819,
                                                          0.024367981 0.0058031669 0.0024999969,
                                                          0.02465206 0.005245625 0.0024999969,
                                                          0.024711899 0.00243628 0.0024999969,
                                                          0.020249959 0.0063411589 0.0053816428,
                                                          0.020249959 0.0055911541 0.005926549,
                                                          0.020249959 0.0027449131 0.0059238672,
                                                          0.020249959 0.002420485 0.0057070851,
                                                          0.020249959 0.0055911541 -0.005926549,
                                                          0.02465206 0.005245625 -0.0024999969,
                                                          0.024367981 0.0058031669 -0.0024999969,
                                                          0.02460354 0.0022740359 -0.0024999969,
                                                          0.020249959 0.0051276078 -0.0059999819,
                                                          0.020249959 0.0031276341 -0.0059999819,
                                                          0.01144999 0.00181365 -0.0059999819,
                                                          -0.02460354 0.0052740569 -0.0059999819,
                                                          -0.02464371 0.0082709193 -0.0059999819,
                                                          -0.024711899 0.0054362412 -0.0059999819,
                                                          -0.024249971 0.0051276078 -0.0059999819,
                                                          -0.02460354 0.0052740569 0.0059999819,
                                                          -0.02274996 0.0096275797 0.0047044749 ]

                                                    }
                                                    normal 
                                                    Normal {
                                                      vector [  ]

                                                    }
                                                    coordIndex [ 16, 17, 60, -1, 6, 7, 13, -1,
                                                        33, 34, 97, -1, 82, 79, 78, -1,
                                                        89, 90, 70, -1, 0, 29, 68, -1,
                                                        57, 31, 36, -1, 2, 11, 1, -1,
                                                        64, 56, 20, -1, 8, 1, 11, -1,
                                                        17, 16, 15, -1, 85, 23, 87, -1,
                                                        12, 13, 49, -1, 69, 85, 89, -1,
                                                        81, 51, 33, -1, 81, 33, 26, -1,
                                                        10, 73, 49, -1, 57, 40, 41, -1,
                                                        84, 8, 7, -1, 65, 23, 85, -1,
                                                        93, 55, 54, -1, 48, 74, 47, -1,
                                                        73, 96, 49, -1, 32, 78, 51, -1,
                                                        93, 54, 28, -1, 96, 12, 49, -1,
                                                        64, 21, 23, -1, 74, 45, 47, -1,
                                                        29, 30, 31, -1, 7, 8, 39, -1,
                                                        51, 78, 87, -1, 54, 71, 28, -1,
                                                        74, 95, 45, -1, 5, 4, 88, -1,
                                                        82, 32, 27, -1, 83, 80, 40, -1,
                                                        37, 14, 15, -1, 30, 0, 31, -1,
                                                        5, 60, 4, -1, 44, 19, 61, -1,
                                                        35, 90, 42, -1, 65, 66, 67, -1,
                                                        0, 28, 31, -1, 40, 80, 42, -1,
                                                        21, 20, 61, -1, 44, 61, 97, -1,
                                                        60, 17, 4, -1, 59, 4, 17, -1,
                                                        65, 67, 27, -1, 28, 71, 76, -1,
                                                        83, 36, 1, -1, 88, 4, 35, -1,
                                                        44, 97, 25, -1, 74, 48, 92, -1,
                                                        67, 68, 27, -1, 28, 76, 75, -1,
                                                        4, 3, 35, -1, 44, 25, 24, -1,
                                                        48, 15, 92, -1, 87, 23, 52, -1,
                                                        28, 75, 96, -1, 38, 17, 48, -1,
                                                        79, 57, 53, -1, 4, 59, 3, -1,
                                                        25, 50, 24, -1, 23, 21, 52, -1,
                                                        58, 19, 44, -1, 28, 96, 73, -1,
                                                        59, 9, 3, -1, 38, 47, 45, -1,
                                                        42, 90, 41, -1, 28, 73, 72, -1,
                                                        18, 9, 59, -1, 31, 57, 79, -1,
                                                        64, 20, 21, -1, 50, 44, 24, -1,
                                                        9, 90, 35, -1, 28, 72, 2, -1,
                                                        20, 56, 62, -1, 75, 94, 92, -1,
                                                        28, 2, 1, -1, 45, 95, 91, -1,
                                                        18, 45, 91, -1, 20, 62, 26, -1,
                                                        97, 34, 25, -1, 68, 29, 82, -1,
                                                        28, 1, 36, -1, 18, 91, 9, -1,
                                                        34, 50, 25, -1, 76, 77, 94, -1,
                                                        29, 31, 82, -1, 62, 63, 26, -1,
                                                        70, 55, 93, -1, 28, 36, 31, -1,
                                                        89, 85, 86, -1, 34, 33, 50, -1,
                                                        6, 37, 16, -1, 0, 30, 29, -1,
                                                        55, 70, 71, -1, 33, 51, 50, -1,
                                                        32, 81, 63, -1, 53, 41, 90, -1,
                                                        55, 71, 54, -1, 6, 88, 43, -1,
                                                        50, 51, 52, -1, 71, 70, 77, -1,
                                                        6, 5, 88, -1, 84, 43, 80, -1,
                                                        73, 46, 72, -1, 62, 56, 64, -1,
                                                        90, 9, 91, -1, 73, 10, 46, -1,
                                                        58, 22, 19, -1, 62, 64, 63, -1,
                                                        69, 66, 65, -1, 90, 91, 95, -1,
                                                        72, 46, 2, -1, 13, 12, 14, -1,
                                                        22, 61, 19, -1, 63, 64, 65, -1,
                                                        80, 43, 88, -1, 66, 69, 68, -1,
                                                        11, 46, 10, -1, 90, 95, 74, -1,
                                                        14, 12, 96, -1, 52, 21, 58, -1,
                                                        66, 68, 67, -1, 90, 74, 92, -1,
                                                        21, 22, 58, -1, 78, 79, 86, -1,
                                                        68, 69, 93, -1, 97, 61, 20, -1,
                                                        90, 92, 94, -1, 92, 15, 14, -1,
                                                        10, 49, 39, -1, 90, 94, 77, -1,
                                                        49, 13, 7, -1, 8, 84, 83, -1,
                                                        28, 0, 68, -1, 2, 46, 11, -1,
                                                        90, 77, 70, -1, 5, 16, 60, -1,
                                                        37, 6, 13, -1, 26, 33, 97, -1,
                                                        32, 82, 78, -1, 93, 89, 70, -1,
                                                        40, 57, 36, -1, 39, 8, 11, -1,
                                                        48, 17, 15, -1, 86, 85, 87, -1,
                                                        93, 69, 89, -1, 63, 81, 26, -1,
                                                        53, 57, 41, -1, 43, 84, 7, -1,
                                                        69, 65, 85, -1, 81, 32, 51, -1,
                                                        65, 64, 23, -1, 49, 7, 39, -1,
                                                        52, 51, 87, -1, 68, 82, 27, -1,
                                                        36, 83, 40, -1, 16, 37, 15, -1,
                                                        88, 35, 42, -1, 41, 40, 42, -1,
                                                        22, 21, 61, -1, 38, 59, 17, -1,
                                                        8, 83, 1, -1, 47, 38, 48, -1,
                                                        86, 79, 53, -1, 50, 58, 44, -1,
                                                        18, 38, 45, -1, 38, 18, 59, -1,
                                                        82, 31, 79, -1, 3, 9, 35, -1,
                                                        96, 75, 92, -1, 75, 76, 94, -1,
                                                        53, 89, 86, -1, 5, 6, 16, -1,
                                                        27, 32, 63, -1, 89, 53, 90, -1,
                                                        7, 6, 43, -1, 58, 50, 52, -1,
                                                        76, 71, 77, -1, 83, 84, 80, -1,
                                                        37, 13, 14, -1, 27, 63, 65, -1,
                                                        42, 80, 88, -1, 39, 11, 10, -1,
                                                        92, 14, 96, -1, 87, 78, 86, -1,
                                                        28, 68, 93, -1, 26, 97, 20 ]
                                                    ccw TRUE
                                                    solid FALSE
                                                    convex TRUE
                                                    creaseAngle 0

                                                  }

                                                }

                                            }

                                        }

                                    }

                                }

                            }

                        }

                    }

                }

            }

        }

    }

}
