#VRML V2.0 utf8


Group {
  children 
    Group {
      children 
        Group {
          children 
            Transform {
              translation 0.012635712 -0.0083472822 0.0020131487
              children 
                Transform {
                  rotation 0 0 0.99999899  0.17650458
                  children 
                    Transform {
                      rotation -0 -0.99999672 -0  0.17165419
                      children 
                        Transform {
                          rotation 1 0 0  3.1262319
                          children 
                            Group {
                              children 
                                Transform {
                                  translation 0.00017505884 -0.0019693375 0.0020225346
                                  children 
                                    Transform {
                                      rotation 0 0 0.99999881  0.17388289
                                      children 
                                        Transform {
                                          rotation 0 0.93793899 0  0.0013810679
                                          children 
                                            Transform {
                                              rotation 1 0 0  3.1267233
                                              children 
                                                Shape {
                                                  appearance 
                                                  Appearance {
                                                    material 
                                                    Material {
                                                      diffuseColor 0.5 0.5 0.5

                                                    }

                                                  }
                                                  geometry 
                                                  IndexedFaceSet {
                                                    coord 
                                                    Coordinate {
                                                      point [ -0.02992486 -0.003203928 0.003855407,
                                                          -0.029750161 -0.0040156841 0.004864275,
                                                          -0.02953344 -0.0037261839 0.0061157942,
                                                          -0.029950321 -0.002552747 0.003708302,
                                                          -0.029924629 -0.001899302 0.0038564799,
                                                          -0.029853521 -0.003725945 0.0042673941,
                                                          -0.029853459 -0.001379311 0.004267632,
                                                          -0.029750699 -0.001090466 0.0048610559,
                                                          -0.029636741 -0.001089751 0.0055191512,
                                                          -0.029636201 -0.0040149679 0.005522429,
                                                          -0.029533381 -0.001379489 0.0061160321,
                                                          -0.029462211 -0.003206193 0.006526947,
                                                          -0.02946203 -0.001901507 0.006528019,
                                                          -0.029436581 -0.002552747 0.0066751828,
                                                          -0.00076615397 -0.0093027353 0.000182823,
                                                          -0.00018819601 -0.0083984127 0.0035205481,
                                                          -0.001344084 -0.0083984127 -0.003154933,
                                                          -0.0042120209 -0.0083984127 -0.0026583071,
                                                          -0.02350026 -0.0059277411 0.0100739,
                                                          -0.02446055 -0.0079647303 0.007469594,
                                                          -0.02450132 -0.0093027353 0.0042927261,
                                                          -0.025531109 -0.0079646697 0.001286983,
                                                          -0.02550238 -0.0059277411 -0.001488447,
                                                          -0.025657229 -0.002552747 -0.002382814,
                                                          -0.02550238 0.00082223502 -0.001488447,
                                                          -0.025531109 0.002859175 0.001287043,
                                                          -0.02392333 0.003292918 0.0076304669,
                                                          -0.02350026 0.00082224299 0.01007384,
                                                          -0.024069071 0.00057300198 0.0097305765,
                                                          -0.02450132 0.0041971798 0.004292666,
                                                          -0.02507925 0.0032928579 0.00095491699,
                                                          -0.02507925 -0.0083984127 0.00095491699,
                                                          -0.021633379 -0.0093027353 0.0037960999,
                                                          -0.02392333 -0.0083984127 0.0076304669,
                                                          -0.021055451 -0.0083984127 0.007133841,
                                                          -0.023345411 -0.002552747 0.0109682,
                                                          -0.02499586 0.003697037 0.0043783179,
                                                          -0.025922591 0.00057302503 -0.000973941,
                                                          -0.026066121 -0.002552747 -0.0018025039,
                                                          -0.025922591 -0.005678474 -0.000973941,
                                                          -0.024069071 -0.005678534 0.0097305765,
                                                          -0.02499586 -0.0088025331 0.0043783179,
                                                          0.00527209 -0.0033499589 0.0071117282,
                                                          0.0084978929 -0.0068823691 0.003033638,
                                                          0.008579432 -0.0055882931 0.0052818651,
                                                          0.0099872937 -0.006809473 0.001909792,
                                                          0.01005649 -0.0067739482 0.0021252029,
                                                          0.01000982 -0.0064954162 0.003430008,
                                                          0.0097577572 -0.005572855 0.0050513139,
                                                          0.0085417619 -0.0063828821 0.0042431951,
                                                          0.01024043 -0.0041546822 0.0060778852,
                                                          0.0094803572 -0.0046599498 0.0058921571,
                                                          0.0099229207 -0.0061559081 0.004196763,
                                                          0.01099473 -0.005871593 0.0041233301,
                                                          0.0082548847 0.0093027353 -0.0021674631,
                                                          0.02461165 0.008217751 -0.0069751139,
                                                          0.02473074 0.0079815984 -0.00080119801,
                                                          0.020129791 0.0086081624 -0.0079544177,
                                                          0.02292579 0.0080993166 -0.008452653,
                                                          0.02553945 0.0070023532 -0.0086231232,
                                                          0.024885289 0.0060429568 -0.0098679056,
                                                          0.02003604 0.005540668 -0.01048868,
                                                          0.025493139 0.003252804 -0.01083832,
                                                          0.02246153 0.0037036531 -0.01083964,
                                                          0.021281829 0.0040578842 -0.01076424,
                                                          0.0084642759 -0.001566946 -0.0099452734,
                                                          0.0084182024 0.0078250756 -0.0078647127,
                                                          0.02007651 0.007847189 -0.0090529323,
                                                          0.020044081 0.0068061939 -0.0099221459,
                                                          0.0200541 0.0041592121 -0.0106858,
                                                          0.0084642759 0.0037805431 -0.0099452734,
                                                          0.0070279832 0.0037806029 -0.0096123209,
                                                          0.0079789162 0.0051488872 -0.0096962452,
                                                          0.0083993068 0.0060382481 -0.0093981624,
                                                          0.0083978772 0.0070149889 -0.0087444177,
                                                          0.020201679 0.0090569248 -0.0066733952,
                                                          0.021103909 0.0089589348 -0.001463055,
                                                          0.02139383 0.0084086647 0.000211479,
                                                          0.02172696 0.0078425398 0.001191258,
                                                          0.02254927 0.0037812591 0.0031338329,
                                                          0.01136714 0.002950429 0.0065822001,
                                                          0.02362608 0.0037258861 0.002801775,
                                                          0.02649593 0.002262949 0.0019167661,
                                                          0.02856081 0.0052177901 -0.00092144503,
                                                          0.026529901 0.0065616961 -2.94934e-005,
                                                          0.02609914 0.007431685 -0.001225173,
                                                          0.02226525 0.0060909982 0.002625942,
                                                          0.027841739 0.0039250851 0.00091893203,
                                                          0.024671851 0.0034450879 0.0024793141,
                                                          0.02737039 -0.001593112 -0.00071843102,
                                                          0.02825629 -0.001232981 -0.001335918,
                                                          0.027884839 -0.00048511499 0.00017947301,
                                                          0.02901536 0.000142305 -0.00071810198,
                                                          0.026655011 -0.00023938299 0.001145362,
                                                          0.02974158 0.00077143399 -0.00208956,
                                                          0.02813655 0.00087473501 0.00079716003,
                                                          0.0266323 0.00096215698 0.001689672,
                                                          0.029319821 0.001758694 -0.00034593401,
                                                          0.029950321 0.0020531409 -0.0019822121,
                                                          0.029135101 0.003432452 -0.000261732,
                                                          0.0298314 0.0033167 -0.001936137,
                                                          0.027231511 0.0031180379 0.001542091,
                                                          0.028293779 0.0046379562 8.1899598e-005,
                                                          0.02610939 -0.0024935601 -0.001783549,
                                                          0.02576148 -0.0026800029 -0.0030076499,
                                                          0.02637952 -0.00201106 -0.00065938401,
                                                          0.01192688 -0.005609035 0.003960609,
                                                          0.01189494 -0.003870904 0.0057740211,
                                                          0.01125442 -0.0062710638 0.002885937,
                                                          0.01197749 -0.004834055 0.004979312,
                                                          0.01065111 -0.0051577678 0.0052148099,
                                                          0.01169049 -0.0027796619 0.0063145161,
                                                          0.0097956648 -0.002934515 0.0066182609,
                                                          0.01136714 -0.0015862579 0.0065822001,
                                                          0.01073241 0.0043821931 0.0065202112,
                                                          0.01081526 0.005865097 0.0057181711,
                                                          0.01099896 0.0052307239 0.0061124559,
                                                          0.01071935 0.00619626 0.0055123558,
                                                          0.01035678 0.004149436 0.0066360231,
                                                          0.0025908351 -0.0033499589 -0.0083729615,
                                                          0.0063208928 -0.0055882931 -0.0077616568,
                                                          0.0072033401 -0.0060996409 -0.007319808,
                                                          0.0073575969 -0.006809473 -0.0059245219,
                                                          0.0075063701 -0.0055703521 -0.0079433322,
                                                          0.007792592 -0.006809473 -0.0058721299,
                                                          0.0070471158 -0.002924084 -0.0094438791,
                                                          0.0069630742 -0.0046579828 -0.0086404681,
                                                          0.007746696 -0.004307746 -0.0090040565,
                                                          0.0079493523 -0.0061540599 -0.007194519,
                                                          0.0089109531 -0.0057604308 -0.0076671238,
                                                          0.0096379509 -0.0062335129 -0.0065239072,
                                                          0.01017367 -0.006127357 -0.0064545861,
                                                          0.0089370599 -0.005020678 -0.0085626841,
                                                          0.0099478364 -0.005655407 -0.0075811739,
                                                          0.0096464753 -0.0049219718 -0.0085566631,
                                                          0.0092821121 -0.0039533968 -0.009318768,
                                                          0.0082575083 -0.0050538769 -0.0084949126,
                                                          0.0074939718 -0.001566946 -0.0097867837,
                                                          0.025518229 -0.002637326 -0.0060853362,
                                                          0.02486985 -9.9789802e-005 -0.01035714,
                                                          0.0244745 0.0023087261 -0.0109682,
                                                          0.025870381 0.0029627681 -0.01081758,
                                                          0.026451459 0.004118084 -0.01033502,
                                                          0.027168451 0.0035565491 -0.01020032,
                                                          0.02751183 0.0050352812 -0.0091041317,
                                                          0.027266139 0.0048305392 -0.0095193377,
                                                          0.028238351 0.0040303459 -0.0091752997,
                                                          0.02789223 0.005352377 -0.008461236,
                                                          0.02600467 0.0025091169 -0.01082617,
                                                          0.027424689 0.00269103 -0.01021665,
                                                          0.02859181 0.002836227 -0.0091978898,
                                                          0.029519079 0.0028962491 -0.0075457091,
                                                          0.027403049 0.001788854 -0.01021528,
                                                          0.028562 0.0015913839 -0.009196043,
                                                          0.02583742 0.001589536 -0.0108155,
                                                          0.02710568 0.00093661802 -0.01019626,
                                                          0.028151689 0.00041556999 -0.009169816,
                                                          0.026561139 0.000216268 -0.01016145,
                                                          0.027400371 -0.00057832099 -0.0091218352,
                                                          0.02810853 -0.001306116 -0.0069783321,
                                                          0.025164479 0.00093989802 -0.01077246,
                                                          0.026380241 -0.001294672 -0.0090566268,
                                                          0.02678626 -0.001939952 -0.0077012768,
                                                          0.025250129 -0.001914441 -0.0086075664,
                                                          0.028303079 0.0056612492 -0.0072057238,
                                                          0.028815741 0.0056642289 -0.004701972,
                                                          0.02862894 0.0056304932 -0.002032995,
                                                          0.02911525 0.0043765302 -0.007445931,
                                                          0.02947622 0.001359581 -0.007495522,
                                                          0.028990559 -8.67294e-005 -0.0073001981,
                                                          0.0291903 -0.000444006 -0.002256393,
                                                          0.028291401 -0.001505136 -0.0024788971,
                                                          0.02691382 -0.002183794 -0.0065603252,
                                                          0.01003712 -0.0067884922 0.001460969,
                                                          0.0089783659 -0.0067884922 -0.0046533342,
                                                          0.00060746598 0.0088353148 0.005868434,
                                                          0.00070139801 0.00887674 0.0057667489,
                                                          -0.01267212 0.0088244081 0.0050964952,
                                                          -0.01289784 0.0084697604 0.0078858733,
                                                          -0.01205801 0.0085868826 0.0081816912,
                                                          -0.01138406 0.008800745 0.007983922,
                                                          -0.01214534 0.0087611666 0.0080102682,
                                                          -0.01141184 0.0089091649 0.0078234673,
                                                          -0.01220864 0.0088248253 0.0077665439,
                                                          -0.01136553 0.0086385598 0.0080910921,
                                                          -0.01281613 0.0084155789 0.0081263781,
                                                          -0.01252174 0.0080651036 0.0083300471,
                                                          0.00055348699 0.0089471927 0.0055567021,
                                                          0.00058007002 0.0089225173 0.0057102442,
                                                          -0.01144462 0.0089471927 0.007634222,
                                                          0.00062979897 0.008673965 0.0059974189,
                                                          -0.01332831 0.0089471927 -0.00324434,
                                                          -0.0134074 0.0086385598 -0.00370121,
                                                          -0.0013907549 0.008800745 -0.0056715598,
                                                          -0.0013629789 0.0089091063 -0.0055111642,
                                                          -0.01336109 0.0089091063 -0.0034335849,
                                                          -0.001330196 0.0089471927 -0.005321919,
                                                          -0.01409232 0.0088248253 -0.003112077,
                                                          -0.01337033 0.0088731637 -0.0034868121,
                                                          -0.01411467 0.0087612271 -0.003362596,
                                                          -0.01338887 0.008800745 -0.003593981,
                                                          -0.01478546 0.0084156394 -0.003246486,
                                                          -0.01471042 0.0082674623 -0.0034461019,
                                                          -0.01286596 0.0089471927 -0.00057416398,
                                                          -0.01478159 0.0084697604 -0.0029926889,
                                                          -0.01457667 0.0080651036 -0.003537535,
                                                          -0.01402604 0.0083489409 -0.003632843,
                                                          -0.01197111 0.0083489409 0.0082347393 ]

                                                    }
                                                    normal 
                                                    Normal {
                                                      vector [  ]

                                                    }
                                                    coordIndex [ 156, 155, 152, -1, 150, 153, 149, -1,
                                                        97, 98, 100, -1, 97, 92, 94, -1,
                                                        95, 91, 92, -1, 93, 91, 95, -1,
                                                        152, 155, 154, -1, 60, 62, 63, -1,
                                                        75, 57, 194, -1, 29, 197, 204, -1,
                                                        141, 62, 142, -1, 180, 182, 181, -1,
                                                        177, 191, 197, -1, 195, 199, 197, -1,
                                                        196, 54, 75, -1, 151, 167, 165, -1,
                                                        111, 113, 112, -1, 165, 167, 164, -1,
                                                        29, 177, 197, -1, 117, 115, 86, -1,
                                                        167, 147, 164, -1, 14, 20, 32, -1,
                                                        115, 116, 86, -1, 33, 9, 20, -1,
                                                        79, 86, 116, -1, 34, 20, 14, -1,
                                                        9, 41, 20, -1, 98, 168, 151, -1,
                                                        1, 31, 41, -1, 79, 81, 86, -1,
                                                        34, 33, 20, -1, 81, 88, 86, -1,
                                                        161, 139, 157, -1, 98, 94, 168, -1,
                                                        88, 101, 86, -1, 94, 170, 169, -1,
                                                        16, 124, 174, -1, 45, 14, 174, -1,
                                                        88, 82, 101, -1, 96, 95, 101, -1,
                                                        134, 135, 139, -1, 170, 171, 159, -1,
                                                        132, 127, 135, -1, 45, 46, 14, -1,
                                                        172, 159, 171, -1, 43, 15, 14, -1,
                                                        93, 107, 109, -1, 172, 162, 159, -1,
                                                        125, 65, 135, -1, 103, 105, 106, -1,
                                                        172, 138, 162, -1, 110, 109, 107, -1,
                                                        127, 119, 125, -1, 2, 11, 9, -1,
                                                        138, 131, 162, -1, 13, 3, 9, -1,
                                                        119, 23, 125, -1, 131, 130, 162, -1,
                                                        53, 106, 109, -1, 58, 60, 68, -1,
                                                        23, 137, 125, -1, 33, 19, 9, -1,
                                                        130, 163, 162, -1, 74, 67, 68, -1,
                                                        130, 133, 163, -1, 19, 2, 9, -1,
                                                        8, 3, 13, -1, 128, 133, 130, -1,
                                                        108, 106, 53, -1, 26, 8, 10, -1,
                                                        128, 129, 133, -1, 12, 10, 8, -1,
                                                        71, 23, 72, -1, 18, 33, 44, -1,
                                                        128, 121, 129, -1, 51, 44, 48, -1,
                                                        23, 205, 72, -1, 120, 123, 121, -1,
                                                        26, 29, 8, -1, 51, 50, 18, -1,
                                                        205, 206, 72, -1, 29, 36, 8, -1,
                                                        128, 16, 121, -1, 50, 42, 18, -1,
                                                        206, 192, 72, -1, 16, 17, 121, -1,
                                                        36, 7, 8, -1, 35, 13, 11, -1,
                                                        192, 73, 72, -1, 192, 200, 74, -1,
                                                        17, 31, 121, -1, 53, 52, 47, -1,
                                                        31, 22, 120, -1, 35, 27, 12, -1,
                                                        53, 110, 48, -1, 126, 136, 123, -1,
                                                        22, 0, 23, -1, 36, 29, 7, -1,
                                                        178, 29, 26, -1, 48, 49, 52, -1,
                                                        0, 38, 23, -1, 198, 194, 193, -1,
                                                        38, 4, 23, -1, 178, 183, 29, -1,
                                                        205, 23, 24, -1, 4, 24, 23, -1,
                                                        183, 177, 29, -1, 186, 179, 27, -1,
                                                        176, 78, 77, -1, 197, 199, 201, -1,
                                                        199, 198, 200, -1, 179, 185, 27, -1,
                                                        189, 182, 188, -1, 179, 181, 185, -1,
                                                        119, 22, 23, -1, 75, 55, 58, -1,
                                                        118, 207, 186, -1, 55, 59, 58, -1,
                                                        175, 176, 188, -1, 207, 179, 186, -1,
                                                        67, 57, 58, -1, 195, 198, 199, -1,
                                                        50, 112, 42, -1, 182, 180, 175, -1,
                                                        32, 20, 31, -1, 164, 147, 59, -1,
                                                        147, 167, 146, -1, 87, 102, 84, -1,
                                                        20, 41, 31, -1, 96, 82, 113, -1,
                                                        102, 83, 84, -1, 56, 78, 86, -1,
                                                        79, 80, 113, -1, 1, 21, 31, -1,
                                                        60, 59, 144, -1, 147, 144, 59, -1,
                                                        21, 5, 31, -1, 32, 31, 17, -1,
                                                        176, 175, 78, -1, 99, 100, 83, -1,
                                                        79, 114, 80, -1, 144, 146, 145, -1,
                                                        175, 86, 78, -1, 114, 118, 80, -1,
                                                        143, 142, 145, -1, 151, 150, 146, -1,
                                                        21, 1, 5, -1, 114, 184, 118, -1,
                                                        1, 9, 5, -1, 184, 207, 118, -1,
                                                        203, 183, 189, -1, 182, 189, 183, -1,
                                                        151, 168, 153, -1, 9, 3, 5, -1,
                                                        8, 6, 3, -1, 116, 115, 190, -1,
                                                        177, 183, 203, -1, 117, 175, 190, -1,
                                                        177, 203, 191, -1, 168, 169, 156, -1,
                                                        102, 87, 99, -1, 101, 97, 99, -1,
                                                        184, 180, 179, -1, 7, 25, 6, -1,
                                                        184, 116, 190, -1, 25, 30, 6, -1,
                                                        169, 159, 158, -1, 162, 161, 158, -1,
                                                        8, 7, 6, -1, 101, 95, 97, -1,
                                                        184, 114, 116, -1, 25, 7, 30, -1,
                                                        82, 81, 79, -1, 204, 201, 30, -1,
                                                        7, 29, 30, -1, 82, 88, 81, -1,
                                                        91, 89, 90, -1, 93, 96, 111, -1,
                                                        162, 163, 161, -1, 163, 133, 134, -1,
                                                        103, 171, 89, -1, 77, 56, 76, -1,
                                                        129, 132, 134, -1, 109, 106, 89, -1,
                                                        148, 140, 62, -1, 63, 62, 140, -1,
                                                        54, 187, 76, -1, 106, 105, 89, -1,
                                                        111, 50, 107, -1, 77, 76, 187, -1,
                                                        123, 132, 129, -1, 154, 160, 140, -1,
                                                        104, 103, 108, -1, 135, 65, 140, -1,
                                                        50, 51, 110, -1, 84, 85, 56, -1,
                                                        123, 136, 132, -1, 65, 70, 63, -1,
                                                        136, 127, 132, -1, 77, 78, 56, -1,
                                                        46, 45, 104, -1, 173, 138, 104, -1,
                                                        136, 126, 127, -1, 166, 85, 84, -1,
                                                        69, 64, 63, -1, 126, 22, 127, -1,
                                                        165, 55, 85, -1, 18, 2, 33, -1,
                                                        64, 61, 63, -1, 22, 119, 127, -1,
                                                        2, 19, 33, -1, 84, 86, 101, -1,
                                                        74, 66, 67, -1, 193, 194, 57, -1,
                                                        34, 44, 33, -1, 166, 100, 165, -1,
                                                        66, 193, 67, -1, 70, 69, 63, -1,
                                                        191, 196, 194, -1, 198, 195, 194, -1,
                                                        15, 44, 34, -1, 203, 189, 187, -1,
                                                        193, 66, 74, -1, 108, 47, 46, -1,
                                                        60, 142, 62, -1, 203, 54, 196, -1,
                                                        47, 43, 46, -1, 180, 184, 190, -1,
                                                        143, 149, 148, -1, 200, 193, 74, -1,
                                                        47, 15, 43, -1, 202, 206, 205, -1,
                                                        47, 52, 15, -1, 199, 200, 192, -1,
                                                        202, 192, 206, -1, 52, 49, 15, -1,
                                                        157, 160, 154, -1, 49, 48, 15, -1,
                                                        166, 83, 100, -1, 48, 44, 15, -1,
                                                        31, 5, 22, -1, 18, 40, 2, -1,
                                                        5, 39, 22, -1, 40, 11, 2, -1,
                                                        92, 90, 170, -1, 39, 0, 22, -1,
                                                        40, 18, 11, -1, 126, 120, 22, -1,
                                                        139, 135, 160, -1, 70, 72, 61, -1,
                                                        5, 3, 0, -1, 27, 28, 12, -1,
                                                        157, 139, 160, -1, 3, 38, 0, -1,
                                                        28, 10, 12, -1, 125, 137, 65, -1,
                                                        90, 171, 170, -1, 39, 5, 0, -1,
                                                        28, 27, 10, -1, 137, 70, 65, -1,
                                                        3, 4, 38, -1, 90, 89, 171, -1,
                                                        3, 6, 4, -1, 27, 185, 26, -1,
                                                        61, 64, 69, -1, 6, 37, 4, -1,
                                                        103, 104, 171, -1, 73, 68, 61, -1,
                                                        37, 24, 4, -1, 186, 27, 35, -1,
                                                        68, 60, 61, -1, 37, 6, 24, -1,
                                                        104, 138, 172, -1, 18, 42, 35, -1,
                                                        6, 30, 24, -1, 42, 112, 35, -1,
                                                        202, 24, 30, -1, 76, 56, 55, -1,
                                                        173, 174, 138, -1, 112, 113, 35, -1,
                                                        174, 124, 138, -1, 113, 80, 35, -1,
                                                        137, 23, 70, -1, 201, 199, 202, -1,
                                                        124, 131, 138, -1, 80, 118, 35, -1,
                                                        23, 71, 70, -1, 124, 130, 131, -1,
                                                        183, 178, 185, -1, 118, 186, 35, -1,
                                                        71, 72, 70, -1, 58, 59, 60, -1,
                                                        124, 122, 128, -1, 56, 85, 55, -1,
                                                        122, 16, 128, -1, 145, 142, 60, -1,
                                                        14, 17, 16, -1, 165, 164, 55, -1,
                                                        122, 124, 16, -1, 117, 86, 175, -1,
                                                        54, 76, 75, -1, 155, 156, 158, -1,
                                                        156, 152, 153, -1, 158, 157, 155, -1,
                                                        149, 146, 150, -1, 153, 152, 149, -1,
                                                        149, 143, 146, -1, 99, 97, 100, -1,
                                                        98, 97, 94, -1, 97, 95, 92, -1,
                                                        96, 93, 95, -1, 148, 149, 152, -1,
                                                        152, 154, 148, -1, 61, 60, 63, -1,
                                                        196, 75, 194, -1, 143, 141, 142, -1,
                                                        179, 180, 181, -1, 191, 195, 197, -1,
                                                        100, 151, 165, -1, 50, 111, 112, -1,
                                                        114, 79, 116, -1, 15, 34, 14, -1,
                                                        100, 98, 151, -1, 9, 1, 41, -1,
                                                        158, 161, 157, -1, 168, 94, 169, -1,
                                                        14, 16, 174, -1, 173, 45, 174, -1,
                                                        82, 96, 101, -1, 161, 134, 139, -1,
                                                        169, 170, 159, -1, 134, 132, 135, -1,
                                                        104, 172, 171, -1, 46, 43, 14, -1,
                                                        91, 93, 109, -1, 127, 125, 135, -1,
                                                        108, 103, 106, -1, 50, 110, 107, -1,
                                                        11, 13, 9, -1, 110, 53, 109, -1,
                                                        67, 58, 68, -1, 73, 74, 68, -1,
                                                        12, 8, 13, -1, 124, 128, 130, -1,
                                                        47, 108, 53, -1, 27, 26, 10, -1,
                                                        51, 18, 44, -1, 110, 51, 48, -1,
                                                        18, 35, 11, -1, 73, 192, 74, -1,
                                                        121, 31, 120, -1, 13, 35, 12, -1,
                                                        52, 53, 48, -1, 120, 126, 123, -1,
                                                        185, 178, 26, -1, 200, 198, 193, -1,
                                                        202, 205, 24, -1, 188, 176, 77, -1,
                                                        204, 197, 201, -1, 187, 189, 188, -1,
                                                        57, 75, 58, -1, 188, 182, 175, -1,
                                                        55, 164, 59, -1, 144, 147, 146, -1,
                                                        111, 96, 113, -1, 84, 56, 86, -1,
                                                        82, 79, 113, -1, 145, 60, 144, -1,
                                                        14, 32, 17, -1, 102, 99, 83, -1,
                                                        146, 143, 145, -1, 167, 151, 146, -1,
                                                        181, 182, 183, -1, 150, 151, 153, -1,
                                                        115, 117, 190, -1, 153, 168, 156, -1,
                                                        87, 101, 99, -1, 207, 184, 179, -1,
                                                        156, 169, 158, -1, 159, 162, 158, -1,
                                                        29, 204, 30, -1, 92, 91, 90, -1,
                                                        107, 93, 111, -1, 161, 163, 134, -1,
                                                        105, 103, 89, -1, 133, 129, 134, -1,
                                                        91, 109, 89, -1, 141, 148, 62, -1,
                                                        188, 77, 187, -1, 121, 123, 129, -1,
                                                        148, 154, 140, -1, 46, 104, 108, -1,
                                                        160, 135, 140, -1, 140, 65, 63, -1,
                                                        45, 173, 104, -1, 83, 166, 84, -1,
                                                        166, 165, 85, -1, 87, 84, 101, -1,
                                                        67, 193, 57, -1, 195, 191, 194, -1,
                                                        54, 203, 187, -1, 191, 203, 196, -1,
                                                        175, 180, 190, -1, 141, 143, 148, -1,
                                                        202, 199, 192, -1, 155, 157, 154, -1,
                                                        94, 92, 170, -1, 69, 70, 61, -1,
                                                        72, 73, 61, -1, 201, 202, 30, -1,
                                                        75, 76, 55, -1, 181, 183, 185 ]
                                                    ccw TRUE
                                                    solid FALSE
                                                    convex TRUE
                                                    creaseAngle 0

                                                  }

                                                }

                                            }

                                        }

                                    }

                                }

                            }

                        }

                    }

                }

            }

        }

    }

}
