#VRML V2.0 utf8


Group {
  children 
    Group {
      children 
        Group {
          children 
            Transform {
              translation 0.020093119 0.013473859 -0.18640545
              children 
                Transform {
                  rotation -0 -0 -1  0.95708406
                  children 
                    Transform {
                      rotation -0 -1 -0  1.1947801
                      children 
                        Transform {
                          rotation -1 -0 -0  2.1667793
                          children 
                            Group {
                              children 
                                Transform {
                                  translation 0.18758976 -0.044587314 0.008022964
                                  children 
                                    Transform {
                                      rotation 0 0 1  1.2648855
                                      children 
                                        Transform {
                                          rotation -0 -1 -0  3.0932467
                                          children 
                                            Transform {
                                              rotation -1.0000006 -0 -0  0.20740382
                                              children 
                                                Shape {
                                                  appearance 
                                                  Appearance {
                                                    material 
                                                    Material {
                                                      diffuseColor 0.5 0.5 0.5

                                                    }

                                                  }
                                                  geometry 
                                                  IndexedFaceSet {
                                                    coord 
                                                    Coordinate {
                                                      point [ -0.052944709 0.3409749 0.086359441,
                                                          -0.019949671 0.3409749 0.01336675,
                                                          -0.019949671 0.077155471 0.1193561,
                                                          0.0200442 0.3409749 0.1193561,
                                                          -0.019949671 0.20906539 0.1193561,
                                                          0.084608793 0.2069876 0.085918657,
                                                          0.085308492 0.2123971 0.085771792,
                                                          0.062918179 0.42656511 0.087199442,
                                                          0.068191461 0.4253822 0.086447001,
                                                          0.072067969 0.4215785 0.085918657,
                                                          0.073393099 0.416287 0.085771792,
                                                          0.084598601 0.20698661 0.050967868,
                                                          0.085299008 0.2123971 0.050826009,
                                                          0.062901787 0.42656419 0.05220532,
                                                          0.068178713 0.4253813 0.051478319,
                                                          0.0619688 0.42651021 0.045521021,
                                                          0.072057784 0.42157751 0.050967868,
                                                          0.067245722 0.4253273 0.044794079,
                                                          0.073383622 0.4162859 0.050826009,
                                                          0.071124852 0.42152259 0.044283621,
                                                          0.07245063 0.41623101 0.04414165,
                                                          -0.01663309 0.41943669 0.02936518,
                                                          0.016727621 0.41943669 0.02936518,
                                                          -0.018821171 0.41503009 0.02936518,
                                                          -0.0094218254 0.42602119 0.02936518,
                                                          0.0095163584 0.42602119 0.02936518,
                                                          -0.0048350091 0.4278 0.02936518,
                                                          0.0049296021 0.4278 0.02936518,
                                                          -0.018821171 0.41503009 0.1033577,
                                                          0.016727621 0.41943669 0.1033577,
                                                          -0.01663309 0.41943669 0.1033577,
                                                          0.0095163584 0.42602119 0.1033577,
                                                          -0.0094218254 0.42602119 0.1033577,
                                                          0.0049296021 0.4278 0.1033577,
                                                          -0.0048350091 0.4278 0.1033577,
                                                          0.058431141 0.2273989 0.02125656,
                                                          0.084733002 0.20848539 0.036864389,
                                                          0.084733002 0.2133591 0.036864389,
                                                          0.057872649 0.22759689 0.02096742,
                                                          -0.032447811 0.2109223 0.1138566,
                                                          0.058431141 0.2273989 0.1114659,
                                                          0.057872649 0.22759689 0.1117559,
                                                          0.058431141 0.1944456 0.1114659,
                                                          0.057872649 0.1942476 0.1117559,
                                                          0.084732942 0.2133591 0.095858447,
                                                          0.084732942 0.20848539 0.095858447,
                                                          -0.034161799 0.20354781 0.1118568,
                                                          -0.034161799 0.21829671 0.1118568,
                                                          0.0141713 0.29878929 0.1193561,
                                                          -0.019949671 0.3409749 0.1193561,
                                                          -0.052944709 0.3409749 0.046363469,
                                                          0.02004426 0.3409749 0.01336675,
                                                          -0.052944709 0.077155471 0.086359441,
                                                          0.0200442 0.077155471 0.1193561,
                                                          0.01558238 -0.020279041 0.099358082,
                                                          0.005571424 -0.024953241 0.099358082,
                                                          -0.0054768911 -0.024953241 0.099358082,
                                                          -0.043540649 -0.01121878 0.085359506,
                                                          -0.02407336 -0.038045041 0.085359506,
                                                          0.0084828129 -0.044259422 0.085359506,
                                                          0.02267622 -0.01180833 0.099358082,
                                                          -0.01548784 -0.020279041 0.099358082,
                                                          -0.022581691 -0.01180833 0.099358082,
                                                          0.043635178 -0.01121878 0.085359506,
                                                          -0.036366992 -0.026489969 0.085359506,
                                                          -0.0083882799 -0.044259422 0.085359506,
                                                          0.02416789 -0.038045041 0.085359506,
                                                          0.036461528 -0.026489969 0.085359506,
                                                          -0.034947392 -6.0975501e-005 -0.00213164,
                                                          -0.0322836 -0.0134539 -0.00213164,
                                                          -0.024697781 0.02468574 -0.00213164,
                                                          4.7272999e-005 0.034936242 -0.00213164,
                                                          0.02479231 0.02468574 -0.00213164,
                                                          0.00098511705 -0.04932034 0.00086804503,
                                                          -0.000890575 -0.04932034 0.00086804503,
                                                          4.72711e-005 -0.049507018 0.00086804503,
                                                          -0.00077524898 -0.049588788 0.000955906,
                                                          0.00086979102 -0.049588788 0.000955906,
                                                          0.043173011 -0.02387833 0.00086804503,
                                                          0.042235188 -0.02550292 0.00086804503,
                                                          0.042865809 -0.02478396 0.00086804503,
                                                          0.042525351 -0.025537251 0.000955906,
                                                          0.043347891 -0.024112521 0.000955906,
                                                          0.043173011 0.023756441 0.00086804503,
                                                          0.043347891 0.02399057 0.000955906,
                                                          -0.04277122 0.02466201 0.00086805603,
                                                          -0.043253358 0.02399057 0.00095591298,
                                                          -0.042140659 -0.02550292 0.00086804503,
                                                          -0.04277122 -0.02478396 0.00086804503,
                                                          -0.043253358 -0.024112521 0.00095591298,
                                                          -0.042430811 -0.025537251 0.00095591298,
                                                          -0.04303097 -0.02493399 0.001168012,
                                                          -0.0322836 0.01333194 -0.00213164,
                                                          -0.024697781 -0.02480769 -0.00213164,
                                                          -0.01334458 0.032272208 -0.00213164,
                                                          0.01343911 0.032272208 -0.00213164,
                                                          0.032378189 0.01333194 -0.00213164,
                                                          0.03504198 -6.0975501e-005 -0.00213164,
                                                          0.032378189 -0.0134539 -0.00213164,
                                                          0.02479231 -0.02480769 -0.00213164,
                                                          0.01343911 -0.032394171 -0.00213164,
                                                          4.72711e-005 -0.0350582 -0.00213164,
                                                          -0.01334458 -0.032394171 -0.00213164,
                                                          4.72711e-005 -0.049807008 0.001168012,
                                                          0.043125559 -0.02493399 0.001168012,
                                                          -0.01770412 -0.04357522 0.0028678169,
                                                          -0.043499049 -0.02409696 0.0028678169,
                                                          -0.046510149 0.006321907 0.0028678169,
                                                          0.046604749 0.006321907 0.0028678169,
                                                          0.01779866 -0.04357522 0.0028678169,
                                                          0.001006066 -0.049793892 0.0028678169,
                                                          -0.000911551 -0.049793892 0.0028678169,
                                                          -0.009705781 -0.049096338 0.01656645,
                                                          0.009800314 -0.049096338 0.01656645,
                                                          0.027821541 -0.041631158 0.01656645,
                                                          -0.027727 -0.041631158 0.01656645,
                                                          0.035397232 -0.03541344 0.02026605,
                                                          -0.035302632 -0.03541344 0.01756632,
                                                          -0.04898458 -0.0098147392 0.01656645,
                                                          -0.04898458 0.0096927881 0.01656645,
                                                          0.04907912 -0.0098147392 0.01656645,
                                                          0.054130912 -0.01455372 0.058362242,
                                                          0.045912739 -0.032178812 0.058362242,
                                                          -0.05573117 -0.004941463 0.058362242,
                                                          -0.039544821 -0.039655682 0.058362242,
                                                          -0.02361583 -0.050810091 0.058362242,
                                                          -0.0048325649 -0.055843409 0.058362242,
                                                          0.01453906 -0.054148428 0.058362242,
                                                          0.045912739 -0.032178812 0.068361223,
                                                          0.054130912 -0.01455372 0.068361223,
                                                          0.032162599 -0.045929778 0.068361223,
                                                          0.01453906 -0.054148428 0.068361223,
                                                          -0.0048325649 -0.055843409 0.068361223,
                                                          -0.02361583 -0.050810091 0.068361223,
                                                          -0.039544821 -0.039655682 0.068361223,
                                                          -0.05069828 -0.023725741 0.068361223,
                                                          -0.05573117 -0.004941463 0.068361223 ]

                                                    }
                                                    normal 
                                                    Normal {
                                                      vector [  ]

                                                    }
                                                    coordIndex [ 18, 20, 19, -1, 14, 17, 15, -1,
                                                        132, 126, 127, -1, 128, 122, 121, -1,
                                                        16, 19, 17, -1, 43, 42, 40, -1,
                                                        133, 134, 124, -1, 133, 125, 126, -1,
                                                        76, 74, 75, -1, 77, 75, 73, -1,
                                                        81, 79, 80, -1, 82, 80, 78, -1,
                                                        91, 89, 88, -1, 90, 88, 87, -1,
                                                        9, 16, 14, -1, 26, 51, 1, -1,
                                                        13, 7, 8, -1, 52, 0, 136, -1,
                                                        35, 84, 38, -1, 35, 38, 51, -1,
                                                        50, 0, 28, -1, 26, 27, 51, -1,
                                                        108, 82, 84, -1, 71, 1, 51, -1,
                                                        38, 84, 51, -1, 82, 78, 83, -1,
                                                        7, 31, 8, -1, 84, 83, 51, -1,
                                                        89, 68, 69, -1, 82, 83, 84, -1,
                                                        23, 1, 50, -1, 83, 96, 51, -1,
                                                        31, 29, 8, -1, 71, 94, 1, -1,
                                                        1, 86, 50, -1, 35, 37, 84, -1,
                                                        7, 33, 31, -1, 96, 72, 51, -1,
                                                        94, 70, 1, -1, 37, 108, 84, -1,
                                                        86, 107, 50, -1, 72, 95, 51, -1,
                                                        70, 92, 1, -1, 92, 68, 86, -1,
                                                        78, 97, 83, -1, 92, 85, 1, -1,
                                                        97, 96, 83, -1, 74, 102, 101, -1,
                                                        10, 6, 12, -1, 37, 20, 18, -1,
                                                        102, 87, 93, -1, 99, 79, 100, -1,
                                                        73, 75, 101, -1, 102, 74, 87, -1,
                                                        79, 73, 100, -1, 92, 70, 94, -1,
                                                        36, 37, 12, -1, 74, 76, 87, -1,
                                                        92, 94, 71, -1, 79, 81, 73, -1,
                                                        105, 76, 111, -1, 81, 77, 73, -1,
                                                        92, 71, 95, -1, 36, 108, 37, -1,
                                                        75, 103, 76, -1, 92, 95, 72, -1,
                                                        113, 127, 77, -1, 36, 82, 108, -1,
                                                        77, 103, 75, -1, 103, 111, 76, -1,
                                                        127, 110, 77, -1, 92, 72, 96, -1,
                                                        77, 110, 103, -1, 120, 121, 82, -1,
                                                        98, 92, 96, -1, 122, 104, 82, -1,
                                                        81, 109, 77, -1, 100, 92, 98, -1,
                                                        110, 127, 103, -1, 109, 113, 77, -1,
                                                        127, 126, 103, -1, 104, 80, 82, -1,
                                                        112, 125, 105, -1, 126, 125, 112, -1,
                                                        113, 109, 127, -1, 126, 111, 103, -1,
                                                        125, 115, 105, -1, 109, 114, 127, -1,
                                                        36, 120, 82, -1, 122, 130, 127, -1,
                                                        80, 99, 98, -1, 92, 100, 101, -1,
                                                        59, 65, 132, -1, 130, 131, 127, -1,
                                                        66, 59, 131, -1, 92, 101, 102, -1,
                                                        98, 97, 78, -1, 65, 59, 55, -1,
                                                        92, 102, 93, -1, 80, 79, 99, -1,
                                                        92, 93, 69, -1, 65, 58, 133, -1,
                                                        69, 93, 87, -1, 92, 69, 68, -1,
                                                        56, 61, 58, -1, 55, 54, 53, -1,
                                                        80, 104, 81, -1, 63, 45, 53, -1,
                                                        104, 122, 81, -1, 54, 60, 53, -1,
                                                        56, 53, 2, -1, 122, 116, 81, -1,
                                                        4, 2, 53, -1, 1, 85, 86, -1,
                                                        116, 114, 81, -1, 2, 62, 61, -1,
                                                        87, 76, 90, -1, 45, 42, 53, -1,
                                                        114, 109, 81, -1, 119, 118, 123, -1,
                                                        56, 55, 53, -1, 76, 105, 90, -1,
                                                        116, 122, 114, -1, 118, 89, 123, -1,
                                                        42, 43, 53, -1, 105, 115, 90, -1,
                                                        43, 3, 53, -1, 89, 106, 123, -1,
                                                        67, 66, 130, -1, 115, 117, 90, -1,
                                                        122, 128, 130, -1, 106, 91, 123, -1,
                                                        3, 48, 53, -1, 4, 39, 2, -1,
                                                        117, 124, 90, -1, 66, 54, 55, -1,
                                                        91, 135, 123, -1, 39, 46, 2, -1,
                                                        115, 125, 124, -1, 50, 123, 136, -1,
                                                        135, 136, 123, -1, 43, 41, 3, -1,
                                                        39, 47, 46, -1, 41, 9, 3, -1,
                                                        67, 60, 54, -1, 39, 49, 47, -1,
                                                        29, 3, 9, -1, 49, 3, 33, -1,
                                                        11, 5, 129, -1, 58, 64, 134, -1,
                                                        50, 119, 123, -1, 67, 63, 60, -1,
                                                        107, 89, 118, -1, 128, 129, 63, -1,
                                                        29, 31, 3, -1, 11, 12, 6, -1,
                                                        34, 32, 49, -1, 31, 33, 3, -1,
                                                        61, 62, 64, -1, 50, 107, 119, -1,
                                                        32, 30, 49, -1, 13, 27, 33, -1,
                                                        4, 3, 49, -1, 129, 45, 63, -1,
                                                        30, 28, 49, -1, 10, 44, 6, -1,
                                                        6, 44, 45, -1, 52, 57, 62, -1,
                                                        62, 57, 64, -1, 10, 40, 44, -1,
                                                        13, 15, 27, -1, 4, 48, 3, -1,
                                                        45, 44, 40, -1, 15, 17, 27, -1,
                                                        91, 106, 89, -1, 120, 36, 11, -1,
                                                        21, 30, 32, -1, 107, 86, 89, -1,
                                                        17, 25, 27, -1, 24, 32, 34, -1,
                                                        2, 46, 52, -1, 17, 19, 25, -1,
                                                        86, 68, 89, -1, 129, 5, 45, -1,
                                                        46, 47, 0, -1, 19, 22, 25, -1,
                                                        124, 135, 91, -1, 46, 0, 52, -1,
                                                        26, 34, 33, -1, 47, 49, 0, -1,
                                                        40, 10, 41, -1, 23, 28, 30, -1,
                                                        49, 28, 0, -1, 124, 134, 135, -1,
                                                        10, 9, 41, -1, 64, 57, 135, -1,
                                                        16, 9, 10, -1, 20, 51, 22, -1,
                                                        27, 25, 51, -1, 25, 22, 51, -1,
                                                        21, 1, 23, -1, 57, 136, 135, -1,
                                                        37, 35, 20, -1, 21, 24, 1, -1,
                                                        57, 52, 136, -1, 16, 18, 19, -1,
                                                        13, 14, 15, -1, 131, 132, 127, -1,
                                                        129, 128, 121, -1, 14, 16, 17, -1,
                                                        41, 43, 40, -1, 125, 133, 124, -1,
                                                        132, 133, 126, -1, 90, 91, 88, -1,
                                                        8, 9, 14, -1, 24, 26, 1, -1,
                                                        14, 13, 8, -1, 20, 35, 51, -1,
                                                        23, 50, 28, -1, 95, 71, 51, -1,
                                                        88, 89, 69, -1, 85, 92, 86, -1,
                                                        75, 74, 101, -1, 18, 10, 12, -1,
                                                        12, 37, 18, -1, 100, 73, 101, -1,
                                                        11, 36, 12, -1, 112, 105, 111, -1,
                                                        97, 98, 96, -1, 121, 122, 82, -1,
                                                        99, 100, 98, -1, 111, 126, 112, -1,
                                                        114, 122, 127, -1, 78, 80, 98, -1,
                                                        131, 59, 132, -1, 130, 66, 131, -1,
                                                        56, 65, 55, -1, 132, 65, 133, -1,
                                                        88, 69, 87, -1, 65, 56, 58, -1,
                                                        60, 63, 53, -1, 61, 56, 2, -1,
                                                        48, 4, 53, -1, 128, 67, 130, -1,
                                                        59, 66, 55, -1, 117, 115, 124, -1,
                                                        0, 50, 136, -1, 66, 67, 54, -1,
                                                        8, 29, 9, -1, 34, 49, 33, -1,
                                                        121, 11, 129, -1, 133, 58, 134, -1,
                                                        119, 107, 118, -1, 67, 128, 63, -1,
                                                        5, 11, 6, -1, 58, 61, 64, -1,
                                                        7, 13, 33, -1, 39, 4, 49, -1,
                                                        5, 6, 45, -1, 2, 52, 62, -1,
                                                        42, 45, 40, -1, 121, 120, 11, -1,
                                                        24, 21, 32, -1, 26, 24, 34, -1,
                                                        90, 124, 91, -1, 27, 26, 33, -1,
                                                        21, 23, 30, -1, 134, 64, 135, -1,
                                                        18, 16, 10, -1, 19, 20, 22 ]
                                                    ccw TRUE
                                                    solid FALSE
                                                    convex TRUE
                                                    creaseAngle 0

                                                  }

                                                }

                                            }

                                        }

                                    }

                                }

                            }

                        }

                    }

                }

            }

        }

    }

}
