#VRML V2.0 utf8


Group {
  children 
    Group {
      children 
        Group {
          children 
            Transform {
              translation 0.033375572 0.013719686 -0.038194492
              children 
                Transform {
                  rotation -0 -0 -1  1.786026
                  children 
                    Transform {
                      rotation -0 -0.99999952 -0  0.26226529
                      children 
                        Transform {
                          rotation 1 0 0  1.9433569
                          children 
                            Group {
                              children 
                                Transform {
                                  translation 0.014152706 0.00075656176 -0.0025597215
                                  children 
                                    Transform {
                                      rotation 0 0 0.99999869  0.098162889
                                      children 
                                        Transform {
                                          rotation 0 0.99999785 0  0.21565174
                                          children 
                                            Transform {
                                              rotation 1 0 0  1.2766047
                                              children 
                                                Shape {
                                                  appearance 
                                                  Appearance {
                                                    material 
                                                    Material {
                                                      diffuseColor 0.5 0.5 0.5

                                                    }

                                                  }
                                                  geometry 
                                                  IndexedFaceSet {
                                                    coord 
                                                    Coordinate {
                                                      point [ -0.061512519 -0.038140051 0.077562213,
                                                          -0.059667401 -0.03611397 0.078023307,
                                                          -0.060888048 -0.040492412 0.078925841,
                                                          -0.061862819 -0.040455461 0.077786498,
                                                          0.01171147 -0.039625939 0.1133834,
                                                          0.01057982 -0.045221679 0.115464,
                                                          -0.073535196 -0.03768396 0.063511133,
                                                          -0.071690492 -0.035657939 0.063973181,
                                                          -0.072911143 -0.04003638 0.064875722,
                                                          -0.07388591 -0.039999358 0.063736372,
                                                          -0.07270091 -0.042365551 0.064620011,
                                                          -0.07266181 -0.03561544 0.062830977,
                                                          0.0267989 -0.01294457 0.0773018,
                                                          0.02775079 -0.01396024 0.077550821,
                                                          0.034350269 -0.01128661 0.06322515,
                                                          -0.072175257 -0.0130164 0.031293388,
                                                          -0.074426711 -0.01491576 0.01628232,
                                                          -0.073103182 -0.01826375 0.01312518,
                                                          -0.076368213 -0.01421773 0.020605501,
                                                          -0.078185372 -0.0164386 0.024441419,
                                                          -0.036382131 -0.04340785 0.1052935,
                                                          -0.036684979 -0.053412549 0.1052278,
                                                          -0.03001296 -0.043619629 0.108188,
                                                          -0.031516671 -0.055733971 0.093685798,
                                                          -0.026231401 -0.056567661 0.081995182,
                                                          0.0147134 -0.057929091 0.1006032,
                                                          -0.022357039 -0.05668902 0.086283922,
                                                          -0.02052342 -0.056757331 0.086346321,
                                                          0.0047935839 -0.057459351 0.1031224,
                                                          -0.02250289 -0.056551691 0.09071701,
                                                          -0.023697671 -0.056608081 0.087539069,
                                                          -0.023910159 -0.056570411 0.088451497,
                                                          -0.023757329 -0.056543522 0.089376211,
                                                          0.0042597651 -0.054773979 0.123836,
                                                          0.0045626159 -0.04476928 0.1239016,
                                                          0.0066259499 -0.057553701 0.1031845,
                                                          0.0080267191 -0.0576992 0.1000935,
                                                          0.0067730541 -0.05766499 0.098751716,
                                                          0.0074207778 -0.057612121 0.1026905,
                                                          0.0079662791 -0.05766087 0.1019293,
                                                          0.004939436 -0.05759662 0.09868931,
                                                          -0.019330259 -0.05675327 0.089523971,
                                                          -0.0198757 -0.056704521 0.090285063,
                                                          -0.077044837 -0.05259227 0.045950111,
                                                          -0.079350762 -0.052501671 0.042775922,
                                                          -0.075305872 -0.0533415 0.040808551,
                                                          -0.074729443 -0.053349849 0.03941571,
                                                          -0.074729502 -0.053368092 0.04220169,
                                                          -0.00043940099 -0.053899638 -0.1083874,
                                                          0.0060563679 -0.054072201 -0.1120588,
                                                          0.0096247187 -0.05419093 -0.1104294,
                                                          0.005838871 -0.054824822 -0.1076536,
                                                          0.004343092 -0.054780722 -0.1074708,
                                                          0.0034144521 -0.054760389 -0.1062833,
                                                          0.074147277 -0.056334428 -0.081400514,
                                                          0.07157176 -0.057010289 -0.077804737,
                                                          0.072644047 -0.057059579 -0.075234167,
                                                          0.072640121 -0.057049628 -0.076741688,
                                                          0.063077562 0.024727341 -0.078347497,
                                                          0.062510602 0.02532178 -0.07705646,
                                                          0.01667344 0.02627027 -0.0994367,
                                                          0.016106481 0.02686476 -0.098145656,
                                                          0.05665737 0.02803605 -0.083321087,
                                                          0.057728998 0.028310001 -0.081721358,
                                                          0.05712878 0.02679806 -0.084448993,
                                                          0.05740821 0.02524304 -0.0851776,
                                                          0.059433568 0.02623063 -0.082741432,
                                                          0.02481138 0.029094931 -0.097794048,
                                                          0.022914231 0.029467581 -0.097540312,
                                                          0.02528285 0.02785694 -0.098922007,
                                                          0.022445381 0.02746045 -0.099545531,
                                                          0.025562281 0.02630192 -0.099650562,
                                                          -0.073218644 -0.04166805 0.0099838972,
                                                          0.02820175 -0.055174641 0.075961053,
                                                          0.0356065 -0.045286831 0.059485968,
                                                          0.0080484152 -0.052944481 0.120469,
                                                          -0.080984414 -0.051544178 0.02633941,
                                                          -0.084840111 -0.051483091 0.034827821,
                                                          -0.086074941 -0.0510832 0.037574291,
                                                          0.02056342 -0.052769542 -0.1125701,
                                                          0.02234536 -0.04173642 -0.1156837,
                                                          -0.01931273 -0.05268782 -0.08401072,
                                                          0.066057682 -0.054282241 -0.091894381,
                                                          0.076021373 -0.054671161 -0.087255947,
                                                          0.073220253 -0.05525827 -0.086671107,
                                                          0.074071698 -0.054985281 -0.087276749,
                                                          0.085509412 -0.0558924 -0.079203598,
                                                          0.086985052 -0.054978069 -0.082383573,
                                                          0.089008979 -0.035949461 -0.085444801,
                                                          -0.002992868 -0.053003371 -0.1112371,
                                                          0.001189112 -0.052835759 -0.1195212,
                                                          0.0077104559 -0.053079359 -0.1164463,
                                                          0.0043897028 -0.033135831 -0.1239016,
                                                          -0.072936408 -0.031673249 0.01008468,
                                                          0.035892479 -0.03529238 0.059620321,
                                                          0.01102662 -0.034904178 0.1152357,
                                                          0.0085378876 -0.036775701 0.120575,
                                                          0.01286613 -0.04010367 0.1108077,
                                                          0.067839563 -0.04324913 -0.095008008,
                                                          0.08812201 -0.052434079 -0.084699214,
                                                          -0.086484313 -0.031724919 0.039891299,
                                                          -0.087181501 -0.0367034 0.041061159,
                                                          -0.087302558 -0.032475881 0.041636821,
                                                          -0.088689737 -0.046199732 0.043685131,
                                                          -0.088519931 -0.035081919 0.044124842,
                                                          -0.082027607 -0.050355311 0.045612209,
                                                          -0.089008979 -0.03841811 0.0449568,
                                                          0.02170038 -0.050225548 -0.1148857,
                                                          0.003421962 -0.049610369 -0.1231973,
                                                          0.0066983099 -0.04792368 0.1238071,
                                                          0.0068852301 -0.041748941 0.1238476,
                                                          0.003257334 -0.041557781 0.1221731,
                                                          0.0020594001 -0.052149951 -0.1209877,
                                                          0.01051366 -0.052493028 -0.1170271,
                                                          -0.01221066 -0.04104346 0.1151433,
                                                          -0.01055699 -0.036119279 0.1118649,
                                                          -0.016496239 -0.03958451 0.112591,
                                                          -0.02923464 -0.0391609 0.1068018,
                                                          -0.02758765 -0.035152972 0.1034709,
                                                          -0.032740831 -0.038515259 0.1048926,
                                                          -0.031115821 -0.034879021 0.101583,
                                                          -0.056258969 -0.036148839 0.08168792,
                                                          -0.05423611 -0.03363603 0.080038719,
                                                          0.0085630408 -0.052806068 -0.1170511,
                                                          0.077391081 -0.055396128 -0.084778897,
                                                          0.077301912 -0.055091672 -0.085811608,
                                                          0.01196515 0.057397362 -0.0058025122,
                                                          -0.0025929799 0.057881411 -0.01241874,
                                                          0.033630248 0.057018869 -0.0481227,
                                                          0.01502364 0.057637569 -0.056578811,
                                                          0.0309292 0.02781569 -0.096842222,
                                                          0.051242881 0.028707501 -0.085865021,
                                                          0.03124243 0.025755459 -0.097682171,
                                                          0.05185651 0.02711981 -0.087331407,
                                                          0.052169789 0.02505964 -0.088171363,
                                                          0.01522982 0.057310399 -0.0076135392,
                                                          -0.0033767221 0.057929091 -0.016069651,
                                                          -0.01462829 0.037360478 -0.045463201,
                                                          -0.01554042 0.037975781 -0.043410771,
                                                          -0.01507049 0.038460251 -0.04320031,
                                                          0.043603528 0.035409272 -0.018997779,
                                                          0.042691339 0.03602457 -0.01694536,
                                                          0.04225146 0.036539491 -0.01714837 ]

                                                    }
                                                    normal 
                                                    Normal {
                                                      vector [  ]

                                                    }
                                                    coordIndex [ 130, 133, 134, -1, 79, 112, 108, -1,
                                                        64, 62, 63, -1, 69, 70, 68, -1,
                                                        23, 47, 24, -1, 98, 99, 107, -1,
                                                        116, 111, 110, -1, 84, 85, 125, -1,
                                                        118, 115, 127, -1, 124, 87, 86, -1,
                                                        111, 34, 110, -1, 11, 15, 104, -1,
                                                        5, 4, 110, -1, 118, 119, 115, -1,
                                                        11, 7, 15, -1, 74, 87, 99, -1,
                                                        34, 109, 110, -1, 20, 117, 119, -1,
                                                        54, 84, 124, -1, 69, 71, 70, -1,
                                                        108, 92, 80, -1, 7, 1, 15, -1,
                                                        130, 132, 71, -1, 123, 113, 83, -1,
                                                        117, 116, 119, -1, 137, 60, 92, -1,
                                                        1, 121, 15, -1, 118, 120, 119, -1,
                                                        123, 83, 85, -1, 112, 123, 90, -1,
                                                        34, 33, 109, -1, 121, 122, 15, -1,
                                                        120, 122, 121, -1, 113, 79, 83, -1,
                                                        132, 88, 92, -1, 123, 85, 90, -1,
                                                        60, 70, 92, -1, 33, 75, 109, -1,
                                                        121, 20, 119, -1, 79, 82, 83, -1,
                                                        85, 84, 90, -1, 33, 25, 75, -1,
                                                        22, 114, 20, -1, 70, 71, 92, -1,
                                                        56, 57, 86, -1, 117, 111, 116, -1,
                                                        84, 91, 90, -1, 114, 117, 20, -1,
                                                        54, 86, 57, -1, 33, 35, 25, -1,
                                                        114, 22, 111, -1, 93, 92, 90, -1,
                                                        91, 50, 90, -1, 35, 38, 25, -1,
                                                        121, 0, 20, -1, 108, 90, 92, -1,
                                                        22, 34, 111, -1, 50, 49, 90, -1,
                                                        0, 2, 20, -1, 52, 90, 49, -1,
                                                        38, 39, 25, -1, 117, 114, 111, -1,
                                                        25, 56, 86, -1, 33, 34, 22, -1,
                                                        39, 36, 25, -1, 1, 0, 121, -1,
                                                        113, 112, 79, -1, 48, 90, 52, -1,
                                                        29, 42, 28, -1, 93, 17, 92, -1,
                                                        36, 37, 25, -1, 113, 123, 112, -1,
                                                        28, 33, 21, -1, 37, 27, 25, -1,
                                                        0, 8, 2, -1, 17, 16, 92, -1,
                                                        136, 139, 138, -1, 7, 6, 0, -1,
                                                        48, 89, 90, -1, 15, 127, 136, -1,
                                                        27, 24, 25, -1, 139, 129, 138, -1,
                                                        89, 81, 90, -1, 57, 56, 25, -1,
                                                        18, 136, 138, -1, 28, 35, 33, -1,
                                                        81, 72, 90, -1, 76, 101, 93, -1,
                                                        28, 38, 35, -1, 139, 136, 129, -1,
                                                        128, 129, 136, -1, 27, 26, 24, -1,
                                                        41, 38, 28, -1, 133, 64, 65, -1,
                                                        81, 76, 72, -1, 131, 130, 67, -1,
                                                        26, 30, 24, -1, 50, 91, 84, -1,
                                                        30, 31, 24, -1, 64, 66, 65, -1,
                                                        67, 68, 129, -1, 41, 39, 38, -1,
                                                        131, 129, 128, -1, 73, 94, 14, -1,
                                                        40, 36, 39, -1, 55, 51, 50, -1,
                                                        41, 26, 39, -1, 18, 16, 93, -1,
                                                        47, 45, 24, -1, 26, 40, 39, -1,
                                                        51, 49, 50, -1, 16, 17, 93, -1,
                                                        45, 46, 24, -1, 63, 58, 66, -1,
                                                        77, 76, 46, -1, 40, 37, 36, -1,
                                                        18, 138, 16, -1, 63, 128, 58, -1,
                                                        46, 53, 24, -1, 40, 26, 37, -1,
                                                        69, 67, 130, -1, 31, 30, 26, -1,
                                                        55, 57, 51, -1, 128, 59, 58, -1,
                                                        26, 27, 37, -1, 78, 103, 77, -1,
                                                        128, 140, 59, -1, 24, 51, 57, -1,
                                                        44, 78, 77, -1, 62, 64, 133, -1,
                                                        131, 133, 130, -1, 128, 141, 140, -1,
                                                        29, 31, 41, -1, 141, 14, 140, -1,
                                                        135, 13, 14, -1, 24, 52, 51, -1,
                                                        78, 105, 103, -1, 13, 95, 14, -1,
                                                        106, 6, 11, -1, 105, 21, 103, -1,
                                                        18, 93, 101, -1, 29, 32, 31, -1,
                                                        24, 53, 52, -1, 21, 10, 103, -1,
                                                        128, 63, 62, -1, 53, 46, 76, -1,
                                                        43, 47, 23, -1, 32, 23, 31, -1,
                                                        142, 141, 128, -1, 32, 29, 23, -1,
                                                        76, 81, 48, -1, 73, 74, 94, -1,
                                                        81, 89, 48, -1, 29, 28, 23, -1,
                                                        73, 87, 74, -1, 44, 45, 47, -1,
                                                        126, 135, 128, -1, 124, 125, 87, -1,
                                                        77, 103, 76, -1, 135, 142, 128, -1,
                                                        125, 85, 87, -1, 101, 76, 103, -1,
                                                        104, 102, 101, -1, 142, 135, 141, -1,
                                                        85, 83, 87, -1, 99, 98, 88, -1,
                                                        83, 82, 87, -1, 44, 21, 78, -1,
                                                        98, 80, 88, -1, 135, 12, 13, -1,
                                                        82, 107, 87, -1, 4, 95, 96, -1,
                                                        21, 105, 78, -1, 80, 92, 88, -1,
                                                        12, 96, 13, -1, 73, 86, 87, -1,
                                                        43, 21, 44, -1, 102, 100, 101, -1,
                                                        96, 95, 13, -1, 102, 18, 100, -1,
                                                        22, 20, 21, -1, 132, 134, 88, -1,
                                                        9, 106, 103, -1, 115, 96, 126, -1,
                                                        82, 79, 107, -1, 20, 2, 21, -1,
                                                        134, 65, 88, -1, 102, 19, 18, -1,
                                                        19, 136, 18, -1, 2, 3, 21, -1,
                                                        65, 66, 88, -1, 4, 97, 95, -1,
                                                        9, 6, 106, -1, 3, 9, 21, -1,
                                                        66, 58, 88, -1, 99, 88, 94, -1,
                                                        97, 73, 95, -1, 112, 90, 108, -1,
                                                        96, 135, 126, -1, 9, 10, 21, -1,
                                                        58, 59, 88, -1, 97, 4, 73, -1,
                                                        138, 129, 137, -1, 3, 2, 8, -1,
                                                        59, 140, 88, -1, 136, 127, 126, -1,
                                                        104, 15, 102, -1, 4, 5, 73, -1,
                                                        129, 61, 137, -1, 96, 12, 135, -1,
                                                        3, 8, 9, -1, 140, 14, 88, -1,
                                                        5, 109, 73, -1, 15, 19, 102, -1,
                                                        61, 60, 137, -1, 8, 0, 9, -1,
                                                        14, 94, 88, -1, 115, 119, 96, -1,
                                                        109, 75, 73, -1, 16, 138, 137, -1,
                                                        119, 116, 96, -1, 0, 6, 9, -1,
                                                        75, 25, 73, -1, 15, 122, 127, -1,
                                                        61, 129, 60, -1, 116, 110, 96, -1,
                                                        122, 120, 127, -1, 25, 86, 73, -1,
                                                        129, 68, 60, -1, 7, 11, 6, -1,
                                                        87, 107, 99, -1, 120, 118, 127, -1,
                                                        68, 70, 60, -1, 132, 130, 134, -1,
                                                        107, 79, 108, -1, 66, 64, 63, -1,
                                                        67, 69, 68, -1, 31, 23, 24, -1,
                                                        80, 98, 107, -1, 124, 84, 125, -1,
                                                        54, 124, 86, -1, 109, 5, 110, -1,
                                                        107, 108, 80, -1, 69, 130, 71, -1,
                                                        16, 137, 92, -1, 119, 120, 121, -1,
                                                        71, 132, 92, -1, 55, 54, 57, -1,
                                                        72, 93, 90, -1, 51, 52, 49, -1,
                                                        21, 33, 22, -1, 53, 48, 52, -1,
                                                        23, 28, 21, -1, 1, 7, 0, -1,
                                                        19, 15, 136, -1, 72, 76, 93, -1,
                                                        126, 128, 136, -1, 42, 41, 28, -1,
                                                        134, 133, 65, -1, 129, 131, 67, -1,
                                                        54, 50, 84, -1, 62, 131, 128, -1,
                                                        95, 73, 14, -1, 54, 55, 50, -1,
                                                        45, 77, 46, -1, 41, 31, 26, -1,
                                                        25, 24, 57, -1, 45, 44, 77, -1,
                                                        131, 62, 133, -1, 42, 29, 41, -1,
                                                        141, 135, 14, -1, 104, 106, 11, -1,
                                                        100, 18, 101, -1, 48, 53, 76, -1,
                                                        21, 43, 23, -1, 43, 44, 47, -1,
                                                        106, 101, 103, -1, 106, 104, 101, -1,
                                                        110, 4, 96, -1, 10, 9, 103, -1,
                                                        127, 115, 126, -1, 74, 99, 94 ]
                                                    ccw TRUE
                                                    solid FALSE
                                                    convex TRUE
                                                    creaseAngle 0

                                                  }

                                                }

                                            }

                                        }

                                    }

                                }

                            }

                        }

                    }

                }

            }

        }

    }

}
