#VRML V2.0 utf8


Group {
  children 
    Group {
      children 
        Group {
          children 
            Transform {
              translation -0.0046118228 -0.0036841417 0.023756739
              children 
                Transform {
                  rotation 0 0 1.000003  0.11424831
                  children 
                    Transform {
                      rotation 0 1 0  2.7823622
                      children 
                        Transform {
                          rotation 1.0000001 0 0  1.2901801
                          children 
                            Group {
                              children 
                                Transform {
                                  translation -0.0013108253 0.0010614395 0.0021545589
                                  children 
                                    Transform {
                                      rotation 0 0 0.99999988  1.2808834
                                      children 
                                        Transform {
                                          rotation -0 -1 -0  2.9855657
                                          children 
                                            Transform {
                                              rotation -0.99999768 -0 -0  0.17840149
                                              children 
                                                Shape {
                                                  appearance 
                                                  Appearance {
                                                    material 
                                                    Material {
                                                      diffuseColor 0.5 0.5 0.5

                                                    }

                                                  }
                                                  geometry 
                                                  IndexedFaceSet {
                                                    coord 
                                                    Coordinate {
                                                      point [ -0.0081177354 -0.0081679216 0.004912674,
                                                          -0.02487212 -0.0041860342 0.000633694,
                                                          -0.01295292 0.0088919401 0.0056154719,
                                                          -0.01460713 0.0090132346 0.0092548719,
                                                          -0.01231825 -0.0078599453 0.01415419,
                                                          -0.01758742 -0.0037671321 0.01601815,
                                                          -0.017541461 0.0032289019 0.0158059,
                                                          -0.02720087 -0.003236711 -0.0039255018,
                                                          -0.02850627 -0.0031411049 -0.001052916,
                                                          -0.020322969 -0.0045195809 -0.0093747368,
                                                          0.006008327 -0.0092036724 -0.026165601,
                                                          0.0026769631 -0.0052529569 -0.02856498,
                                                          -0.02395713 -0.0034746521 -0.01106142,
                                                          -0.032069139 0.0087540736 -0.003068804,
                                                          -0.02330219 0.0086757541 -0.003751456,
                                                          -0.030763499 0.0086583486 -0.0059412709,
                                                          -0.029847261 -0.00032900501 -0.0052252412,
                                                          -0.032101981 0.0037568801 -0.0029172299,
                                                          0.021728691 0.0084750652 -0.00061509601,
                                                          0.0117914 0.0092036724 0.02124756,
                                                          0.01721376 0.0032464259 0.023910761,
                                                          -0.0026139021 0.0081338882 -0.017130969,
                                                          0.029243231 0.002364397 -0.0025547741,
                                                          -0.027519939 0.0084205261 -0.01307725,
                                                          -0.02755278 0.0034233329 -0.01292568,
                                                          -0.026603401 -0.00056735403 -0.0123611,
                                                          -0.0311526 -0.000233803 -0.002352654,
                                                          -0.0066432352 -0.0082577458 0.0022711151,
                                                          0.026993331 -0.0089095831 -0.01192772,
                                                          0.0027229779 0.001743078 -0.02877724,
                                                          0.01043909 -0.0076957941 0.024492679,
                                                          0.01431262 -0.0059115291 0.02619385,
                                                          0.0158801 -0.008281528 0.0063652392,
                                                          0.01235449 -0.00858426 -0.0043769469,
                                                          0.02893823 -0.0084186792 -0.01062428,
                                                          0.00079758902 -0.007868587 0.01670962,
                                                          0.0088111162 -0.0035767551 0.02801078,
                                                          0.002766609 -0.0078812828 0.016717009,
                                                          0.01010227 -0.0029819601 0.02857786,
                                                          0.01067769 0.0034323931 0.0286256,
                                                          0.032101981 0.002154767 -0.0088441959,
                                                          0.032069139 -0.002842366 -0.0086925616,
                                                          0.030581949 -0.0070843101 -0.0095547428,
                                                          0.01594024 -0.00165975 0.02679193,
                                                          0.015973089 0.003337383 0.02664029,
                                                          0.01064485 -0.001564741 0.02877724 ]

                                                    }
                                                    normal 
                                                    Normal {
                                                      vector [  ]

                                                    }
                                                    coordIndex [ 39, 45, 43, -1, 36, 39, 6, -1,
                                                        7, 8, 26, -1, 4, 30, 36, -1,
                                                        28, 40, 41, -1, 31, 38, 36, -1,
                                                        31, 34, 42, -1, 31, 42, 41, -1,
                                                        43, 45, 38, -1, 20, 44, 43, -1,
                                                        3, 2, 14, -1, 18, 40, 29, -1,
                                                        6, 39, 19, -1, 12, 25, 11, -1,
                                                        30, 28, 34, -1, 35, 37, 30, -1,
                                                        4, 27, 35, -1, 13, 14, 15, -1,
                                                        29, 11, 25, -1, 16, 17, 24, -1,
                                                        6, 13, 17, -1, 4, 0, 27, -1,
                                                        15, 24, 17, -1, 30, 32, 28, -1,
                                                        5, 8, 4, -1, 32, 33, 28, -1,
                                                        14, 21, 23, -1, 8, 1, 4, -1,
                                                        24, 23, 29, -1, 15, 23, 24, -1,
                                                        33, 10, 28, -1, 8, 7, 1, -1,
                                                        13, 6, 3, -1, 33, 30, 10, -1,
                                                        23, 21, 29, -1, 9, 1, 7, -1,
                                                        27, 10, 37, -1, 30, 37, 10, -1,
                                                        25, 12, 7, -1, 19, 40, 18, -1,
                                                        14, 2, 21, -1, 2, 19, 18, -1,
                                                        9, 10, 4, -1, 33, 32, 30, -1,
                                                        27, 0, 10, -1, 19, 22, 40, -1,
                                                        39, 44, 19, -1, 26, 8, 5, -1,
                                                        44, 20, 19, -1, 0, 4, 10, -1,
                                                        20, 22, 19, -1, 16, 26, 17, -1,
                                                        2, 3, 19, -1, 26, 5, 17, -1,
                                                        9, 12, 10, -1, 4, 35, 30, -1,
                                                        44, 39, 43, -1, 45, 36, 38, -1,
                                                        36, 6, 5, -1, 36, 45, 39, -1,
                                                        16, 7, 26, -1, 5, 4, 36, -1,
                                                        10, 11, 29, -1, 29, 28, 10, -1,
                                                        41, 42, 34, -1, 34, 28, 41, -1,
                                                        40, 28, 29, -1, 30, 31, 36, -1,
                                                        43, 31, 41, -1, 31, 43, 38, -1,
                                                        41, 40, 22, -1, 22, 43, 41, -1,
                                                        43, 22, 20, -1, 13, 3, 14, -1,
                                                        21, 18, 29, -1, 3, 6, 19, -1,
                                                        10, 12, 11, -1, 31, 30, 34, -1,
                                                        24, 29, 25, -1, 25, 16, 24, -1,
                                                        5, 6, 17, -1, 13, 15, 17, -1,
                                                        15, 14, 23, -1, 12, 9, 7, -1,
                                                        35, 27, 37, -1, 16, 25, 7, -1,
                                                        21, 2, 18, -1, 1, 9, 4 ]
                                                    ccw TRUE
                                                    solid FALSE
                                                    convex TRUE
                                                    creaseAngle 0

                                                  }

                                                }

                                            }

                                        }

                                    }

                                }

                            }

                        }

                    }

                }

            }

        }

    }

}
