#VRML V2.0 utf8


Group {
  children 
    Group {
      children 
        Group {
          children 
            Transform {
              translation 0.0032675837 0.020788793 0.012523192
              children 
                Transform {
                  rotation -0 -0 -1  1.8854671
                  children 
                    Transform {
                      rotation 0 1 0  0.84135824
                      children 
                        Transform {
                          rotation 1 0 0  1.6486737
                          children 
                            Group {
                              children 
                                Transform {
                                  translation 0.0045931339 0.0051262081 -0.0016559958
                                  children 
                                    Transform {
                                      rotation -0 -0 -1  1.4083148
                                      children 
                                        Transform {
                                          rotation -0 -1.0000013 -0  0.28634733
                                          children 
                                            Transform {
                                              rotation 0.99999988 0 0  1.3461328
                                              children 
                                                Shape {
                                                  appearance 
                                                  Appearance {
                                                    material 
                                                    Material {
                                                      diffuseColor 0.5 0.5 0.5

                                                    }

                                                  }
                                                  geometry 
                                                  IndexedFaceSet {
                                                    coord 
                                                    Coordinate {
                                                      point [ -0.02324002 0.0088064671 0.01225304,
                                                          -0.03568083 0.0092108836 0.022897299,
                                                          -0.04074841 0.0033775561 0.02738142,
                                                          -0.036803059 -0.0075876708 0.02954012,
                                                          -0.040794369 -0.0036186569 0.02759367,
                                                          -0.031123221 -0.0036075709 0.0035107131,
                                                          -0.01821124 -0.0040273662 -0.00753653,
                                                          0.01237207 -0.0053474898 -0.017895279,
                                                          0.01301115 -0.0092073083 -0.01308077,
                                                          -0.02027702 0.0083909025 -0.00080723799,
                                                          -0.02008163 0.0081051579 -0.01018399,
                                                          -0.02814275 0.0083673 -0.003286957,
                                                          -0.032993492 0.008525013 0.00086336897,
                                                          -0.02540689 -0.001686334 -0.004322648,
                                                          -0.0085620284 0.0094057322 0.035217158,
                                                          -0.0043717618 0.0092695951 0.031632058,
                                                          -0.007603168 0.0036158559 0.04243904,
                                                          0.0098748198 0.0088066449 0.01944261,
                                                          0.01245743 0.0076451888 -0.018289501,
                                                          0.01574116 0.0086156121 0.01442348,
                                                          0.039576229 0.0078399768 -0.0059696431,
                                                          0.039221819 -0.0045645828 -0.0057173371,
                                                          0.040794369 0.002041637 0.001030087,
                                                          0.0398851 0.0075328941 -0.0058190222,
                                                          0.03965902 -0.003912508 -0.0055403109,
                                                          -0.019624351 -0.001874506 -0.0092700711,
                                                          -0.032536261 -0.0014545911 0.0017772909,
                                                          0.036112361 -0.0090414276 -0.002586066,
                                                          0.025376311 -0.0088489652 0.001426577,
                                                          0.01115846 -0.0087212324 0.0025581711,
                                                          0.002467691 -0.0079855323 0.024926661,
                                                          -0.01045906 -0.007626533 0.03397125,
                                                          -0.01473784 -0.0075446959 0.03574824,
                                                          0.0063568349 -0.0080732098 0.022872681,
                                                          -0.01924598 -0.0075479141 0.034671482,
                                                          -0.01205277 -0.007181406 0.040776368,
                                                          0.037314471 -0.0088111749 -0.001563429,
                                                          -0.0083868504 -0.004251658 0.04234498,
                                                          -0.01054686 -0.0065147872 0.041438632,
                                                          0.040131088 -0.0059502721 0.000748955,
                                                          0.038433898 -0.0081846714 -0.00062619598 ]

                                                    }
                                                    normal 
                                                    Normal {
                                                      vector [  ]

                                                    }
                                                    coordIndex [ 24, 39, 40, -1, 22, 39, 24, -1,
                                                        18, 20, 21, -1, 21, 40, 36, -1,
                                                        37, 38, 40, -1, 35, 37, 16, -1,
                                                        14, 1, 2, -1, 38, 35, 36, -1,
                                                        13, 12, 10, -1, 34, 32, 35, -1,
                                                        15, 23, 20, -1, 18, 9, 17, -1,
                                                        32, 31, 35, -1, 12, 11, 10, -1,
                                                        2, 12, 26, -1, 13, 26, 12, -1,
                                                        31, 33, 35, -1, 17, 19, 20, -1,
                                                        11, 9, 10, -1, 31, 30, 33, -1,
                                                        12, 1, 9, -1, 0, 14, 17, -1,
                                                        35, 33, 36, -1, 30, 31, 28, -1,
                                                        33, 27, 36, -1, 1, 0, 9, -1,
                                                        31, 34, 28, -1, 2, 1, 12, -1,
                                                        22, 23, 15, -1, 28, 29, 8, -1,
                                                        4, 26, 5, -1, 34, 29, 28, -1,
                                                        33, 30, 27, -1, 17, 14, 19, -1,
                                                        31, 32, 34, -1, 14, 15, 19, -1,
                                                        30, 28, 27, -1, 14, 16, 15, -1,
                                                        13, 6, 5, -1, 14, 0, 1, -1,
                                                        29, 34, 8, -1, 34, 3, 8, -1,
                                                        25, 10, 18, -1, 39, 22, 16, -1,
                                                        6, 25, 7, -1, 3, 5, 8, -1,
                                                        10, 9, 18, -1, 5, 6, 8, -1,
                                                        3, 34, 35, -1, 19, 15, 20, -1,
                                                        13, 25, 6, -1, 21, 24, 40, -1,
                                                        23, 22, 24, -1, 21, 7, 18, -1,
                                                        20, 24, 21, -1, 24, 20, 23, -1,
                                                        8, 7, 21, -1, 21, 36, 27, -1,
                                                        27, 8, 21, -1, 39, 37, 40, -1,
                                                        2, 4, 3, -1, 35, 16, 2, -1,
                                                        35, 38, 37, -1, 2, 3, 35, -1,
                                                        16, 14, 2, -1, 40, 38, 36, -1,
                                                        25, 13, 10, -1, 20, 18, 17, -1,
                                                        4, 2, 26, -1, 11, 12, 9, -1,
                                                        9, 0, 17, -1, 16, 22, 15, -1,
                                                        27, 28, 8, -1, 3, 4, 5, -1,
                                                        26, 13, 5, -1, 7, 25, 18, -1,
                                                        37, 39, 16, -1, 8, 6, 7 ]
                                                    ccw TRUE
                                                    solid FALSE
                                                    convex TRUE
                                                    creaseAngle 0

                                                  }

                                                }

                                            }

                                        }

                                    }

                                }

                            }

                        }

                    }

                }

            }

        }

    }

}
