#VRML V2.0 utf8


Group {
  children 
    Group {
      children 
        Group {
          children 
            Transform {
              translation 1.0078304 0.14792556 0.060259227
              rotation -3.3171495e-005 1 -3.317976e-005  1.5706813
              scale 0.99999994 1.0000005 1
              scaleOrientation -0.11365832 0.99107891 0.069602229  0.78106511
              children 
                Transform {
                  translation 0.051320709 -0.1682293 -1.010316
                  rotation 0.57730418 -0.57726246 -0.57748401  2.0937474
                  scale 0.99999869 0.9999997 0.99999976
                  scaleOrientation -0.98786086 0.0054621934 -0.1267644  0.0054372717
                  children 
                    Shape {
                      appearance 
                      Appearance {
                        material 
                        Material {
                          diffuseColor 0.48159999 0.48159999 0.48159999

                        }

                      }
                      geometry 
                      IndexedFaceSet {
                        coord 
                        Coordinate {
                          point [ -0.020296929 0.002499759 -0.0079991808,
                              -0.019996939 -0.0044996138 -0.01034188,
                              -0.0069988961 -0.0044996138 -0.0134986,
                              -0.0069988961 -0.0044996138 -0.01034188,
                              -0.0029995439 -0.0084993243 -0.01034188,
                              -0.02299648 -0.00049995998 -0.01034188,
                              -0.019996939 -0.0044996138 -0.0134986,
                              -0.0069988961 0.0084993243 -0.0134986,
                              -0.0069988961 0.0084993243 -0.01749819,
                              -0.0069988961 0.002499759 -0.01749819,
                              -0.0029995439 -0.0084993243 -0.020497911,
                              -0.0069988961 -0.0044996138 -0.0244975,
                              -0.0069988961 0.002499759 -0.0244975,
                              -0.023996649 -0.003427743 -0.01034188,
                              -0.01729738 0.002499759 -0.0134986,
                              -0.01817595 0.0003787 -0.0134986,
                              -0.020296929 -0.00049995998 -0.0134986,
                              -0.023996349 -0.003427922 -0.0134986,
                              -0.019996939 -0.0044996138 -0.0024996989,
                              -0.0069988961 -0.0044996138 -0.0073422189,
                              -0.0069988961 -0.0044996138 -0.0024996989,
                              -0.0029995439 -0.0084993243 0.023811869,
                              -0.01817595 0.0003787 -0.0024996989,
                              -0.01817595 0.0046208501 -0.0024996989,
                              -0.0069988961 0.0084993243 -0.0024996989,
                              -0.0069988961 -0.0044996138 0.0244975,
                              -0.01729738 0.002499759 -0.0024996989,
                              -0.019996939 -0.0044996138 -0.0073422189,
                              -0.0029995439 -0.0084993243 -0.0073422189,
                              -0.023996349 -0.003427922 -0.0024996989,
                              -0.023996649 -0.003427743 -0.0073422189,
                              -0.02299648 -0.00049995998 -0.0073422189,
                              -0.020296929 -0.00049995998 -0.0024996989,
                              -0.02241784 0.0003787 -0.0024996989,
                              -0.02799576 0.0084993243 -0.0134986,
                              -0.02137935 0.0084993243 -0.0086237192,
                              -0.020296929 0.0084993243 -0.0092490306,
                              -0.020296929 0.0054995408 -0.0092490306,
                              -0.019214511 0.0084993243 -0.0086237192,
                              -0.0192461 0.0053094621 -0.0086761108,
                              -0.02137935 0.0084993243 -0.0073746438,
                              -0.02141648 0.0052827592 -0.0085541001,
                              -0.020948639 0.0054278369 -0.0090655684,
                              -0.024996219 0.0084993243 -0.0073422189,
                              -0.020296929 0.0084993243 -0.0067492719,
                              -0.021349071 0.0053089261 -0.007324337,
                              -0.024996219 0.0084993243 -0.01034188,
                              -0.019214511 0.0084993243 -0.0073746438,
                              -0.020296929 0.0054995408 -0.0067492719,
                              -0.01917606 0.0052822232 -0.007446825,
                              -0.019644139 0.0054276581 -0.0069333911,
                              -0.024996219 0.001499831 -0.01034188,
                              -0.02799576 0.0084993243 -0.0073422189,
                              -0.02799576 0.003499686 -0.0073422189,
                              -0.026924429 -0.00049943 -0.0073422189,
                              -0.024996219 0.001499831 -0.0073422189,
                              -0.02799576 0.0084993243 -0.01034188,
                              -0.02799576 0.003499686 -0.01034188,
                              -0.026924429 -0.00049943 -0.01034188,
                              -0.020296929 0.0054995408 -0.0134986,
                              -0.02799576 0.003499686 -0.0134986,
                              0.021996669 0.0084993243 0.0065279002,
                              -0.01817595 0.0046208501 -0.0134986,
                              0.021996669 0.0084993243 -0.01749819,
                              0.02799576 0.002499759 -0.01749819,
                              -0.0069988961 0.0084993243 0.0114988,
                              0.02799576 0.002499759 0.0115863,
                              -0.0069988961 0.002499759 0.017585689,
                              -0.02799576 0.0084993243 -0.0024996989,
                              -0.020296929 0.0054995408 -0.0024996989,
                              -0.02799576 0.003499686 -0.0024996989,
                              -0.02692413 -0.00049995998 -0.0024996989,
                              -0.02241784 0.0046208501 -0.0024996989,
                              -0.02329647 0.002499759 -0.0024996989,
                              -0.02692413 -0.00049995998 -0.0134986,
                              -0.02241784 0.0046208501 -0.0134986,
                              -0.02329647 0.002499759 -0.0134986,
                              -0.02241784 0.0003787 -0.0134986,
                              -0.0027502771 -0.0084993243 -0.0073255892,
                              -0.0027502771 -0.00049995998 -0.0073255892,
                              0.00059041003 -0.0084993243 -0.0016144509,
                              0.000108084 -0.0084993243 -0.0064657922,
                              0.003308594 -0.0084993243 0.0024315109,
                              0.021996669 -0.0084993243 0.019526601,
                              -0.0069988961 0.002499759 0.0244975,
                              0.019996939 -0.0084993243 -0.004998683,
                              0.021996669 -0.0084993243 -0.020497911,
                              0.02623862 -0.0067420602 -0.020497911,
                              0.01944893 -0.0084993243 -0.001734614,
                              0.01786547 -0.0084993243 0.001171648,
                              0.01542013 -0.0084993243 0.003401815,
                              0.01238077 -0.0084993243 0.0047115078,
                              0.01179409 -0.0084993243 0.0065911999,
                              0.0099984398 -0.0084993243 0.0073992009,
                              0.0082028499 -0.0084993243 0.0065911999,
                              0.024309689 -0.0080354214 0.019130049,
                              0.0099984398 -0.0084993243 -0.017398231,
                              0.021996669 -0.0044996138 -0.0244975,
                              0.01179409 -0.0084993243 -0.016590171,
                              0.01542067 -0.0084993243 -0.01340043,
                              0.017866191 -0.0084993243 -0.01116973,
                              0.019449409 -0.0084993243 -0.008262991,
                              0.023410611 -0.0039138789 -0.0244975,
                              0.0036996 -0.0084993243 -0.01276481,
                              0.0076161022 -0.0084993243 -0.01471048,
                              0.0082028499 -0.0084993243 -0.016590171,
                              -0.0023003221 -0.0084993243 -0.01032531,
                              -0.0023003221 -0.00049995998 -0.01032531,
                              0.00098805095 -0.0084993243 -0.0093334913,
                              0.00098805095 -0.0064994688 -0.0093334913,
                              0.0043930998 -0.00049995998 -0.0082885623,
                              0.0036996 -0.0064994688 -0.01276481,
                              0.0076161022 -0.0064994688 -0.01471048,
                              0.0082028499 -0.0064994688 -0.016590171,
                              0.0099984398 -0.0064994688 -0.017398231,
                              0.01238077 -0.0084993243 -0.01471048,
                              0.01179409 -0.0064994688 -0.016590171,
                              0.01238077 -0.0064994688 -0.01471048,
                              0.01542067 -0.0064994688 -0.01340043,
                              0.017866191 -0.0064994688 -0.01116973,
                              0.019449409 -0.0064994688 -0.008262991,
                              0.019996939 -0.0064994688 -0.004998683,
                              0.01944893 -0.0064994688 -0.001734614,
                              0.01786547 -0.0064994688 0.001171648,
                              0.01542013 -0.0064994688 0.003401815,
                              0.01238077 -0.0064994688 0.0047115078,
                              0.01179409 -0.0064994688 0.0065910812,
                              0.0099984398 -0.0064994688 0.0073992009,
                              0.0076161022 -0.0084993243 0.0047115078,
                              0.0082028499 -0.0064994688 0.0065910812,
                              0.0076161022 -0.0064994688 0.0047115078,
                              0.003308594 -0.0064994688 0.0024315109,
                              0.00059041003 -0.0064994688 -0.0016144509,
                              0.000108084 -0.0064994688 -0.0064657922,
                              0.023996349 0.002499759 -0.0244975,
                              0.02799576 0.002499759 0.018498121,
                              0.02799576 -0.002499759 0.018498121,
                              0.026257331 -0.0067233439 0.0187962,
                              0.02799576 -0.002499759 -0.020497911,
                              0.02799576 0.002499759 -0.020497911,
                              0.023996349 -0.002499759 -0.0244975,
                              0.0035131569 -0.00049995998 -0.005420804,
                              0.0035131569 -0.0064994688 -0.005420804,
                              0.0048746462 -0.00049995998 -0.001001477,
                              0.0079976907 -0.00049995998 -0.01118302,
                              0.008828341 -0.00049995998 0.001393377,
                              0.0088257194 -0.0064994688 0.0013929,
                              0.0048736329 -0.0064994688 -0.001002728,
                              0.01261305 -0.00049995998 -0.01094937,
                              0.01337325 -0.00049995998 0.00055475399,
                              0.01337116 -0.0064994688 0.000556015,
                              0.015906449 -0.00049995998 -0.0077071781,
                              0.016211919 -0.00049995998 -0.003094136,
                              0.016211331 -0.0064994688 -0.003092288,
                              0.01590704 -0.0064994688 -0.0077058072,
                              0.01261395 -0.0064994688 -0.01094901,
                              0.0079981675 -0.0064994688 -0.01118314,
                              0.0043930998 -0.0064994688 -0.0082885623,
                              0.0099984398 -0.0064994688 0.0057994118,
                              0.0093060732 -0.0064994688 0.0045993319,
                              0.0093060732 -0.0064994688 0.0053996439,
                              0.01069086 -0.0064994688 0.0053996439,
                              0.0099984398 -0.0064994688 0.004199564,
                              0.01069086 -0.0064994688 0.0045993319,
                              0.01069086 -0.0064994688 -0.0145983,
                              0.0099984398 -0.0064994688 -0.01419854,
                              0.0099984398 -0.0064994688 -0.015798381,
                              0.01069086 -0.0064994688 -0.01539862,
                              0.0093060732 -0.0064994688 -0.01539862,
                              0.0093060732 -0.0064994688 -0.0145983,
                              0.0099984398 -0.001699864 -0.01419854,
                              0.01069116 -0.001699864 -0.01459848,
                              0.0093057752 -0.001699864 -0.01459848,
                              0.0093057752 -0.001699864 -0.01539844,
                              0.0099984398 -0.001699864 -0.015798381,
                              0.01069116 -0.001699864 -0.01539844,
                              0.0099984398 -0.001699864 0.0057994118,
                              0.01069116 -0.001699864 0.005399405,
                              0.0093057752 -0.001699864 0.005399405,
                              0.0093057752 -0.001699864 0.0045995112,
                              0.0099984398 -0.001699864 0.004199564,
                              0.01069116 -0.001699864 0.0045995112,
                              0.0099984398 -0.001219213 -0.01499843,
                              0.0099984398 -0.001219213 0.0049994579 ]

                        }
                        normal 
                        Normal {
                          vector [  ]

                        }
                        coordIndex [ 124, 123, 89, -1, 59, 75, 34, -1,
                            130, 128, 82, -1, 57, 56, 34, -1,
                            14, 26, 23, -1, 160, 178, 176, -1,
                            113, 112, 104, -1, 14, 15, 22, -1,
                            6, 16, 15, -1, 43, 46, 51, -1,
                            20, 28, 21, -1, 24, 69, 23, -1,
                            79, 133, 78, -1, 123, 122, 88, -1,
                            169, 172, 170, -1, 29, 18, 32, -1,
                            37, 36, 35, -1, 177, 181, 163, -1,
                            41, 45, 72, -1, 42, 41, 75, -1,
                            42, 37, 35, -1, 42, 35, 41, -1,
                            37, 39, 38, -1, 7, 47, 24, -1,
                            48, 44, 47, -1, 51, 58, 5, -1,
                            50, 47, 49, -1, 48, 47, 50, -1,
                            85, 121, 120, -1, 139, 138, 140, -1,
                            15, 16, 32, -1, 114, 113, 105, -1,
                            140, 97, 134, -1, 80, 132, 131, -1,
                            65, 20, 67, -1, 157, 156, 144, -1,
                            94, 129, 127, -1, 46, 43, 35, -1,
                            40, 45, 41, -1, 50, 49, 23, -1,
                            48, 69, 72, -1, 48, 50, 69, -1,
                            49, 39, 62, -1, 45, 48, 72, -1,
                            67, 84, 135, -1, 16, 77, 33, -1,
                            13, 58, 74, -1, 9, 12, 11, -1,
                            38, 39, 49, -1, 37, 59, 62, -1,
                            42, 59, 37, -1, 39, 37, 62, -1,
                            156, 155, 148, -1, 118, 117, 115, -1,
                            87, 83, 86, -1, 87, 95, 83, -1,
                            10, 11, 97, -1, 67, 66, 61, -1,
                            76, 75, 72, -1, 61, 66, 64, -1,
                            112, 111, 103, -1, 113, 168, 112, -1,
                            119, 118, 99, -1, 122, 121, 85, -1,
                            125, 124, 90, -1, 27, 18, 29, -1,
                            30, 29, 71, -1, 127, 126, 92, -1,
                            126, 125, 91, -1, 117, 118, 155, -1,
                            27, 19, 20, -1, 30, 54, 31, -1,
                            84, 21, 83, -1, 81, 133, 132, -1,
                            48, 45, 40, -1, 6, 2, 3, -1,
                            87, 86, 97, -1, 87, 137, 95, -1,
                            148, 151, 141, -1, 168, 173, 172, -1,
                            159, 160, 130, -1, 77, 76, 73, -1,
                            155, 154, 151, -1, 153, 150, 149, -1,
                            87, 138, 136, -1, 150, 146, 145, -1,
                            146, 147, 143, -1, 154, 153, 152, -1,
                            147, 142, 141, -1, 58, 57, 60, -1,
                            128, 130, 129, -1, 53, 70, 68, -1,
                            111, 109, 108, -1, 51, 5, 31, -1,
                            101, 120, 119, -1, 116, 114, 96, -1,
                            83, 89, 88, -1, 110, 107, 109, -1,
                            9, 8, 63, -1, 102, 140, 138, -1,
                            171, 175, 167, -1, 66, 136, 138, -1,
                            179, 178, 160, -1, 174, 173, 168, -1,
                            17, 6, 1, -1, 174, 166, 167, -1,
                            170, 171, 164, -1, 64, 139, 134, -1,
                            180, 179, 159, -1, 54, 71, 70, -1,
                            180, 162, 163, -1, 176, 177, 161, -1,
                            10, 4, 2, -1, 173, 174, 182, -1,
                            175, 182, 174, -1, 172, 173, 182, -1,
                            170, 172, 182, -1, 171, 170, 182, -1,
                            175, 171, 182, -1, 179, 180, 183, -1,
                            181, 183, 180, -1, 178, 179, 183, -1,
                            176, 178, 183, -1, 177, 176, 183, -1,
                            181, 177, 183, -1, 117, 116, 98, -1,
                            90, 124, 89, -1, 2, 15, 14, -1,
                            74, 77, 17, -1, 2, 6, 15, -1,
                            76, 77, 74, -1, 7, 14, 62, -1,
                            60, 76, 74, -1, 7, 2, 14, -1,
                            75, 76, 60, -1, 7, 62, 59, -1,
                            34, 75, 60, -1, 34, 7, 59, -1,
                            131, 130, 82, -1, 60, 57, 34, -1,
                            62, 14, 23, -1, 158, 160, 176, -1,
                            105, 113, 104, -1, 26, 14, 22, -1,
                            16, 6, 17, -1, 17, 77, 16, -1,
                            55, 43, 51, -1, 28, 20, 19, -1,
                            20, 21, 25, -1, 71, 29, 73, -1,
                            22, 32, 18, -1, 70, 73, 72, -1,
                            20, 22, 18, -1, 70, 71, 73, -1,
                            26, 22, 20, -1, 68, 72, 69, -1,
                            24, 26, 20, -1, 68, 70, 72, -1,
                            23, 26, 24, -1, 24, 68, 69, -1,
                            133, 79, 141, -1, 133, 81, 78, -1,
                            141, 142, 133, -1, 89, 123, 88, -1,
                            165, 169, 170, -1, 33, 73, 29, -1,
                            29, 32, 33, -1, 161, 177, 163, -1,
                            75, 41, 72, -1, 59, 42, 75, -1,
                            36, 37, 38, -1, 63, 8, 7, -1,
                            24, 61, 63, -1, 44, 68, 24, -1,
                            24, 65, 61, -1, 7, 34, 36, -1,
                            24, 63, 7, -1, 43, 52, 68, -1,
                            7, 36, 38, -1, 44, 43, 68, -1,
                            7, 38, 47, -1, 47, 44, 24, -1,
                            57, 46, 56, -1, 4, 106, 107, -1,
                            51, 46, 57, -1, 3, 4, 107, -1,
                            58, 51, 57, -1, 3, 107, 5, -1,
                            5, 1, 3, -1, 5, 58, 13, -1,
                            13, 1, 5, -1, 101, 85, 120, -1,
                            134, 139, 140, -1, 22, 15, 32, -1,
                            96, 114, 105, -1, 97, 140, 102, -1,
                            97, 12, 134, -1, 12, 97, 11, -1,
                            82, 80, 131, -1, 25, 84, 67, -1,
                            20, 65, 24, -1, 67, 20, 25, -1,
                            110, 157, 144, -1, 93, 94, 127, -1,
                            34, 56, 46, -1, 46, 36, 34, -1,
                            43, 44, 40, -1, 46, 35, 36, -1,
                            35, 43, 40, -1, 35, 40, 41, -1,
                            69, 50, 23, -1, 23, 49, 62, -1,
                            66, 67, 135, -1, 32, 16, 33, -1,
                            17, 13, 74, -1, 7, 8, 9, -1,
                            9, 11, 2, -1, 2, 7, 9, -1,
                            47, 38, 49, -1, 144, 156, 148, -1,
                            99, 118, 115, -1, 86, 10, 97, -1,
                            65, 67, 61, -1, 73, 76, 72, -1,
                            63, 61, 64, -1, 104, 112, 103, -1,
                            165, 111, 112, -1, 166, 113, 114, -1,
                            166, 116, 117, -1, 169, 165, 112, -1,
                            114, 116, 166, -1, 168, 169, 112, -1,
                            113, 166, 168, -1, 100, 119, 99, -1,
                            88, 122, 85, -1, 91, 125, 90, -1,
                            30, 27, 29, -1, 54, 30, 71, -1,
                            93, 127, 92, -1, 92, 126, 91, -1,
                            167, 166, 117, -1, 154, 155, 119, -1,
                            154, 120, 121, -1, 153, 122, 123, -1,
                            150, 124, 125, -1, 158, 126, 127, -1,
                            160, 129, 130, -1, 129, 160, 158, -1,
                            147, 131, 132, -1, 127, 129, 158, -1,
                            147, 146, 131, -1, 126, 158, 161, -1,
                            132, 133, 142, -1, 125, 126, 161, -1,
                            132, 142, 147, -1, 125, 161, 163, -1,
                            146, 162, 131, -1, 111, 157, 109, -1,
                            150, 162, 146, -1, 156, 157, 111, -1,
                            163, 162, 150, -1, 165, 156, 111, -1,
                            123, 150, 153, -1, 155, 156, 165, -1,
                            125, 163, 150, -1, 164, 155, 165, -1,
                            123, 124, 150, -1, 117, 155, 164, -1,
                            121, 153, 154, -1, 153, 121, 122, -1,
                            119, 155, 118, -1, 117, 164, 167, -1,
                            119, 120, 154, -1, 18, 27, 20, -1,
                            31, 27, 30, -1, 79, 28, 19, -1,
                            53, 43, 55, -1, 79, 78, 28, -1,
                            53, 52, 43, -1, 31, 79, 19, -1,
                            54, 55, 31, -1, 55, 54, 53, -1,
                            31, 19, 27, -1, 83, 135, 84, -1,
                            95, 137, 136, -1, 136, 83, 95, -1,
                            84, 25, 21, -1, 83, 136, 135, -1,
                            80, 81, 132, -1, 44, 48, 40, -1,
                            1, 6, 3, -1, 102, 87, 97, -1,
                            79, 31, 5, -1, 151, 143, 141, -1,
                            79, 5, 107, -1, 152, 145, 143, -1,
                            110, 79, 107, -1, 110, 144, 148, -1,
                            141, 79, 110, -1, 152, 149, 145, -1,
                            143, 151, 152, -1, 141, 110, 148, -1,
                            169, 168, 172, -1, 130, 162, 159, -1,
                            162, 130, 131, -1, 33, 77, 73, -1,
                            148, 155, 151, -1, 152, 153, 149, -1,
                            137, 87, 136, -1, 149, 150, 145, -1,
                            145, 146, 143, -1, 151, 154, 152, -1,
                            143, 147, 141, -1, 74, 58, 60, -1,
                            94, 128, 129, -1, 52, 53, 68, -1,
                            103, 111, 108, -1, 55, 51, 31, -1,
                            100, 101, 119, -1, 98, 116, 96, -1,
                            105, 104, 103, -1, 103, 108, 106, -1,
                            106, 4, 10, -1, 80, 28, 78, -1,
                            103, 106, 10, -1, 80, 78, 81, -1,
                            105, 103, 10, -1, 21, 28, 80, -1,
                            96, 105, 10, -1, 21, 80, 82, -1,
                            96, 10, 86, -1, 94, 21, 82, -1,
                            98, 96, 86, -1, 82, 128, 94, -1,
                            99, 98, 86, -1, 93, 21, 94, -1,
                            99, 115, 98, -1, 83, 21, 93, -1,
                            100, 99, 86, -1, 83, 93, 92, -1,
                            101, 100, 86, -1, 90, 92, 91, -1,
                            85, 101, 86, -1, 83, 92, 90, -1,
                            85, 86, 83, -1, 83, 90, 89, -1,
                            88, 85, 83, -1, 109, 157, 110, -1,
                            106, 108, 109, -1, 109, 107, 106, -1,
                            64, 9, 63, -1, 87, 102, 138, -1,
                            164, 171, 167, -1, 138, 139, 64, -1,
                            66, 135, 136, -1, 138, 64, 66, -1,
                            159, 179, 160, -1, 166, 174, 168, -1,
                            13, 17, 1, -1, 175, 174, 167, -1,
                            165, 170, 164, -1, 134, 9, 64, -1,
                            9, 134, 12, -1, 162, 180, 159, -1,
                            53, 54, 70, -1, 181, 180, 163, -1,
                            158, 176, 161, -1, 4, 3, 2, -1,
                            2, 11, 10, -1, 115, 117, 98 ]
                        ccw TRUE
                        solid FALSE
                        convex TRUE
                        creaseAngle 0

                      }

                    }

                }

            }

        }

    }

}
